…
year_of_data
```

*```py
# A tibble: 12,000 × 3
    user month comments
   <dbl> <chr>    <dbl>
 1     1 april        0
 2     2 april        2
 3     3 april        2
 4     4 april        5
 5     5 april        1
 6     6 april        3
 7     7 april        2
 8     8 april        1
 9     9 april        4
10    10 april        3
# ℹ 11,990 more rows
```

它会打印出四月的头十天，因为按字母顺序，四月是一年中的第一个月份，所以这是第一个被读取的 CSV 文件。

当我们有 CSV 文件时，这工作得很好，但我们可能并不总是有 CSV 文件，因此需要另一种方法，并且可以使用 `map_dfr()` 来实现这一点。这种方法的一个优点是，我们可以使用“.id”将文件名与观测值一起包含。在这里我们指定我们希望该列被称为“file”，但它可以是任何名称。

```py
year_of_data_using_purrr <-
 files_of_interest |>
 map_dfr(read_csv, .id = "file")
```

*```py
# A tibble: 12,000 × 4
   file       user month comments
   <chr>     <dbl> <chr>    <dbl>
 1 april.csv     1 april        0
 2 april.csv     2 april        2
 3 april.csv     3 april        2
 4 april.csv     4 april        5
 5 april.csv     5 april        1
 6 april.csv     6 april        3
 7 april.csv     7 april        2
 8 april.csv     8 april        1
 9 april.csv     9 april        4
10 april.csv    10 april        3
# ℹ 11,990 more rows
…
