…
然后，我们希望将行分开，使每一行成为一个观测值。我们可以通过查找“\n”来实现，记住我们需要转义反斜杠，因为它是一个特殊字符。

```r
jane_eyre <-
 separate_rows(jane_eyre, raw_text, sep = "\\n", convert = FALSE)

jane_eyre
```

```r
# A tibble: 93 × 2
   raw_text                                                          page_number
   <chr>                                                                   <int>
 1 "CHAPTER I"                                                                 1
 2 "There was no possibility of taking a walk that day. We had been…           1
 3 "leafless shrubbery an hour in the morning; but since dinner (Mr…           1
 4 "company, dined early) the cold winter wind had brought with it …           1
 5 "penetrating, that further out-door exercise was now out of the …           1
 6 ""                                                                          1
 7 "I was glad of it: I never liked long walks, especially on chill…           1
 8 "coming home in the raw twilight, with nipped fingers and toes, …           1
 9 "chidings of Bessie, the nurse, and humbled by the consciousness…           1
10 "Eliza, John, and Georgiana Reed."                                          1
# ℹ 83 more rows
```
…
