…
图表是构建引人入胜的数据故事的关键环节。它们让我们能够同时看到宏观模式和微观细节 ([Cleveland [1985] 1994, 5](99-references.html#ref-elementsofgraphingdata))。图表能带来一种对数据的熟悉感，这是其他任何方法都难以企及的。每一个感兴趣的变量都应该被绘制成图。

图表最重要的目标是尽可能多地传达实际数据及其背景信息。从某种意义上说，绘图是一个信息编码过程，我们构建一个精心设计的表征来向受众传递信息。受众必须解码这个表征。我们图表的成功与否取决于在这个过程中丢失了多少信息，因此解码是一个关键环节 ([Cleveland [1985] 1994, 221](99-references.html#ref-elementsofgraphingdata))。这意味着我们必须专注于创建适合特定受众的有效图表。

为了理解绘制实际数据为何重要，在安装并加载 `datasauRus` 包后，请考虑 `datasaurus_dozen` 数据集。

```py
datasaurus_dozen
```

*```py
# A tibble: 1,846 × 3
   dataset     x     y
   <chr>   <dbl> <dbl>
 1 dino     55.4  97.2
 2 dino     51.5  96.0
 3 dino     46.2  94.5
 4 dino     42.8  91.4
 5 dino     40.8  88.3
 6 dino     38.7  84.9
 7 dino     35.6  79.9
 8 dino     33.1  77.6
 9 dino     29.0  74.5
10 dino     26.2  71.4
# ℹ 1,836 more rows
…
