…
作为第一个例子，我们考虑 1975 年的美国各州人口。这个数据集包含在 R 的`state.x77`中。以下是数据集的概览：

```py
us_populations <-
 state.x77 |>
 as_tibble() |>
 clean_names() |>
 mutate(state = rownames(state.x77)) |>
 select(state, population, income)

us_populations
```

*```py
# A tibble: 50 × 3
   state       population income
   <chr>            <dbl>  <dbl>
 1 Alabama           3615   3624
 2 Alaska             365   6315
 3 Arizona           2212   4530
 4 Arkansas          2110   3378
 5 California       21198   5114
 6 Colorado          2541   4884
 7 Connecticut       3100   5348
 8 Delaware           579   4809
 9 Florida           8277   4815
10 Georgia           4931   4091
# ℹ 40 more rows
…
us_states_MNAR <-
 us_populations |>
 mutate(population =
 if_else(state %in% highest_population_states,
 NA_real_,
 population))

us_states_MNAR
```

*```py
# A tibble: 50 × 3
   state       population income
   <chr>            <dbl>  <dbl>
 1 Alabama           3615   3624
 2 Alaska             365   6315
 3 Arizona           2212   4530
 4 Arkansas          2110   3378
 5 California          NA   5114
 6 Colorado          2541   4884
 7 Connecticut       3100   5348
 8 Delaware           579   4809
 9 Florida           8277   4815
10 Georgia           4931   4091
# ℹ 40 more rows
…
```py
all_2021_ttc_data <-
 list_package_resources("996cfe8d-fb35-40ce-b569-698d51fc683b") |>
 filter(name == "ttc-subway-delay-data-2021") |>
 get_resource() |>
 bind_rows() |>
 clean_names()

write_csv(all_2021_ttc_data, "all_2021_ttc_data.csv")

all_2021_ttc_data
```

*```py
# A tibble: 16,370 × 10
   date                time   day    station code  min_delay min_gap bound line 
   <dttm>              <time> <chr>  <chr>   <chr>     <dbl>   <dbl> <chr> <chr>
 1 2021-01-01 00:00:00 00:33  Friday BLOOR … MUPAA         0       0 N     YU   
 2 2021-01-01 00:00:00 00:39  Friday SHERBO… EUCO          5       9 E     BD   
 3 2021-01-01 00:00:00 01:07  Friday KENNED… EUCD          5       9 E     BD   
 4 2021-01-01 00:00:00 01:41  Friday ST CLA… MUIS          0       0 <NA>  YU   
 5 2021-01-01 00:00:00 02:04  Friday SHEPPA… MUIS          0       0 <NA>  YU   
 6 2021-01-01 00:00:00 02:35  Friday KENNED… MUIS          0       0 <NA>  BD   
 7 2021-01-01 00:00:00 02:39  Friday VAUGHA… MUIS          0       0 <NA>  YU   
 8 2021-01-01 00:00:00 06:00  Friday TORONT… MUO           0       0 <NA>  YU   
 9 2021-01-01 00:00:00 06:00  Friday TORONT… MUO           0       0 <NA>  SHP  
10 2021-01-01 00:00:00 06:00  Friday TORONT… MRO           0       0 <NA>  SRT  
# ℹ 16,360 more rows
# ℹ 1 more variable: vehicle <dbl>
```
…
在这个例子中，我们在“bound”中有许多缺失值，在“line”中有两个。对于这些已知的未知数，如第六章中讨论的，我们感兴趣的是它们是否是随机缺失的。我们理想上想展示数据偶然丢失了。但这不太可能，所以我们通常试图了解数据缺失的系统特征。

有时数据会偶然重复。如果我们没有注意到这一点，那么我们的分析就会出错，而我们无法始终如一地预期。有各种方法可以查找重复的行，但`janitor`中的`get_dupes()`特别有用。

```py
get_dupes(all_2021_ttc_data_filtered_lines)
```

*```py
# A tibble: 36 × 11
   date                time   day    station code  min_delay min_gap bound line 
   <dttm>              <time> <chr>  <chr>   <chr>     <dbl>   <dbl> <chr> <chr>
 1 2021-09-13 00:00:00 06:00  Monday TORONT… MRO           0       0 <NA>  SRT  
 2 2021-09-13 00:00:00 06:00  Monday TORONT… MRO           0       0 <NA>  SRT  
 3 2021-09-13 00:00:00 06:00  Monday TORONT… MRO           0       0 <NA>  SRT  
 4 2021-09-13 00:00:00 06:00  Monday TORONT… MUO           0       0 <NA>  SHP  
 5 2021-09-13 00:00:00 06:00  Monday TORONT… MUO           0       0 <NA>  SHP  
 6 2021-09-13 00:00:00 06:00  Monday TORONT… MUO           0       0 <NA>  SHP  
 7 2021-03-31 00:00:00 05:45  Wedne… DUNDAS… MUNCA         0       0 <NA>  BD   
 8 2021-03-31 00:00:00 05:45  Wedne… DUNDAS… MUNCA         0       0 <NA>  BD   
 9 2021-06-08 00:00:00 14:40  Tuesd… VAUGHA… MUNOA         3       6 S     YU   
10 2021-06-08 00:00:00 14:40  Tuesd… VAUGHA… MUNOA         3       6 S     YU   
# ℹ 26 more rows
# ℹ 2 more variables: vehicle <dbl>, dupe_count <int>
…
all_2021_ttc_data_no_dupes
```

*```py
# A tibble: 15,908 × 11
   date                time   day    station code  min_delay min_gap bound line 
   <dttm>              <time> <chr>  <chr>   <chr>     <dbl>   <dbl> <chr> <chr>
 1 2021-01-01 00:00:00 00:33  Friday BLOOR … MUPAA         0       0 N     YU   
 2 2021-01-01 00:00:00 00:39  Friday SHERBO… EUCO          5       9 E     BD   
 3 2021-01-01 00:00:00 01:07  Friday KENNED… EUCD          5       9 E     BD   
 4 2021-01-01 00:00:00 01:41  Friday ST CLA… MUIS          0       0 <NA>  YU   
 5 2021-01-01 00:00:00 02:04  Friday SHEPPA… MUIS          0       0 <NA>  YU   
 6 2021-01-01 00:00:00 02:35  Friday KENNED… MUIS          0       0 <NA>  BD   
 7 2021-01-01 00:00:00 02:39  Friday VAUGHA… MUIS          0       0 <NA>  YU   
 8 2021-01-01 00:00:00 06:00  Friday TORONT… MUO           0       0 <NA>  YU   
 9 2021-01-01 00:00:00 06:00  Friday TORONT… MUO           0       0 <NA>  SHP  
10 2021-01-01 00:00:00 06:00  Friday TORONT… MRO           0       0 <NA>  SRT  
# ℹ 15,898 more rows
# ℹ 2 more variables: vehicle <dbl>, station_clean <chr>
…
all_2021_ttc_data_no_dupes_with_explanation <-
 all_2021_ttc_data_no_dupes |>
 mutate(type = if_else(line == "SRT", "srt", "sub")) |>
 left_join(
 fix_organization_of_codes,
 by = c("type", "code")
 )

all_2021_ttc_data_no_dupes_with_explanation |>
 select(station_clean, code, min_delay, code_desc) |>
 arrange(-min_delay)
```

*```py
# A tibble: 15,908 × 4
   station_clean code  min_delay code_desc                                  
   <chr>         <chr>     <dbl> <chr>                                      
 1 MUSEUM        PUTTP       348 Traction Power Rail Related                
 2 EGLINTON      PUSTC       343 Signals - Track Circuit Problems           
 3 WOODBINE      MUO         312 Miscellaneous Other                        
 4 MCCOWAN       PRSL        275 Loop Related Failures                      
 5 SHEPPARD WEST PUTWZ       255 Work Zone Problems - Track                 
 6 ISLINGTON     MUPR1       207 Priority One - Train in Contact With Person
 7 SHEPPARD WEST MUPR1       191 Priority One - Train in Contact With Person
 8 ROYAL         SUAP        182 Assault / Patron Involved                  
 9 ROYAL         MUPR1       180 Priority One - Train in Contact With Person
10 SHEPPARD      MUPR1       171 Priority One - Train in Contact With Person
# ℹ 15,898 more rows
…
*```py
 [1] "$" "1" "0" "." "6" "5" "3" "2" "4" "9" "8" "7" ","
```

```py
airbnb_data_selected |>
 select(price) |>
 filter(str_detect(price, ","))
```

*```py
# A tibble: 1,629 × 1
   price    
   <chr>    
 1 $3,070.00
 2 $1,570.00
 3 $1,480.00
 4 $1,000.00
 5 $1,100.00
 6 $1,433.00
 7 $1,800.00
 8 $1,000.00
 9 $1,000.00
10 $1,000.00
# ℹ 1,619 more rows
```
…
tidy_anscombe_MCAR
```

*```py
# A tibble: 44 × 3
   set       x     y
   <chr> <dbl> <dbl>
 1 1        10  8.04
 2 2        10  9.14
 3 3        NA NA   
 4 4         8 NA   
 5 1         8  6.95
 6 2         8  8.14
 7 3         8  6.77
 8 4         8  5.76
 9 1        NA  7.58
10 2        13  8.74
# ℹ 34 more rows
```
…
tidy_anscombe_MNAR
```

*```py
# A tibble: 44 × 3
   set       x     y
   <chr> <dbl> <dbl>
 1 1        NA NA   
 2 1        NA NA   
 3 1         9 NA   
 4 1        11  8.33
 5 1        10  8.04
 6 1        NA  7.58
 7 1         6  7.24
 8 1         8  6.95
 9 1         5  5.68
10 1         7  4.82
# ℹ 34 more rows
```
…
