…
week_or_weekday <-
 tibble(
 num_cars = sample.int(n = 100, size = 1000, replace = TRUE),
 noise = rnorm(n = 1000, mean = 0, sd = 10),
 is_weekday = if_else(num_cars + noise > 50, 1, 0)
 ) |>
 select(-noise)

week_or_weekday
```

```r
# A tibble: 1,000 × 2
   num_cars is_weekday
      <int>      <dbl>
 1        9          0
 2       64          1
 3       90          1
 4       93          1
 5       17          0
 6       29          0
 7       84          1
 8       83          1
 9        3          0
10       33          1
# ℹ 990 more rows
```
…
我们可以将我们的估计转换为给定汽车数量的工作日概率。我们可以使用 `marginaleffects` 的 `predictions()` 函数为每个观测值添加隐含的工作日概率。

```r
week_or_weekday_predictions <-
 predictions(week_or_weekday_model) |>
 as_tibble()

week_or_weekday_predictions
```

```r
# A tibble: 1,000 × 8
   rowid estimate  p.value s.value  conf.low conf.high is_weekday num_cars
   <int>    <dbl>    <dbl>   <dbl>     <dbl>     <dbl>      <dbl>    <int>
 1     1 0.000417 1.40e-36   119\.  0.000125   0.00139           0        9
 2     2 0.934    9.33e-27    86.5 0.898      0.959             1       64
 3     3 0.999    1.97e-36   119\.  0.998      1.00              1       90
 4     4 1.00     1.10e-36   119\.  0.999      1.00              1       93
 5     5 0.00190  1.22e-35   116\.  0.000711   0.00508           0       17
 6     6 0.0182   3.34e-32   105\.  0.00950    0.0348            0       29
 7     7 0.998    1.00e-35   116\.  0.996      0.999             1       84
 8     8 0.998    1.42e-35   116\.  0.995      0.999             1       83
 9     9 0.000134 5.22e-37   121\.  0.0000338  0.000529          0        3
10    10 0.0382   1.08e-29    96.2 0.0222     0.0649            1       33
# ℹ 990 more rows
```
…
ces2020
```

```r
# A tibble: 61,000 × 4
   votereg CC20_410 gender  educ
     <int>    <int>  <int> <int>
 1       1        2      1     4
 2       2       NA      2     6
 3       1        1      2     5
 4       1        1      2     5
 5       1        4      1     5
 6       1        2      1     3
 7       2       NA      1     3
 8       1        2      2     3
 9       1        2      2     2
10       1        1      2     5
# ℹ 60,990 more rows
```
…
```r
jane_eyre <- read_csv(
 "jane_eyre.csv",
 col_types = cols(
 gutenberg_id = col_integer(),
 text = col_character()
 )
)

jane_eyre
```

```r
# A tibble: 21,001 × 2
   gutenberg_id text                           
          <int> <chr>                          
 1         1260 JANE EYRE                      
 2         1260 AN AUTOBIOGRAPHY               
 3         1260 <NA>                           
 4         1260 by Charlotte Brontë            
 5         1260 <NA>                           
 6         1260 _ILLUSTRATED BY F. H. TOWNSEND_
 7         1260 <NA>                           
 8         1260 London                         
 9         1260 SERVICE & PATON                
10         1260 5 HENRIETTA STREET             
# ℹ 20,991 more rows
```
…
我们将模拟一个死亡原因遵循负二项式分布的数据集。

```r
alberta_death_simulation <-
 tibble(
 cause = rep(x = c("Heart", "Stroke", "Diabetes"), times = 10),
 year = rep(x = 2016:2018, times = 10),
 deaths = rnbinom(n = 30, size = 20, prob = 0.1)
 )

alberta_death_simulation
```

```r
# A tibble: 30 × 3
   cause     year deaths
   <chr>    <int>  <int>
 1 Heart     2016    241
 2 Stroke    2017    197
 3 Diabetes  2018    139
 4 Heart     2016    136
 5 Stroke    2017    135
 6 Diabetes  2018    130
 7 Heart     2016    194
 8 Stroke    2017    211
 9 Diabetes  2018    190
10 Heart     2016    142
# ℹ 20 more rows
```
…
political_support <-
 tibble(
 state = sample(1:50, size = 1000, replace = TRUE),
 gender = sample(c(1, 2), size = 1000, replace = TRUE),
 noise = rnorm(n = 1000, mean = 0, sd = 10) |> round(),
 supports = if_else(state + gender + noise > 50, 1, 0)
 )

political_support
```

```r
# A tibble: 1,000 × 4
   state gender noise supports
   <int>  <dbl> <dbl>    <dbl>
 1     9      1    11        0
 2    26      1     3        0
 3    29      2     7        0
 4    17      2    13        0
 5    37      2    11        0
 6    29      2     9        0
 7    50      2     3        1
 8    20      2     3        0
 9    19      1    -1        0
10     3      2     7        0
# ℹ 990 more rows
…
```r
lines_by_author_work <-
 books |>
 summarise(number_of_lines = n(),
 .by = c(author, title))

lines_by_author_work
```

```r
# A tibble: 125 × 3
   author            title                       number_of_lines
   <chr>             <chr>                                 <int>
 1 Austen, Jane      Emma                                  16488
 2 Austen, Jane      Lady Susan                             2525
 3 Austen, Jane      Love and Freindship [sic]              3401
 4 Austen, Jane      Mansfield Park                        15670
 5 Austen, Jane      Northanger Abbey                       7991
 6 Austen, Jane      Persuasion                             8353
 7 Austen, Jane      Pride and Prejudice                   14199
 8 Austen, Jane      Sense and Sensibility                 12673
 9 Brontë, Charlotte Jane Eyre: An Autobiography           21001
10 Brontë, Charlotte Shirley                               25520
# ℹ 115 more rows
```
…
