…
pop_size <- 1000000

sim_population <-
 tibble(
 age = rbinom(n = pop_size, size = 1, prob = 0.5),
 nationality = rbinom(n = pop_size, size = 1, prob = 0.5),
 probability = (age + nationality + 0.1) / 2.2, # prevent certainty
 prefers_tea = rbinom(n = pop_size, 1, prob = probability)
 ) 

sim_population
```

```r
# A tibble: 1,000,000 × 4
     age nationality probability prefers_tea
   <int>       <int>       <dbl>       <int>
 1     0           1      0.5              0
 2     0           0      0.0455           0
 3     0           1      0.5              1
 4     0           0      0.0455           0
 5     0           0      0.0455           0
 6     0           0      0.0455           0
 7     0           1      0.5              0
 8     0           0      0.0455           0
 9     0           1      0.5              1
10     0           0      0.0455           0
# ℹ 999,990 more rows
```
…
在这个模拟例子中，我们可以使用人口作为我们的后分层数据集。问题是，在有一百万个观察值时，它是不便操作的，所以我们从中抽取了 1 万个样本。我们还删除了茶偏好变量，因为我们假装我们不知道这一点。

```r
set.seed(853)

tea_poststrat_dataset <- 
 sim_population |> 
 slice_sample(n = 10000) |> 
 select(-prefers_tea)

tea_poststrat_dataset
```

```r
# A tibble: 10,000 × 3
     age nationality probability
   <int>       <int>       <dbl>
 1     0           1      0.5   
 2     0           1      0.5   
 3     0           1      0.5   
 4     0           1      0.5   
 5     1           0      0.5   
 6     1           0      0.5   
 7     0           0      0.0455
 8     1           0      0.5   
 9     1           0      0.5   
10     1           0      0.5   
# ℹ 9,990 more rows
```
…
### 16.3.1 调查数据

我们将使用民主基金选民研究小组的 Nationscape 调查数据集。MRP 的一个棘手方面是确保调查数据集和后分层数据集之间的一致性。在这种情况下，在读取我们在第八章（08-hunt.html）中清理的数据集后，我们需要做一些工作来使变量保持一致。

```r
nationscape_data <- 
 read_csv(file = "nationscape_data.csv")
```

```r
nationscape_data
```

```r
# A tibble: 5,200 × 5
   gender state vote_biden age_group education_level    
 * <chr>  <chr>      <dbl> <chr>     <chr>              
 1 female WI             0 45-59     Post sec +         
 2 female VA             0 45-59     Post sec +         
 3 female TX             0 60+       High school or less
 4 female WA             0 45-59     High school or less
 5 female MA             1 18-29     Some post sec      
 6 female TX             1 30-44     Some post sec      
 7 female CA             0 60+       Some post sec      
 8 female NC             0 45-59     Post sec +         
 9 female MD             0 60+       Post sec +         
10 female FL             1 45-59     Some post sec      
# ℹ 5,190 more rows
…
### 16.3.2 后分层数据

我们有很多选项可以用来进行后分层的数据集，并且有许多考虑因素。我们追求的是高质量（无论如何定义）且可能更大的数据集。从严格的数据角度来看，最佳选择可能类似于第十二章中使用的合作选举研究（CES），但它在选举后才会公开发布，这限制了用它来预测选举的合理性。Wang 等人 (2015) 使用了出口民调数据，但同样，这些数据也只有在选举后才能获得。

我们将使用我们在第六章中收集的 2019 年美国社区调查（ACS）数据集。

```r
poststrat_data
```

```r
# A tibble: 407,354 × 4
   gender age_group education_level     stateicp
 * <fct>  <fct>     <fct>               <fct>   
 1 male   60+       High school or less alabama 
 2 male   60+       Some post sec       alabama 
 3 male   18-29     High school or less alabama 
 4 female 18-29     Some post sec       alabama 
 5 male   30-44     Some post sec       alabama 
 6 female 18-29     High school or less alabama 
 7 female 60+       High school or less alabama 
 8 female 18-29     Some post sec       alabama 
 9 male   60+       High school or less alabama 
10 male   45-59     High school or less alabama 
# ℹ 407,344 more rows
```
…
最后，我们为这些单元格添加比例。

```r
poststrat_data_cells <-
 poststrat_data_cells |>
 mutate(prop = n / sum(n),
 .by = stateicp)

poststrat_data_cells
```

```r
# A tibble: 1,627 × 6
   stateicp    gender age_group education_level         n    prop
   <fct>       <fct>  <fct>     <fct>               <int>   <dbl>
 1 connecticut male   18-29     High school or less   194 0.0419 
 2 connecticut male   18-29     Some post sec         128 0.0276 
 3 connecticut male   18-29     Post sec +             72 0.0156 
 4 connecticut male   18-29     Grad degree            14 0.00302
 5 connecticut male   30-44     High school or less   132 0.0285 
 6 connecticut male   30-44     Some post sec          93 0.0201 
 7 connecticut male   30-44     Post sec +            147 0.0317 
 8 connecticut male   30-44     Grad degree            88 0.0190 
 9 connecticut male   45-59     High school or less   187 0.0404 
10 connecticut male   45-59     Some post sec          88 0.0190 
# ℹ 1,617 more rows
```
…
