…
我们使用`select()`来选择数据集的特定列。例如，我们可能想选择“firstName”列。

```r
australian_politicians |>
 select(firstName)
```

```r
# A tibble: 1,783 × 1
   firstName
   <chr>    
 1 Richard  
 2 Percy    
 3 Macartney
 4 Charles  
 5 Joseph   
 6 Anthony  
 7 John     
 8 Eric     
 9 Judith   
10 Dick     
# ℹ 1,773 more rows
```
…
```r
[1] "Richard"   "Percy"     "Macartney" "Charles"   "Joseph"    "Anthony" 
```
我们也可以使用`select()`来删除列，通过取列名的否定。

```r
australian_politicians |>
 select(-firstName)
```

```r
# A tibble: 1,783 × 19
   uniqueID   surname allOtherNames   commonName displayName earlierOrLaterNames
   <chr>      <chr>   <chr>           <chr>      <chr>       <chr>              
 1 Abbott1859 Abbott  Richard Hartle… <NA>       Abbott, Ri… <NA>               
 2 Abbott1869 Abbott  Percy Phipps    <NA>       Abbott, Pe… <NA>               
 3 Abbott1877 Abbott  Macartney       Mac        Abbott, Mac <NA>               
 4 Abbott1886 Abbott  Charles Lydiar… Aubrey     Abbott, Au… <NA>               
 5 Abbott1891 Abbott  Joseph Palmer   <NA>       Abbott, Jo… <NA>               
 6 Abbott1957 Abbott  Anthony John    Tony       Abbott, To… <NA>               
 7 Abel1939   Abel    John Arthur     <NA>       Abel, John  <NA>               
 8 Abetz1958  Abetz   Eric            <NA>       Abetz, Eric <NA>               
 9 Adams1943  Adams   Judith Anne     <NA>       Adams, Jud… nee Bird           
10 Adams1951  Adams   Dick Godfrey H… <NA>       Adams, Dick <NA>               
# ℹ 1,773 more rows
# ℹ 13 more variables: title <chr>, gender <chr>, birthDate <date>,
#   birthYear <dbl>, birthPlace <chr>, deathDate <date>, member <dbl>,
#   senator <dbl>, wasPrimeMinister <dbl>, wikidataID <chr>, wikipedia <chr>,
#   adb <chr>, comments <chr>
```
最后，我们可以根据条件进行`select()`。例如，我们可以选择以“birth”开头的所有列。

```r
australian_politicians |>
 select(starts_with("birth"))
```

```r
# A tibble: 1,783 × 3
   birthDate  birthYear birthPlace  
   <date>         <dbl> <chr>       
 1 NA              1859 Bendigo     
 2 1869-05-14        NA Hobart      
 3 1877-07-03        NA Murrurundi  
 4 1886-01-04        NA St Leonards 
 5 1891-10-18        NA North Sydney
 6 1957-11-04        NA London      
 7 1939-06-25        NA Sydney      
 8 1958-01-25        NA Stuttgart   
 9 1943-04-11        NA Picton      
10 1951-04-29        NA Launceston  
# ℹ 1,773 more rows
```
…
australian_politicians
```

```r
# A tibble: 1,783 × 10
   uniqueID   surname firstName gender birthDate  birthYear deathDate  member
   <chr>      <chr>   <chr>     <chr>  <date>         <dbl> <date>      <dbl>
 1 Abbott1859 Abbott  Richard   male   NA              1859 1940-02-28      0
 2 Abbott1869 Abbott  Percy     male   1869-05-14        NA 1940-09-09      1
 3 Abbott1877 Abbott  Macartney male   1877-07-03        NA 1960-12-30      0
 4 Abbott1886 Abbott  Charles   male   1886-01-04        NA 1975-04-30      1
 5 Abbott1891 Abbott  Joseph    male   1891-10-18        NA 1965-05-07      1
 6 Abbott1957 Abbott  Anthony   male   1957-11-04        NA NA              1
 7 Abel1939   Abel    John      male   1939-06-25        NA NA              1
 8 Abetz1958  Abetz   Eric      male   1958-01-25        NA NA              0
 9 Adams1943  Adams   Judith    female 1943-04-11        NA 2012-03-31      0
10 Adams1951  Adams   Dick      male   1951-04-29        NA NA              1
# ℹ 1,773 more rows
# ℹ 2 more variables: senator <dbl>, wasPrimeMinister <dbl>
```
对于初学者来说，有时会让人困惑的一件事是输出不会“保存”，除非你将其分配给一个对象。例如，这里的前几行是`australian_politicians <- australian_politicians |>`然后使用`select()`，与`australian_politicians |>`相比。这确保了`select()`带来的更改应用于对象，因此修改后的版本将在代码的任何后续点使用。
  
### A.4.2 `filter()`

我们使用`filter()`来选择数据集的特定行。例如，我们可能只对成为总理的政治家感兴趣。

```r
australian_politicians |>
 filter(wasPrimeMinister == 1)
```

```r
# A tibble: 30 × 10
   uniqueID    surname firstName gender birthDate  birthYear deathDate  member
   <chr>       <chr>   <chr>     <chr>  <date>         <dbl> <date>      <dbl>
 1 Abbott1957  Abbott  Anthony   male   1957-11-04        NA NA              1
 2 Barton1849  Barton  Edmund    male   1849-01-18        NA 1920-01-07      1
 3 Bruce1883   Bruce   Stanley   male   1883-04-15        NA 1967-08-25      1
 4 Chifley1885 Chifley Joseph    male   1885-09-22        NA 1951-06-13      1
 5 Cook1860    Cook    Joseph    male   1860-12-07        NA 1947-07-30      1
 6 Curtin1885  Curtin  John      male   1885-01-08        NA 1945-07-05      1
 7 Deakin1856  Deakin  Alfred    male   1856-08-03        NA 1919-10-07      1
 8 Fadden1894  Fadden  Arthur    male   1894-04-13        NA 1973-04-21      1
 9 Fisher1862  Fisher  Andrew    male   1862-08-29        NA 1928-10-22      1
10 Forde1890   Forde   Francis   male   1890-07-18        NA 1983-01-28      1
# ℹ 20 more rows
# ℹ 2 more variables: senator <dbl>, wasPrimeMinister <dbl>
```
…
```r
australian_politicians |>
 slice(-1)
```

```r
# A tibble: 1,782 × 10
   uniqueID    surname firstName gender birthDate  birthYear deathDate  member
   <chr>       <chr>   <chr>     <chr>  <date>         <dbl> <date>      <dbl>
 1 Abbott1869  Abbott  Percy     male   1869-05-14        NA 1940-09-09      1
 2 Abbott1877  Abbott  Macartney male   1877-07-03        NA 1960-12-30      0
 3 Abbott1886  Abbott  Charles   male   1886-01-04        NA 1975-04-30      1
 4 Abbott1891  Abbott  Joseph    male   1891-10-18        NA 1965-05-07      1
 5 Abbott1957  Abbott  Anthony   male   1957-11-04        NA NA              1
 6 Abel1939    Abel    John      male   1939-06-25        NA NA              1
 7 Abetz1958   Abetz   Eric      male   1958-01-25        NA NA              0
 8 Adams1943   Adams   Judith    female 1943-04-11        NA 2012-03-31      0
 9 Adams1951   Adams   Dick      male   1951-04-29        NA NA              1
10 Adamson1857 Adamson John      male   1857-02-18        NA 1922-05-02      0
# ℹ 1,772 more rows
# ℹ 2 more variables: senator <dbl>, wasPrimeMinister <dbl>
```
…
```r
australian_politicians |>
 slice(1:2, 1:n())
```

```r
# A tibble: 1,785 × 10
   uniqueID   surname firstName gender birthDate  birthYear deathDate  member
   <chr>      <chr>   <chr>     <chr>  <date>         <dbl> <date>      <dbl>
 1 Abbott1859 Abbott  Richard   male   NA              1859 1940-02-28      0
 2 Abbott1869 Abbott  Percy     male   1869-05-14        NA 1940-09-09      1
 3 Abbott1859 Abbott  Richard   male   NA              1859 1940-02-28      0
 4 Abbott1869 Abbott  Percy     male   1869-05-14        NA 1940-09-09      1
 5 Abbott1877 Abbott  Macartney male   1877-07-03        NA 1960-12-30      0
 6 Abbott1886 Abbott  Charles   male   1886-01-04        NA 1975-04-30      1
 7 Abbott1891 Abbott  Joseph    male   1891-10-18        NA 1965-05-07      1
 8 Abbott1957 Abbott  Anthony   male   1957-11-04        NA NA              1
 9 Abel1939   Abel    John      male   1939-06-25        NA NA              1
10 Abetz1958  Abetz   Eric      male   1958-01-25        NA NA              0
# ℹ 1,775 more rows
# ℹ 2 more variables: senator <dbl>, wasPrimeMinister <dbl>
```
  
### A.4.3 `arrange()`

我们使用 `arrange()` 来根据特定列的值更改数据集的顺序。例如，我们可以根据政治家的生日对政治家进行排序。

```r
australian_politicians |>
 arrange(birthYear)
```

```r
# A tibble: 1,783 × 10
   uniqueID    surname firstName gender birthDate birthYear deathDate  member
   <chr>       <chr>   <chr>     <chr>  <date>        <dbl> <date>      <dbl>
 1 Edwards1842 Edwards Richard   male   NA             1842 1915-10-29      1
 2 Sawers1844  Sawers  William   male   NA             1844 1916-05-19      1
 3 Barker1846  Barker  Stephen   male   NA             1846 1924-06-21      0
 4 Corser1852  Corser  Edward    male   NA             1852 1928-07-31      1
 5 Lee1856     Lee     Henry     male   NA             1856 1927-08-12      1
 6 Grant1857   Grant   John      male   NA             1857 1928-05-19      0
 7 Abbott1859  Abbott  Richard   male   NA             1859 1940-02-28      0
 8 Palmer1859  Palmer  Albert    male   NA             1859 1919-08-14      1
 9 Riley1859   Riley   Edward    male   NA             1859 1943-07-21      1
10 Kennedy1860 Kennedy Thomas    male   NA             1860 1929-02-16      1
# ℹ 1,773 more rows
# ℹ 2 more variables: senator <dbl>, wasPrimeMinister <dbl>
```
我们可以使用 `desc()` 修改 `arrange()`，以从升序变为降序。

```r
australian_politicians |>
 arrange(desc(birthYear))
```

```r
# A tibble: 1,783 × 10
   uniqueID      surname firstName gender birthDate  birthYear deathDate  member
   <chr>         <chr>   <chr>     <chr>  <date>         <dbl> <date>      <dbl>
 1 McBain1982    McBain  Kristy    female 1982-09-29      1982 NA              1
 2 Cox1977       Cox     Dorinda   female NA              1977 NA              0
 3 Thorpe1973    Thorpe  Lidia     female 1973-08-18      1973 NA              0
 4 McLachlan1966 McLach… Andrew    male   1966-01-14      1966 NA              0
 5 Wortley1959   Wortley Dana      female NA              1959 NA              0
 6 Baker1903     Baker   Francis   male   NA              1903 1939-03-28      1
 7 Clay1900      Clay    Lionel    male   NA              1900 1965-04-16      1
 8 Breen1898     Breen   John      male   NA              1898 1966-02-05      1
 9 Clasby1891    Clasby  John      male   NA              1891 1932-01-15      1
10 Gander1888    Gander  Joseph    male   NA              1888 1954-11-22      1
# ℹ 1,773 more rows
# ℹ 2 more variables: senator <dbl>, wasPrimeMinister <dbl>
```
这也可以通过减号实现。

```r
australian_politicians |>
 arrange(-birthYear)
```

```r
# A tibble: 1,783 × 10
   uniqueID      surname firstName gender birthDate  birthYear deathDate  member
   <chr>         <chr>   <chr>     <chr>  <date>         <dbl> <date>      <dbl>
 1 McBain1982    McBain  Kristy    female 1982-09-29      1982 NA              1
 2 Cox1977       Cox     Dorinda   female NA              1977 NA              0
 3 Thorpe1973    Thorpe  Lidia     female 1973-08-18      1973 NA              0
 4 McLachlan1966 McLach… Andrew    male   1966-01-14      1966 NA              0
 5 Wortley1959   Wortley Dana      female NA              1959 NA              0
 6 Baker1903     Baker   Francis   male   NA              1903 1939-03-28      1
 7 Clay1900      Clay    Lionel    male   NA              1900 1965-04-16      1
 8 Breen1898     Breen   John      male   NA              1898 1966-02-05      1
 9 Clasby1891    Clasby  John      male   NA              1891 1932-01-15      1
10 Gander1888    Gander  Joseph    male   NA              1888 1954-11-22      1
# ℹ 1,773 more rows
# ℹ 2 more variables: senator <dbl>, wasPrimeMinister <dbl>
```
我们还可以根据多个列进行排序。例如，如果两个政治家有相同的名字，我们还可以根据他们的生日进行排序。

```r
australian_politicians |>
 arrange(firstName, birthYear)
```

```r
# A tibble: 1,783 × 10
   uniqueID      surname firstName gender birthDate  birthYear deathDate  member
   <chr>         <chr>   <chr>     <chr>  <date>         <dbl> <date>      <dbl>
 1 Blain1894     Blain   Adair     male   1894-11-21        NA 1983-04-28      1
 2 Armstrong1909 Armstr… Adam      male   1909-07-01        NA 1982-02-22      1
 3 Bandt1972     Bandt   Adam      male   1972-03-11        NA NA              1
 4 Dein1889      Dein    Adam      male   1889-03-04        NA 1969-05-09      1
 5 Ridgeway1962  Ridgew… Aden      male   1962-09-18        NA NA              0
 6 Bennett1933   Bennett Adrian    male   1933-01-21        NA 2006-05-09      1
 7 Gibson1935    Gibson  Adrian    male   1935-11-03        NA 2015-04-30      1
 8 Wynne1850     Wynne   Agar      male   1850-01-15        NA 1934-05-12      1
 9 Robertson1882 Robert… Agnes     female 1882-07-31        NA 1968-01-29      0
10 Bird1906      Bird    Alan      male   1906-09-28        NA 1962-07-21      1
# ℹ 1,773 more rows
# ℹ 2 more variables: senator <dbl>, wasPrimeMinister <dbl>
```
我们也可以通过在两个 `arrange()` 实例之间传递来实现相同的结果。

```r
australian_politicians |>
 arrange(birthYear) |>
 arrange(firstName)
```

```r
# A tibble: 1,783 × 10
   uniqueID      surname firstName gender birthDate  birthYear deathDate  member
   <chr>         <chr>   <chr>     <chr>  <date>         <dbl> <date>      <dbl>
 1 Blain1894     Blain   Adair     male   1894-11-21        NA 1983-04-28      1
 2 Armstrong1909 Armstr… Adam      male   1909-07-01        NA 1982-02-22      1
 3 Bandt1972     Bandt   Adam      male   1972-03-11        NA NA              1
 4 Dein1889      Dein    Adam      male   1889-03-04        NA 1969-05-09      1
 5 Ridgeway1962  Ridgew… Aden      male   1962-09-18        NA NA              0
 6 Bennett1933   Bennett Adrian    male   1933-01-21        NA 2006-05-09      1
 7 Gibson1935    Gibson  Adrian    male   1935-11-03        NA 2015-04-30      1
 8 Wynne1850     Wynne   Agar      male   1850-01-15        NA 1934-05-12      1
 9 Robertson1882 Robert… Agnes     female 1882-07-31        NA 1968-01-29      0
10 Bird1906      Bird    Alan      male   1906-09-28        NA 1962-07-21      1
# ℹ 1,773 more rows
# ℹ 2 more variables: senator <dbl>, wasPrimeMinister <dbl>
```
当我们使用 `arrange()` 时，我们应该清楚优先级。例如，先改为生日然后是名字将给出不同的排序。

```r
australian_politicians |>
 arrange(birthYear, firstName)
```

```r
# A tibble: 1,783 × 10
   uniqueID    surname firstName gender birthDate birthYear deathDate  member
   <chr>       <chr>   <chr>     <chr>  <date>        <dbl> <date>      <dbl>
 1 Edwards1842 Edwards Richard   male   NA             1842 1915-10-29      1
 2 Sawers1844  Sawers  William   male   NA             1844 1916-05-19      1
 3 Barker1846  Barker  Stephen   male   NA             1846 1924-06-21      0
 4 Corser1852  Corser  Edward    male   NA             1852 1928-07-31      1
 5 Lee1856     Lee     Henry     male   NA             1856 1927-08-12      1
 6 Grant1857   Grant   John      male   NA             1857 1928-05-19      0
 7 Palmer1859  Palmer  Albert    male   NA             1859 1919-08-14      1
 8 Riley1859   Riley   Edward    male   NA             1859 1943-07-21      1
 9 Abbott1859  Abbott  Richard   male   NA             1859 1940-02-28      0
10 Kennedy1860 Kennedy Thomas    male   NA             1860 1929-02-16      1
# ℹ 1,773 more rows
# ℹ 2 more variables: senator <dbl>, wasPrimeMinister <dbl>
```
通过多种列进行排序的一个好方法是使用 `across()`。它使我们能够使用与 `select()` 相关提到的“选择辅助工具”例如 `starts_with()`。

```r
australian_politicians |>
 arrange(across(c(firstName, birthYear)))
```

```r
# A tibble: 1,783 × 10
   uniqueID      surname firstName gender birthDate  birthYear deathDate  member
   <chr>         <chr>   <chr>     <chr>  <date>         <dbl> <date>      <dbl>
 1 Blain1894     Blain   Adair     male   1894-11-21        NA 1983-04-28      1
 2 Armstrong1909 Armstr… Adam      male   1909-07-01        NA 1982-02-22      1
 3 Bandt1972     Bandt   Adam      male   1972-03-11        NA NA              1
 4 Dein1889      Dein    Adam      male   1889-03-04        NA 1969-05-09      1
 5 Ridgeway1962  Ridgew… Aden      male   1962-09-18        NA NA              0
 6 Bennett1933   Bennett Adrian    male   1933-01-21        NA 2006-05-09      1
 7 Gibson1935    Gibson  Adrian    male   1935-11-03        NA 2015-04-30      1
 8 Wynne1850     Wynne   Agar      male   1850-01-15        NA 1934-05-12      1
 9 Robertson1882 Robert… Agnes     female 1882-07-31        NA 1968-01-29      0
10 Bird1906      Bird    Alan      male   1906-09-28        NA 1962-07-21      1
# ℹ 1,773 more rows
# ℹ 2 more variables: senator <dbl>, wasPrimeMinister <dbl>
```

```r
australian_politicians |>
 arrange(across(starts_with("birth")))
```

```r
# A tibble: 1,783 × 10
   uniqueID     surname  firstName gender birthDate  birthYear deathDate  member
   <chr>        <chr>    <chr>     <chr>  <date>         <dbl> <date>      <dbl>
 1 Braddon1829  Braddon  Edward    male   1829-06-11        NA 1904-02-02      1
 2 Ferguson1830 Ferguson John      male   1830-03-15        NA 1906-03-30      0
 3 Zeal1830     Zeal     William   male   1830-12-05        NA 1912-03-11      0
 4 Fraser1832   Fraser   Simon     male   1832-08-21        NA 1919-07-30      0
 5 Groom1833    Groom    William   male   1833-03-09        NA 1901-08-08      1
 6 Sargood1834  Sargood  Frederick male   1834-05-30        NA 1903-01-02      0
 7 Fysh1835     Fysh     Philip    male   1835-03-01        NA 1919-12-20      1
 8 Playford1837 Playford Thomas    male   1837-11-26        NA 1915-04-19      0
 9 Solomon1839  Solomon  Elias     male   1839-09-02        NA 1909-05-23      1
10 McLean1840   McLean   Allan     male   1840-02-03        NA 1911-07-13      1
# ℹ 1,773 more rows
# ℹ 2 more variables: senator <dbl>, wasPrimeMinister <dbl>
```
### A.4.4 `mutate()`

我们使用 `mutate()` 来创建新列。例如，也许我们想要创建一个新列，如果一个人既是成员又是参议员则为 1，否则为 0。也就是说，我们的新列将表示在上下两院都服务的政治家。

```r
australian_politicians <-
 australian_politicians |>
 mutate(was_both = if_else(member == 1 & senator == 1, 1, 0))

australian_politicians |>
 select(member, senator, was_both)
```

```r
# A tibble: 1,783 × 3
   member senator was_both
    <dbl>   <dbl>    <dbl>
 1      0       1        0
 2      1       1        1
 3      0       1        0
 4      1       0        0
 5      1       0        0
 6      1       0        0
 7      1       0        0
 8      0       1        0
 9      0       1        0
10      1       0        0
# ℹ 1,773 more rows
```
我们可以使用 `mutate()` 结合数学运算，如加法和减法。例如，我们可以计算出政治家在 2022 年（或本应）的年龄。

```r
library(lubridate)

australian_politicians <-
 australian_politicians |>
 mutate(age = 2022 - year(birthDate))

australian_politicians |>
 select(uniqueID, age)
```

```r
# A tibble: 1,783 × 2
   uniqueID     age
   <chr>      <dbl>
 1 Abbott1859    NA
 2 Abbott1869   153
 3 Abbott1877   145
 4 Abbott1886   136
 5 Abbott1891   131
 6 Abbott1957    65
 7 Abel1939      83
 8 Abetz1958     64
 9 Adams1943     79
10 Adams1951     71
# ℹ 1,773 more rows
```
在构建新列时，有许多特别有用的函数。这些包括计算自然对数的 `log()`，将值上移一行 `lead()`，将值下移一行 `lag()`，以及创建列的累积和 `cumsum()`。

```r
australian_politicians |>
 select(uniqueID, age) |>
 mutate(log_age = log(age))
```

```r
# A tibble: 1,783 × 3
   uniqueID     age log_age
   <chr>      <dbl>   <dbl>
 1 Abbott1859    NA   NA   
 2 Abbott1869   153    5.03
 3 Abbott1877   145    4.98
 4 Abbott1886   136    4.91
 5 Abbott1891   131    4.88
 6 Abbott1957    65    4.17
 7 Abel1939      83    4.42
 8 Abetz1958     64    4.16
 9 Adams1943     79    4.37
10 Adams1951     71    4.26
# ℹ 1,773 more rows
```

```r
australian_politicians |>
 select(uniqueID, age) |>
 mutate(lead_age = lead(age))
```

```r
# A tibble: 1,783 × 3
   uniqueID     age lead_age
   <chr>      <dbl>    <dbl>
 1 Abbott1859    NA      153
 2 Abbott1869   153      145
 3 Abbott1877   145      136
 4 Abbott1886   136      131
 5 Abbott1891   131       65
 6 Abbott1957    65       83
 7 Abel1939      83       64
 8 Abetz1958     64       79
 9 Adams1943     79       71
10 Adams1951     71      165
# ℹ 1,773 more rows
```

```r
australian_politicians |>
 select(uniqueID, age) |>
 mutate(lag_age = lag(age))
```

```r
# A tibble: 1,783 × 3
   uniqueID     age lag_age
   <chr>      <dbl>   <dbl>
 1 Abbott1859    NA      NA
 2 Abbott1869   153      NA
 3 Abbott1877   145     153
 4 Abbott1886   136     145
 5 Abbott1891   131     136
 6 Abbott1957    65     131
 7 Abel1939      83      65
 8 Abetz1958     64      83
 9 Adams1943     79      64
10 Adams1951     71      79
# ℹ 1,773 more rows
```

```r
australian_politicians |>
 select(uniqueID, age) |>
 drop_na(age) |>
 mutate(cumulative_age = cumsum(age))
```

```r
# A tibble: 1,718 × 3
   uniqueID      age cumulative_age
   <chr>       <dbl>          <dbl>
 1 Abbott1869    153            153
 2 Abbott1877    145            298
 3 Abbott1886    136            434
 4 Abbott1891    131            565
 5 Abbott1957     65            630
 6 Abel1939       83            713
 7 Abetz1958      64            777
 8 Adams1943      79            856
 9 Adams1951      71            927
10 Adamson1857   165           1092
# ℹ 1,708 more rows
```
…
