…
### 6.3.1 加拿大

加拿大的第一次人口普查于 1666 年进行。这也是第一次现代人口普查，记录了每个人的姓名，尽管它不包括原住民（Godfrey 1918, 179）。当时统计了 3,215 名居民，普查内容包括年龄、性别、婚姻状况和职业（Statistics Canada 2023）。与加拿大联邦成立相关，1867 年要求进行十年一次的人口普查，以便为新议会分配政治代表。自那时起，定期的人口普查一直持续至今。

我们可以使用 `canlang` 包探索 2016 年人口普查中关于加拿大语言使用情况的一些数据。该软件包不在 CRAN 上，但可以通过以下方式从 GitHub 安装：`install.packages("devtools")`，然后 `devtools::install_github("ttimbers/canlang")`。

加载 `canlang` 包后，我们可以使用 `can_lang` 数据集。该数据集提供了使用 214 种语言中每一种的加拿大人数量。

```py
can_lang
```

*```py
# A tibble: 214 × 6
   category          language mother_tongue most_at_home most_at_work lang_known
   <chr>             <chr>            <dbl>        <dbl>        <dbl>      <dbl>
 1 Aboriginal langu… Aborigi…           590          235           30        665
 2 Non-Official & N… Afrikaa…         10260         4785           85      23415
 3 Non-Official & N… Afro-As…          1150          445           10       2775
 4 Non-Official & N… Akan (T…         13460         5985           25      22150
 5 Non-Official & N… Albanian         26895        13135          345      31930
 6 Aboriginal langu… Algonqu…            45           10            0        120
 7 Aboriginal langu… Algonqu…          1260          370           40       2480
 8 Non-Official & N… America…          2685         3020         1145      21930
 9 Non-Official & N… Amharic          22465        12785          200      33670
10 Non-Official & N… Arabic          419890       223535         5585     629055
# ℹ 204 more rows
…
我们将简要整理和准备这个数据集，因为我们将在第十六章中使用它。我们的代码基于 Mitrovski、Yang 和 Wankiewicz (2020)。

```py
ipums_extract <- read_dta("usa_00015.dta")

ipums_extract <- 
 ipums_extract |>
 select(stateicp, sex, age, educd) |>
 to_factor()

ipums_extract
```

*```py
# A tibble: 500,221 × 4
   stateicp sex    age   educd                                       
 * <fct>    <fct>  <fct> <fct>                                       
 1 alabama  male   77    grade 9                                     
 2 alabama  male   62    1 or more years of college credit, no degree
 3 alabama  male   25    ged or alternative credential               
 4 alabama  female 20    1 or more years of college credit, no degree
 5 alabama  male   37    1 or more years of college credit, no degree
 6 alabama  female 19    regular high school diploma                 
 7 alabama  female 67    regular high school diploma                 
 8 alabama  female 20    1 or more years of college credit, no degree
 9 alabama  male   66    grade 8                                     
10 alabama  male   58    regular high school diploma                 
# ℹ 500,211 more rows
```
…
cleaned_ipums
```

*```py
# A tibble: 407,354 × 4
   gender age_group education_level     stateicp
   <fct>  <fct>     <fct>               <fct>   
 1 male   60+       High school or less alabama 
 2 male   60+       Some post sec       alabama 
 3 male   18-29     High school or less alabama 
 4 female 18-29     Some post sec       alabama 
 5 male   30-44     Some post sec       alabama 
 6 female 18-29     High school or less alabama 
 7 female 60+       High school or less alabama 
 8 female 18-29     Some post sec       alabama 
 9 male   60+       High school or less alabama 
10 male   45-59     High school or less alabama 
# ℹ 407,344 more rows
…
sleep <-
 tibble(
 toddler_sleep = sample(x = c(2:14), size = 30, replace = TRUE),
 difference = sample(x = c(0:3), size = 30, replace = TRUE),
 parent_sleep = toddler_sleep - difference
 ) |>
 select(toddler_sleep, parent_sleep, difference)

sleep
```

*```py
# A tibble: 30 × 3
   toddler_sleep parent_sleep difference
           <int>        <int>      <int>
 1            10            9          1
 2            11           11          0
 3            14           12          2
 4             2            0          2
 5             6            5          1
 6            14           12          2
 7             3            3          0
 8             5            3          2
 9             4            1          3
10             4            3          1
# ℹ 20 more rows
…
