…
simulated_data
```

```r
# A tibble: 151 × 2
   Division Party   
      <int> <chr>   
 1        1 Green   
 2        2 Green   
 3        3 Labor   
 4        4 Labor   
 5        5 Green   
 6        6 National
 7        7 Liberal 
 8        8 National
 9        9 Liberal 
10       10 Other   
# ℹ 141 more rows
```
…
