…
```py
set.seed(853)

treat_control <-
 tibble(
 group = sample(x = c("Treatment", "Control"), size = 100, replace = TRUE),
 binary_effect = sample(x = c(0, 1), size = 100, replace = TRUE)
 )

treat_control
```

*```py
# A tibble: 100 × 2
   group     binary_effect
   <chr>             <dbl>
 1 Treatment             0
 2 Control               1
 3 Control               1
 4 Treatment             1
 5 Treatment             1
 6 Treatment             0
 7 Treatment             1
 8 Treatment             1
 9 Control               0
10 Control               0
# ℹ 90 more rows
…
# Just keep relevant variables
nationscape_data <-
 raw_nationscape_data |>
 select(vote_2020, gender, education, state, age)
```

*```py
nationscape_data
```

*```py
# A tibble: 6,479 × 5
   vote_2020                gender education                         state   age
 * <fct>                    <fct>  <fct>                             <chr> <dbl>
 1 Donald Trump             Female Associate Degree                  WI       49
 2 I am not sure/don't know Female College Degree (such as B.A., B.… VA       39
 3 Donald Trump             Female College Degree (such as B.A., B.… VA       46
 4 Donald Trump             Female High school graduate              TX       75
 5 Donald Trump             Female High school graduate              WA       52
 6 I would not vote         Female Other post high school vocationa… OH       44
 7 Joe Biden                Female Completed some college, but no d… MA       21
 8 Joe Biden                Female Completed some college, but no d… TX       38
 9 Donald Trump             Female Completed some college, but no d… CA       69
10 Donald Trump             Female College Degree (such as B.A., B.… NC       59
# ℹ 6,469 more rows
…
