…
### 6.5.4 在测试集中预测标签

现在我们有了 K 最近邻分类器对象，我们可以用它来预测测试集的类别标签。我们使用`bind_cols`将预测列添加到原始测试数据中，创建`cancer_test_predictions`数据框。`Class`变量包含实际诊断，而`.pred_class`包含分类器预测的诊断。

```r
cancer_test_predictions <- predict(knn_fit, cancer_test) |>
 bind_cols(cancer_test)

cancer_test_predictions
```

```r
## # A tibble: 143 × 13
##    .pred_class       ID Class     Radius Texture Perimeter  Area Smoothness
##    <fct>          <dbl> <fct>      <dbl>   <dbl>     <dbl> <dbl>      <dbl>
##  1 Benign        842517 Malignant   20.6    17.8     133\.  1326      0.0847
##  2 Malignant   84300903 Malignant   19.7    21.2     130   1203      0.110 
##  3 Malignant   84501001 Malignant   12.5    24.0      84.0  476\.     0.119 
##  4 Malignant   84610002 Malignant   15.8    17.9     104\.   781      0.0971
##  5 Benign        848406 Malignant   14.7    20.1      94.7  684\.     0.0987
##  6 Malignant   84862001 Malignant   16.1    20.7     108\.   799\.     0.117 
##  7 Malignant     849014 Malignant   19.8    22.2     130   1260      0.0983
##  8 Malignant    8511133 Malignant   15.3    14.3     102\.   704\.     0.107 
##  9 Malignant     852552 Malignant   16.6    21.4     110    905\.     0.112 
## 10 Malignant     853612 Malignant   11.8    18.7      77.9  441\.     0.111 
## # ℹ 133 more rows
## # ℹ 5 more variables: Compactness <dbl>, Concavity <dbl>, Concave_Points <dbl>,
## #   Symmetry <dbl>, Fractal_Dimension <dbl>
```
…
> **注意：** 本节不是教科书其余部分的要求阅读内容。它包括给那些对学习不相关变量如何影响分类器性能以及如何选择有用的变量子集作为预测变量感兴趣的读者。

调整你的分类器时，另一个可能重要的部分是选择你的数据中哪些变量将被视为预测变量。技术上，你可以从使用单个预测变量到使用数据中的每一个变量进行选择；K 近邻算法接受任何数量的预测变量。然而，使用更多预测变量并不总是能带来更好的预测！实际上，有时包括不相关预测变量可能会实际上对分类器性能产生负面影响。

### 6.8.1 不相关预测变量的影响

让我们来看一个例子，其中 K 近邻算法在给定更多预测变量时表现更差。在这个例子中，我们将乳腺癌数据修改为仅包含原始数据中的`Smoothness`、`Concavity`和`Perimeter`变量。然后，我们添加了我们自己使用随机数生成器创建的不相关变量。这些不相关变量对于每个观测值，其值为 0 或 1 的概率相等，无论`Class`变量的值如何。换句话说，不相关变量与`Class`变量之间没有有意义的关联。

```r
cancer_irrelevant |>
 select(Class, Smoothness, Concavity, Perimeter, Irrelevant1, Irrelevant2)
```

```r
## # A tibble: 569 × 6
##    Class     Smoothness Concavity Perimeter Irrelevant1 Irrelevant2
##    <fct>          <dbl>     <dbl>     <dbl>       <dbl>       <dbl>
##  1 Malignant     0.118     0.300      123\.            1           0
##  2 Malignant     0.0847    0.0869     133\.            0           0
##  3 Malignant     0.110     0.197      130             0           0
##  4 Malignant     0.142     0.241       77.6           0           1
##  5 Malignant     0.100     0.198      135\.            0           0
##  6 Malignant     0.128     0.158       82.6           1           0
##  7 Malignant     0.0946    0.113      120\.            0           1
##  8 Malignant     0.119     0.0937      90.2           1           0
##  9 Malignant     0.127     0.186       87.5           0           0
## 10 Malignant     0.119     0.227       84.0           1           1
## # ℹ 559 more rows
```
…
names <- colnames(cancer_subset |> select(-Class))

cancer_subset
```

```r
## # A tibble: 569 × 7
##    Class     Smoothness Concavity Perimeter Irrelevant1 Irrelevant2 Irrelevant3
##    <fct>          <dbl>     <dbl>     <dbl>       <dbl>       <dbl>       <dbl>
##  1 Malignant     0.118     0.300      123\.            1           0           1
##  2 Malignant     0.0847    0.0869     133\.            0           0           0
##  3 Malignant     0.110     0.197      130             0           0           0
##  4 Malignant     0.142     0.241       77.6           0           1           0
##  5 Malignant     0.100     0.198      135\.            0           0           0
##  6 Malignant     0.128     0.158       82.6           1           0           1
##  7 Malignant     0.0946    0.113      120\.            0           1           1
##  8 Malignant     0.119     0.0937      90.2           1           0           0
##  9 Malignant     0.127     0.186       87.5           0           0           1
## 10 Malignant     0.119     0.227       84.0           1           1           0
## # ℹ 559 more rows
```
…
