…
图 3.7：从宽格式到长格式的数据转换。

我们可以使用来自 `tidyverse` 包的 `pivot_longer` 函数在 R 中实现这种效果。`pivot_longer` 函数用于合并列，通常在整理数据时使用，当我们需要将数据框变得更长更窄时。要学习如何使用 `pivot_longer`，我们将通过一个使用 `region_lang_top5_cities_wide.csv` 数据集的例子来操作。这个数据集包含了 2016 年加拿大人口普查中，五个主要加拿大城市（多伦多、蒙特利尔、温哥华、卡尔加里和埃德蒙顿）的加拿大人将每种语言作为母语的计数。为了开始，我们将加载 `tidyverse` 包并使用 `read_csv` 读取（未整理）的数据。

```r
library(tidyverse)

lang_wide <- read_csv("data/region_lang_top5_cities_wide.csv")
lang_wide
```

```r
## # A tibble: 214 × 7
##    category                 language Toronto Montréal Vancouver Calgary Edmonton
##    <chr>                    <chr>      <dbl>    <dbl>     <dbl>   <dbl>    <dbl>
##  1 Aboriginal languages     Aborigi…      80       30        70      20       25
##  2 Non-Official & Non-Abor… Afrikaa…     985       90      1435     960      575
##  3 Non-Official & Non-Abor… Afro-As…     360      240        45      45       65
##  4 Non-Official & Non-Abor… Akan (T…    8485     1015       400     705      885
##  5 Non-Official & Non-Abor… Albanian   13260     2450      1090    1365      770
##  6 Aboriginal languages     Algonqu…       5        5         0       0        0
##  7 Aboriginal languages     Algonqu…       5       30         5       5        0
##  8 Non-Official & Non-Abor… America…     470       50       265     100      180
##  9 Non-Official & Non-Abor… Amharic     7460      665      1140    4075     2515
## 10 Non-Official & Non-Abor… Arabic     85175   151955     14320   18965    17525
## # ℹ 204 more rows
```
…
我们使用`pivot_longer`将多伦多、蒙特利尔、温哥华、卡尔加里和埃德蒙顿的列合并成一个名为`region`的单列，并创建一个名为`mother_tongue`的列，该列包含报告每种语言为各自大都市区母语的加拿大人的数量。我们在多伦多和埃德蒙顿之间使用冒号`:`来告诉 R 选择多伦多和埃德蒙顿之间的所有列：

```r
lang_mother_tidy <- pivot_longer(lang_wide,
 cols = Toronto:Edmonton,
 names_to = "region",
 values_to = "mother_tongue"
)

lang_mother_tidy
```

```r
## # A tibble: 1,070 × 4
##    category                                language         region mother_tongue
##    <chr>                                   <chr>            <chr>          <dbl>
##  1 Aboriginal languages                    Aboriginal lang… Toron…            80
##  2 Aboriginal languages                    Aboriginal lang… Montr…            30
##  3 Aboriginal languages                    Aboriginal lang… Vanco…            70
##  4 Aboriginal languages                    Aboriginal lang… Calga…            20
##  5 Aboriginal languages                    Aboriginal lang… Edmon…            25
##  6 Non-Official & Non-Aboriginal languages Afrikaans        Toron…           985
##  7 Non-Official & Non-Aboriginal languages Afrikaans        Montr…            90
##  8 Non-Official & Non-Aboriginal languages Afrikaans        Vanco…          1435
##  9 Non-Official & Non-Aboriginal languages Afrikaans        Calga…           960
## 10 Non-Official & Non-Aboriginal languages Afrikaans        Edmon…           575
## # ℹ 1,060 more rows
```
…
图 3.10：从长格式到宽格式的数据转换。

要在 R 中整理此类数据，我们可以使用`pivot_wider`函数。`pivot_wider`函数通常会增加数据集中的列数（加宽）并减少行数。为了了解如何使用`pivot_wider`，我们将通过`region_lang_top5_cities_long.csv`数据集的示例来操作。此数据集包含五个主要城市（多伦多、蒙特利尔、温哥华、卡尔加里和埃德蒙顿）的加拿大人报告的在家和工作时使用的首选语言的数量。

```r
lang_long <- read_csv("data/region_lang_top5_cities_long.csv")
lang_long
```

```r
## # A tibble: 2,140 × 5
##    region    category             language                     type         count
##    <chr>     <chr>                <chr>                        <chr>        <dbl>
##  1 Montréal  Aboriginal languages Aboriginal languages, n.o.s. most_at_home    15
##  2 Montréal  Aboriginal languages Aboriginal languages, n.o.s. most_at_work     0
##  3 Toronto   Aboriginal languages Aboriginal languages, n.o.s. most_at_home    50
##  4 Toronto   Aboriginal languages Aboriginal languages, n.o.s. most_at_work     0
##  5 Calgary   Aboriginal languages Aboriginal languages, n.o.s. most_at_home     5
##  6 Calgary   Aboriginal languages Aboriginal languages, n.o.s. most_at_work     0
##  7 Edmonton  Aboriginal languages Aboriginal languages, n.o.s. most_at_home    10
##  8 Edmonton  Aboriginal languages Aboriginal languages, n.o.s. most_at_work     0
##  9 Vancouver Aboriginal languages Aboriginal languages, n.o.s. most_at_home    15
## 10 Vancouver Aboriginal languages Aboriginal languages, n.o.s. most_at_work     0
## # ℹ 2,130 more rows
```
…
图 3.12：`pivot_wider`函数的语法。

我们将在图 3.12 中详细说明如何应用此函数。

```r
lang_home_tidy <- pivot_wider(lang_long,
 names_from = type,
 values_from = count
)
lang_home_tidy
```

```r
## # A tibble: 1,070 × 5
##    region    category                         language most_at_home most_at_work
##    <chr>     <chr>                            <chr>           <dbl>        <dbl>
##  1 Montréal  Aboriginal languages             Aborigi…           15            0
##  2 Toronto   Aboriginal languages             Aborigi…           50            0
##  3 Calgary   Aboriginal languages             Aborigi…            5            0
##  4 Edmonton  Aboriginal languages             Aborigi…           10            0
##  5 Vancouver Aboriginal languages             Aborigi…           15            0
##  6 Montréal  Non-Official & Non-Aboriginal l… Afrikaa…           10            0
##  7 Toronto   Non-Official & Non-Aboriginal l… Afrikaa…          265            0
##  8 Calgary   Non-Official & Non-Aboriginal l… Afrikaa…          505           15
##  9 Edmonton  Non-Official & Non-Aboriginal l… Afrikaa…          300            0
## 10 Vancouver Non-Official & Non-Aboriginal l… Afrikaa…          520           10
## # ℹ 1,060 more rows
```
…
1.  每个值都是一个单独的单元格（即，它在数据框中的行和列位置不与其他值共享）。

你可能会注意到，我们在整洁数据集中拥有的列数与杂乱数据集中的一样。因此，`pivot_wider`并没有真正“加宽”数据，正如其名称所暗示的。这仅仅是因为原始的`type`列中只有两个类别。如果它有超过两个，`pivot_wider`将创建更多的列，我们就会看到数据集“加宽”。

### 3.4.3 整理数据：使用`separate`处理多个分隔符

当多个值存储在同一单元格中时，数据也被认为是不整洁的。下面我们展示的数据集甚至比上面我们处理的数据集还要混乱：`Toronto`、`Montréal`、`Vancouver`、`Calgary` 和 `Edmonton` 列包含报告他们在家和工作中主要语言的加拿大人数，这些数字在一个列中通过分隔符（`/`）分隔。列名是变量的值，*而且*每个值都没有自己的单元格！为了将这种混乱的数据转换为整洁数据，我们得解决这些问题。

```r
lang_messy <- read_csv("data/region_lang_top5_cities_messy.csv")
lang_messy
```

```r
## # A tibble: 214 × 7
##    category                 language Toronto Montréal Vancouver Calgary Edmonton
##    <chr>                    <chr>    <chr>   <chr>    <chr>     <chr>   <chr>   
##  1 Aboriginal languages     Aborigi… 50/0    15/0     15/0      5/0     10/0    
##  2 Non-Official & Non-Abor… Afrikaa… 265/0   10/0     520/10    505/15  300/0   
##  3 Non-Official & Non-Abor… Afro-As… 185/10  65/0     10/0      15/0    20/0    
##  4 Non-Official & Non-Abor… Akan (T… 4045/20 440/0    125/10    330/0   445/0   
##  5 Non-Official & Non-Abor… Albanian 6380/2… 1445/20  530/10    620/25  370/10  
##  6 Aboriginal languages     Algonqu… 5/0     0/0      0/0       0/0     0/0     
##  7 Aboriginal languages     Algonqu… 0/0     10/0     0/0       0/0     0/0     
##  8 Non-Official & Non-Abor… America… 720/245 70/0     300/140   85/25   190/85  
##  9 Non-Official & Non-Abor… Amharic  3820/55 315/0    540/10    2730/50 1695/35 
## 10 Non-Official & Non-Abor… Arabic   45025/… 72980/1… 8680/275  11010/… 10590/3…
## # ℹ 204 more rows
```

首先，我们将使用 `pivot_longer` 创建两个列，`region` 和 `value`，类似于我们之前所做的那样。新的 `region` 列将包含区域名称，新的列 `value` 将是进一步分离所需数据的临时存储位置，即报告在家和工作中主要语言的加拿大人数。

```r
lang_messy_longer <- pivot_longer(lang_messy,
 cols = Toronto:Edmonton,
 names_to = "region",
 values_to = "value"
)

lang_messy_longer
```

```r
## # A tibble: 1,070 × 4
##    category                                language                 region value
##    <chr>                                   <chr>                    <chr>  <chr>
##  1 Aboriginal languages                    Aboriginal languages, n… Toron… 50/0 
##  2 Aboriginal languages                    Aboriginal languages, n… Montr… 15/0 
##  3 Aboriginal languages                    Aboriginal languages, n… Vanco… 15/0 
##  4 Aboriginal languages                    Aboriginal languages, n… Calga… 5/0  
##  5 Aboriginal languages                    Aboriginal languages, n… Edmon… 10/0 
##  6 Non-Official & Non-Aboriginal languages Afrikaans                Toron… 265/0
##  7 Non-Official & Non-Aboriginal languages Afrikaans                Montr… 10/0 
##  8 Non-Official & Non-Aboriginal languages Afrikaans                Vanco… 520/…
##  9 Non-Official & Non-Aboriginal languages Afrikaans                Calga… 505/…
## 10 Non-Official & Non-Aboriginal languages Afrikaans                Edmon… 300/0
## # ℹ 1,060 more rows
```
…
图 3.13：`separate` 函数的语法。

```r
tidy_lang <- separate(lang_messy_longer,
 col = value,
 into = c("most_at_home", "most_at_work"),
 sep = "/"
)

tidy_lang
```

```r
## # A tibble: 1,070 × 5
##    category                            language region most_at_home most_at_work
##    <chr>                               <chr>    <chr>  <chr>        <chr>       
##  1 Aboriginal languages                Aborigi… Toron… 50           0           
##  2 Aboriginal languages                Aborigi… Montr… 15           0           
##  3 Aboriginal languages                Aborigi… Vanco… 15           0           
##  4 Aboriginal languages                Aborigi… Calga… 5            0           
##  5 Aboriginal languages                Aborigi… Edmon… 10           0           
##  6 Non-Official & Non-Aboriginal lang… Afrikaa… Toron… 265          0           
##  7 Non-Official & Non-Aboriginal lang… Afrikaa… Montr… 10           0           
##  8 Non-Official & Non-Aboriginal lang… Afrikaa… Vanco… 520          10          
##  9 Non-Official & Non-Aboriginal lang… Afrikaa… Calga… 505          15          
## 10 Non-Official & Non-Aboriginal lang… Afrikaa… Edmon… 300          0           
## # ℹ 1,060 more rows
```
…
将 `region`、`category` 和 `language` 存储为字符（或可能是因子）类型是有意义的。然而，如果我们想应用任何将 `most_at_home` 和 `most_at_work` 列作为数字处理的函数（例如，查找超过列的数值阈值的行）。在这种情况下，如果变量存储为 `character` 类型，将无法完成。幸运的是，`separate` 函数提供了一个自然的方式来解决这个问题：我们可以设置 `convert = TRUE` 将 `most_at_home` 和 `most_at_work` 列转换为正确的数据类型。

```r
tidy_lang <- separate(lang_messy_longer,
 col = value,
 into = c("most_at_home", "most_at_work"),
 sep = "/",
 convert = TRUE
)

tidy_lang
```

```r
## # A tibble: 1,070 × 5
##    category                            language region most_at_home most_at_work
##    <chr>                               <chr>    <chr>         <int>        <int>
##  1 Aboriginal languages                Aborigi… Toron…           50            0
##  2 Aboriginal languages                Aborigi… Montr…           15            0
##  3 Aboriginal languages                Aborigi… Vanco…           15            0
##  4 Aboriginal languages                Aborigi… Calga…            5            0
##  5 Aboriginal languages                Aborigi… Edmon…           10            0
##  6 Non-Official & Non-Aboriginal lang… Afrikaa… Toron…          265            0
##  7 Non-Official & Non-Aboriginal lang… Afrikaa… Montr…           10            0
##  8 Non-Official & Non-Aboriginal lang… Afrikaa… Vanco…          520           10
##  9 Non-Official & Non-Aboriginal lang… Afrikaa… Calga…          505           15
## 10 Non-Official & Non-Aboriginal lang… Afrikaa… Edmon…          300            0
## # ℹ 1,060 more rows
```
…
## 3.5 使用 `select` 提取一系列列

既然 `tidy_lang` 数据确实是 *tidy* 的，我们就可以开始使用 `tidyverse` 中的强大函数集来操作它了。对于第一个例子，回忆一下第一章中的 `select` 函数，它允许我们从数据框中创建列的子集。假设我们只想从 `tidy_lang` 数据集中选择 `language`、`region`、`most_at_home` 和 `most_at_work` 这些列。使用我们在第一章中学到的知识，我们将 `tidy_lang` 数据框以及所有这些列名传递给 `select` 函数：

```r
selected_columns <- select(tidy_lang,
 language,
 region,
 most_at_home,
 most_at_work)
selected_columns
```

```r
## # A tibble: 1,070 × 4
##    language                     region    most_at_home most_at_work
##    <chr>                        <chr>            <int>        <int>
##  1 Aboriginal languages, n.o.s. Toronto             50            0
##  2 Aboriginal languages, n.o.s. Montréal            15            0
##  3 Aboriginal languages, n.o.s. Vancouver           15            0
##  4 Aboriginal languages, n.o.s. Calgary              5            0
##  5 Aboriginal languages, n.o.s. Edmonton            10            0
##  6 Afrikaans                    Toronto            265            0
##  7 Afrikaans                    Montréal            10            0
##  8 Afrikaans                    Vancouver          520           10
##  9 Afrikaans                    Calgary            505           15
## 10 Afrikaans                    Edmonton           300            0
## # ℹ 1,060 more rows
```

在这里，我们写出了每一列的名称。然而，这种方法很耗时，尤其是如果你有很多列！另一种方法是使用“选择辅助工具”。选择辅助工具是使我们可以更容易地选择列的运算符。例如，我们可以使用选择辅助工具来选择一系列列，而不是逐个输入每个列名。为此，我们使用冒号（`:`）运算符来表示范围。例如，要获取 `tidy_lang` 数据框中从 `language` 到 `most_at_work` 的所有列，我们将 `language:most_at_work` 作为 `select` 函数的第二个参数传递。

```r
column_range <- select(tidy_lang, language:most_at_work)
column_range
```

```r
## # A tibble: 1,070 × 4
##    language                     region    most_at_home most_at_work
##    <chr>                        <chr>            <int>        <int>
##  1 Aboriginal languages, n.o.s. Toronto             50            0
##  2 Aboriginal languages, n.o.s. Montréal            15            0
##  3 Aboriginal languages, n.o.s. Vancouver           15            0
##  4 Aboriginal languages, n.o.s. Calgary              5            0
##  5 Aboriginal languages, n.o.s. Edmonton            10            0
##  6 Afrikaans                    Toronto            265            0
##  7 Afrikaans                    Montréal            10            0
##  8 Afrikaans                    Vancouver          520           10
##  9 Afrikaans                    Calgary            505           15
## 10 Afrikaans                    Edmonton           300            0
## # ℹ 1,060 more rows
```

注意，我们得到了与上面相同的输出，但代码更少（也更清晰！）这种类型的运算符对于大型数据集特别有用。

假设我们想要提取符合特定模式的列，而不仅仅是选择一个范围。例如，假设我们只想选择 `most_at_home` 和 `most_at_work` 这些列。还有其他辅助函数允许我们根据它们的名称选择变量。特别是，我们可以使用 `select` 辅助函数 `starts_with` 来选择以单词“most”开头的列：

```r
select(tidy_lang, starts_with("most"))
```

```r
## # A tibble: 1,070 × 2
##    most_at_home most_at_work
##           <int>        <int>
##  1           50            0
##  2           15            0
##  3           15            0
##  4            5            0
##  5           10            0
##  6          265            0
##  7           10            0
##  8          520           10
##  9          505           15
## 10          300            0
## # ℹ 1,060 more rows
```

我们也可以选择包含下划线 `_` 的列，通过在 `select` 函数中添加 `contains("_")` 作为第二个参数，因为我们注意到我们想要的列包含下划线，而其他列则没有。

```r
select(tidy_lang, contains("_"))
```

```r
## # A tibble: 1,070 × 2
##    most_at_home most_at_work
##           <int>        <int>
##  1           50            0
##  2           15            0
##  3           15            0
##  4            5            0
##  5           10            0
##  6          265            0
##  7           10            0
##  8          520           10
##  9          505           15
## 10          300            0
## # ℹ 1,060 more rows
```
…
### 3.6.2 使用`!=`提取不具有特定值的行

如果我们想要数据集中除“官方语言”类别之外的所有其他语言类别怎么办？我们可以使用`!=`运算符，它表示“不等于”。因此，如果我们想要找到所有`category`列不等于`"Official languages"`的行，我们可以编写下面的代码。

```r
filter(tidy_lang, category != "Official languages")
```

```r
## # A tibble: 1,060 × 5
##    category                            language region most_at_home most_at_work
##    <chr>                               <chr>    <chr>         <int>        <int>
##  1 Aboriginal languages                Aborigi… Toron…           50            0
##  2 Aboriginal languages                Aborigi… Montr…           15            0
##  3 Aboriginal languages                Aborigi… Vanco…           15            0
##  4 Aboriginal languages                Aborigi… Calga…            5            0
##  5 Aboriginal languages                Aborigi… Edmon…           10            0
##  6 Non-Official & Non-Aboriginal lang… Afrikaa… Toron…          265            0
##  7 Non-Official & Non-Aboriginal lang… Afrikaa… Montr…           10            0
##  8 Non-Official & Non-Aboriginal lang… Afrikaa… Vanco…          520           10
##  9 Non-Official & Non-Aboriginal lang… Afrikaa… Calga…          505           15
## 10 Non-Official & Non-Aboriginal lang… Afrikaa… Edmon…          300            0
## # ℹ 1,050 more rows
```
…
### 3.6.5 使用 `%in%` 提取向量中的值

接下来，假设我们想查看我们五个城市的总人口。让我们读取来自 2016 年加拿大人口普查的 `region_data.csv` 文件，因为它包含不同地区的家庭数量、土地面积、人口和住宅数量的统计数据。

```r
region_data <- read_csv("data/region_data.csv")
region_data
```

```r
## # A tibble: 35 × 5
##    region         households  area population dwellings
##    <chr>               <dbl> <dbl>      <dbl>     <dbl>
##  1 Belleville          43002 1355\.     103472     45050
##  2 Lethbridge          45696 3047\.     117394     48317
##  3 Thunder Bay         52545 2618\.     121621     57146
##  4 Peterborough        50533 1637\.     121721     55662
##  5 Saint John          52872 3793\.     126202     58398
##  6 Brantford           52530 1086\.     134203     54419
##  7 Moncton             61769 2625\.     144810     66699
##  8 Guelph              59280  604\.     151984     63324
##  9 Trois-Rivières      72502 1053\.     156042     77734
## 10 Saguenay            72479 3079\.     160980     77968
## # ℹ 25 more rows
```
…
> **注意：** 你可能也注意到了，在管道之后我们将函数调用分跨多行，这与我们在本章前面处理长函数调用时所做的类似。再次强调，这是允许的，也是推荐的，尤其是在管道函数调用创建了一行很长的代码时。这样做可以使你的代码更易于阅读。当你这样做时，重要的是要在每一行末尾使用管道操作符 `|>` 来告诉 R 你的代码将继续到下一行。
> 
> **注意：** 在这本教科书中，我们将使用基础 R 管道操作符语法，`|>`。这个基础 R 的 `|>` 管道操作符受到了之前版本管道操作符 `%>%` 的启发。`%>%` 管道操作符不是 R 内置的，它来自 `magrittr` R 包。`tidyverse` 元包通过 `dplyr` 导入了 `%>%` 管道操作符（`dplyr` 又反过来导入了 `magrittr` R 包）。`%>%` 和 `|>` 之间有一些与更高级 R 使用相关的差异，例如作为 R 包共享和分发代码，但这些超出了本教科书的范围。我们在书中添加这个说明是为了让读者知道 `%>%` 存在，因为它仍然在数据分析代码、许多数据科学书籍和其他资源中广泛使用。在大多数情况下，这两个管道是可以互换的，你可以使用任一。

### 3.8.1 使用 `|>` 结合 `filter` 和 `select`

让我们处理第 3.4.3 节中的整洁`tidy_lang`数据集，该数据集包含五个主要城市（多伦多、蒙特利尔、温哥华、卡尔加里和埃德蒙顿）的加拿大人报告他们在家和工作的主要语言数量：

```r
tidy_lang
```

```r
## # A tibble: 1,070 × 5
##    category                            language region most_at_home most_at_work
##    <chr>                               <chr>    <chr>         <int>        <int>
##  1 Aboriginal languages                Aborigi… Toron…           50            0
##  2 Aboriginal languages                Aborigi… Montr…           15            0
##  3 Aboriginal languages                Aborigi… Vanco…           15            0
##  4 Aboriginal languages                Aborigi… Calga…            5            0
##  5 Aboriginal languages                Aborigi… Edmon…           10            0
##  6 Non-Official & Non-Aboriginal lang… Afrikaa… Toron…          265            0
##  7 Non-Official & Non-Aboriginal lang… Afrikaa… Montr…           10            0
##  8 Non-Official & Non-Aboriginal lang… Afrikaa… Vanco…          520           10
##  9 Non-Official & Non-Aboriginal lang… Afrikaa… Calga…          505           15
## 10 Non-Official & Non-Aboriginal lang… Afrikaa… Edmon…          300            0
## # ℹ 1,060 more rows
```
…
