…
### 10.4.1 比例的抽样分布

我们将使用来自[Inside Airbnb](http://insideairbnb.com/) (Cox n.d.)的数据集的例子。Airbnb 是一个在线市场，用于安排度假租赁和住宿。数据集包含 2020 年 9 月加拿大温哥华的房源信息。我们的数据包括 ID 号、社区、房间类型、租赁可容纳的人数、浴室数量、卧室数量、床的数量和每晚的价格。

```r
library(tidyverse)

set.seed(123)

airbnb <- read_csv("data/listings.csv")
airbnb
```

```r
## # A tibble: 4,594 × 8
##       id neighbourhood     room_type accommodates bathrooms bedrooms  beds price
##    <dbl> <chr>             <chr>            <dbl> <chr>        <dbl> <dbl> <dbl>
##  1     1 Downtown          Entire h…            5 2 baths          2     2   150
##  2     2 Downtown Eastside Entire h…            4 2 baths          2     2   132
##  3     3 West End          Entire h…            2 1 bath           1     1    85
##  4     4 Kensington-Cedar… Entire h…            2 1 bath           1     0   146
##  5     5 Kensington-Cedar… Entire h…            4 1 bath           1     2   110
##  6     6 Hastings-Sunrise  Entire h…            4 1 bath           2     3   195
##  7     7 Renfrew-Collingw… Entire h…            8 3 baths          4     5   130
##  8     8 Mount Pleasant    Entire h…            2 1 bath           1     1    94
##  9     9 Grandview-Woodla… Private …            2 1 privat…        1     1    79
## 10    10 West End          Private …            2 1 privat…        1     1    75
## # ℹ 4,584 more rows
```
…
确认了！这次我们的估计值不同。这意味着我们的点估计可能不可靠。确实，由于**抽样变异性**，估计值会因样本而异。但我们究竟应该期望我们的随机样本的估计值会有多大的变化？或者换句话说，基于单个样本，我们真的可以信任我们的点估计到什么程度？

为了理解这一点，我们将从我们的房源人口中模拟许多大小为 40 的样本（远不止两个），并计算每个样本中整个房屋/公寓房源的比例。这种模拟将创建许多样本比例，我们可以使用直方图来可视化这些比例。从总体中抽取给定大小（我们通常称之为$n$）的所有可能样本的估计值的分布称为**抽样分布**。抽样分布将帮助我们了解我们期望从这个总体中抽取的样本比例会有多大的变化。

我们再次使用`rep_sample_n`从我们的 Airbnb 房源人口中抽取 40 个样本。但这次我们将`reps`参数设置为 20,000，以指定我们想要抽取 20,000 个大小为 40 的样本。

```r
samples <- rep_sample_n(airbnb, size = 40, reps = 20000)
samples
```

```r
## # A tibble: 800,000 × 9
## # Groups:   replicate [20,000]
##    replicate    id neighbourhood room_type accommodates bathrooms bedrooms  beds
##        <int> <dbl> <chr>         <chr>            <dbl> <chr>        <dbl> <dbl>
##  1         1  4403 Downtown      Entire h…            2 1 bath           1     1
##  2         1   902 Kensington-C… Private …            2 1 shared…        1     1
##  3         1  3808 Hastings-Sun… Entire h…            6 1.5 baths        1     3
##  4         1   561 Kensington-C… Entire h…            6 1 bath           2     2
##  5         1  3385 Mount Pleasa… Entire h…            4 1 bath           1     1
##  6         1  4232 Shaughnessy   Entire h…            6 1.5 baths        2     2
##  7         1  1169 Downtown      Entire h…            3 1 bath           1     1
##  8         1   959 Kitsilano     Private …            1 1.5 shar…        1     1
##  9         1  2171 Downtown      Entire h…            2 1 bath           1     1
## 10         1  1258 Dunbar South… Entire h…            4 1 bath           2     2
## # ℹ 799,990 more rows
## # ℹ 1 more variable: price <dbl>
```
…
现在我们已经获得了样本，我们需要计算每个样本中整个家庭/公寓列表的比例。我们首先按`replicate`变量分组——将每个样本中的列表集合在一起——然后使用`summarize`计算每个样本中的比例。我们下面打印出结果数据框的前几行和最后几行，以表明我们最终得到了 20,000 个点估计值，每个样本一个。

```r
sample_estimates <- samples |>
 group_by(replicate) |>
 summarize(sample_proportion = sum(room_type == "Entire home/apt") / 40)

sample_estimates
```

```r
## # A tibble: 20,000 × 2
##    replicate sample_proportion
##        <int>             <dbl>
##  1         1             0.85 
##  2         2             0.85 
##  3         3             0.65 
##  4         4             0.7  
##  5         5             0.75 
##  6         6             0.725
##  7         7             0.775
##  8         8             0.775
##  9         9             0.7  
## 10        10             0.675
## # ℹ 19,990 more rows
```
…
40 个样本的平均值为 155.80 美元。这个数字是总体均值的点估计。回想一下，总体均值是 154.51 美元。所以我们的估计相当接近总体参数：均值大约有 0.8%的误差。请注意，在实践中我们通常无法计算估计的准确性，因为我们无法访问总体参数；如果我们可以，我们就不需要估计它了！

此外，回想一下上一节的内容，点估计可能会变化；如果我们从总体中再次随机抽取样本，我们的估计值可能会改变。那么，我们上面的点估计只是运气好吗？在这个例子中，我们的估计在不同大小的 40 个样本中会有多大的变化？由于我们可以访问到总体，我们可以抽取许多样本，并绘制 40 个样本大小的样本均值的抽样分布，以了解这种变化。在这种情况下，我们将使用 20,000 个 40 个样本大小的样本。

```r
samples <- rep_sample_n(airbnb, size = 40, reps = 20000)
samples
```

```r
## # A tibble: 800,000 × 9
## # Groups:   replicate [20,000]
##    replicate    id neighbourhood room_type accommodates bathrooms bedrooms  beds
##        <int> <dbl> <chr>         <chr>            <dbl> <chr>        <dbl> <dbl>
##  1         1  1177 Downtown      Entire h…            4 2 baths          2     2
##  2         1  4063 Downtown      Entire h…            2 1 bath           1     1
##  3         1  2641 Kitsilano     Private …            1 1 shared…        1     1
##  4         1  1941 West End      Entire h…            2 1 bath           1     1
##  5         1  2431 Mount Pleasa… Entire h…            2 1 bath           1     1
##  6         1  1871 Arbutus Ridge Entire h…            4 1 bath           2     2
##  7         1  2557 Marpole       Private …            3 1 privat…        1     2
##  8         1  3534 Downtown      Entire h…            2 1 bath           1     1
##  9         1  4379 Downtown      Entire h…            4 1 bath           1     0
## 10         1  2161 Downtown      Entire h…            4 2 baths          2     2
## # ℹ 799,990 more rows
## # ℹ 1 more variable: price <dbl>
```

现在我们可以计算每个重复样本的样本均值，并绘制 40 个样本大小的样本均值的抽样分布。

```r
sample_estimates <- samples |>
 group_by(replicate) |>
 summarize(mean_price = mean(price))

sample_estimates
```

```r
## # A tibble: 20,000 × 2
##    replicate mean_price
##        <int>      <dbl>
##  1         1     160.06
##  2         2     173.18
##  3         3     131.20
##  4         4     176.96
##  5         5     125.65
##  6         6     148.84
##  7         7     134.82
##  8         8     137.26
##  9         9     166.11
## 10        10     157.81
## # ℹ 19,990 more rows
```
…
图 10.9：自助过程的概述。

### 10.5.2 R 中的自助法

让我们继续使用我们的 Airbnb 示例来说明我们如何仅使用来自总体的单个样本来创建和使用自举分布。再次假设我们感兴趣的是使用单个样本大小 40 来估计加拿大温哥华所有 Airbnb 列表的每晚平均价格。回想一下我们的点估计是$155.80。样本中的价格直方图显示在图 10.10 中。

```r
one_sample
```

```r
## # A tibble: 40 × 8
##       id neighbourhood     room_type accommodates bathrooms bedrooms  beds price
##    <dbl> <chr>             <chr>            <dbl> <chr>        <dbl> <dbl> <dbl>
##  1  3928 Marpole           Private …            2 1 shared…        1     1    58
##  2  3013 Kensington-Cedar… Entire h…            4 1 bath           2     2   112
##  3  3156 Downtown          Entire h…            6 2 baths          2     2   151
##  4  3873 Dunbar Southlands Private …            5 1 bath           2     3   700
##  5  3632 Downtown Eastside Entire h…            6 2 baths          3     3   157
##  6   296 Kitsilano         Private …            1 1 shared…        1     1   100
##  7  3514 West End          Entire h…            2 1 bath           1     1   110
##  8   594 Sunset            Entire h…            5 1 bath           3     3   105
##  9  3305 Dunbar Southlands Entire h…            4 1 bath           1     2   196
## 10   938 Downtown          Entire h…            7 2 baths          2     3   269
## # ℹ 30 more rows
```
…
注意在图 10.11 中，我们的自举样本直方图与原始样本直方图形状相似。尽管分布的形状相似，但它们并不相同。你也会注意到原始样本均值和自举样本均值不同。这可能是什么原因呢？记住，我们是从原始样本中有放回地抽样的，所以我们不会再次得到相同的样本值。我们*假装*我们的单个样本接近总体，我们试图通过从我们的原始样本中抽取一个来模拟从总体中抽取另一个样本。 

现在我们使用`rep_sample_n`从原始样本(`one_sample`)中抽取 20,000 个自举样本，并计算这些重复样本的均值。回想一下，这假设`one_sample` *看起来*像我们的原始总体；但由于我们没有访问到总体本身，这通常是我们可以做到的最好的。

```r
boot20000 <- one_sample |>
 rep_sample_n(size = 40, replace = TRUE, reps = 20000)

boot20000
```

```r
## # A tibble: 800,000 × 9
## # Groups:   replicate [20,000]
##    replicate    id neighbourhood room_type accommodates bathrooms bedrooms  beds
##        <int> <dbl> <chr>         <chr>            <dbl> <chr>        <dbl> <dbl>
##  1         1  1276 Hastings-Sun… Entire h…            2 1 bath           1     1
##  2         1  3235 Hastings-Sun… Entire h…            2 1 bath           1     1
##  3         1  1301 Oakridge      Entire h…           12 2 baths          2    12
##  4         1   118 Grandview-Wo… Entire h…            4 1 bath           2     2
##  5         1  2550 Downtown Eas… Private …            2 1.5 shar…        1     1
##  6         1  1006 Grandview-Wo… Entire h…            5 1 bath           3     4
##  7         1  3632 Downtown Eas… Entire h…            6 2 baths          3     3
##  8         1  1923 West End      Entire h…            4 2 baths          2     2
##  9         1  3873 Dunbar South… Private …            5 1 bath           2     3
## 10         1  2349 Kerrisdale    Private …            2 1 shared…        1     1
## # ℹ 799,990 more rows
## # ℹ 1 more variable: price <dbl>
```
…
我们可以看到，自助样本分布和样本均值是不同的。它们之所以不同，是因为我们是**有放回地**进行抽样的。现在我们将计算 20,000 个自助样本的点估计值，并生成我们的点估计的自助分布。自助分布（图 10.13）表明，如果我们再次抽样，我们可能会如何预期我们的点估计的表现。

```r
boot20000_means <- boot20000 |>
 group_by(replicate) |>
 summarize(mean_price = mean(price))

boot20000_means
```

```r
## # A tibble: 20,000 × 2
##    replicate mean_price
##        <int>      <dbl>
##  1         1     177.2 
##  2         2     131.45
##  3         3     179.10
##  4         4     171.35
##  5         5     191.32
##  6         6     170.05
##  7         7     178.83
##  8         8     154.78
##  9         9     163.85
## 10        10     209.28
## # ℹ 19,990 more rows
```
…
