…
在本章和下一章中，我们将研究一个数据集，该数据集包含加利福尼亚州萨克拉门托的[932 笔房地产交易](https://support.spatialkey.com/spatialkey-sample-csv-data/)，最初在《萨克拉门托蜜蜂报》上报道。我们首先需要制定一个精确的问题，这是我们想要回答的问题。在这个例子中，我们的问题仍然是预测性的：我们能否使用萨克拉门托，加利福尼亚地区房屋的大小来预测其销售价格？对这个问题的严格、定量的回答可能有助于房地产经纪人向客户建议某个特定列表的价格是否合理，或者如何设定新列表的价格。我们开始分析，通过加载数据、检查数据并设置种子值。

```r
library(tidyverse)
library(tidymodels)
library(gridExtra)

set.seed(5)

sacramento <- read_csv("data/sacramento.csv")
sacramento
```

```r
## # A tibble: 932 × 9
##    city           zip     beds baths  sqft type        price latitude longitude
##    <chr>          <chr>  <dbl> <dbl> <dbl> <chr>       <dbl>    <dbl>     <dbl>
##  1 SACRAMENTO     z95838     2     1   836 Residential 59222     38.6     -121.
##  2 SACRAMENTO     z95823     3     1  1167 Residential 68212     38.5     -121.
##  3 SACRAMENTO     z95815     2     1   796 Residential 68880     38.6     -121.
##  4 SACRAMENTO     z95815     2     1   852 Residential 69307     38.6     -121.
##  5 SACRAMENTO     z95824     2     1   797 Residential 81900     38.5     -121.
##  6 SACRAMENTO     z95841     3     1  1122 Condo       89921     38.7     -121.
##  7 SACRAMENTO     z95842     3     2  1104 Residential 90895     38.7     -121.
##  8 SACRAMENTO     z95820     3     1  1177 Residential 91002     38.5     -121.
##  9 RANCHO_CORDOVA z95670     2     2   941 Condo       94905     38.6     -121.
## 10 RIO_LINDA      z95673     3     2  1146 Residential 98937     38.7     -121.
## # ℹ 922 more rows
```
…
```r
gridvals <- tibble(neighbors = seq(from = 1, to = 200, by = 3))

sacr_results <- sacr_wkflw |>
 tune_grid(resamples = sacr_vfold, grid = gridvals) |>
 collect_metrics() |>
 filter(.metric == "rmse")

# show the results
sacr_results
```

```r
## # A tibble: 67 × 7
##    neighbors .metric .estimator    mean     n std_err .config              
##        <dbl> <chr>   <chr>        <dbl> <int>   <dbl> <chr>                
##  1         1 rmse    standard   107206\.     5   4102\. Preprocessor1_Model01
##  2         4 rmse    standard    90469\.     5   3312\. Preprocessor1_Model02
##  3         7 rmse    standard    86580\.     5   3062\. Preprocessor1_Model03
##  4        10 rmse    standard    85321\.     5   3395\. Preprocessor1_Model04
##  5        13 rmse    standard    85045\.     5   3641\. Preprocessor1_Model05
##  6        16 rmse    standard    84675\.     5   3679\. Preprocessor1_Model06
##  7        19 rmse    standard    84776\.     5   3984\. Preprocessor1_Model07
##  8        22 rmse    standard    84617\.     5   3952\. Preprocessor1_Model08
##  9        25 rmse    standard    84953\.     5   3929\. Preprocessor1_Model09
## 10        28 rmse    standard    84612\.     5   3917\. Preprocessor1_Model10
## # ℹ 57 more rows
```
…
