…
最后，要查看数据框的前 10 行，我们必须调用它：

```r
canlang_data
```

```r
## # A tibble: 214 × 6
##    category          language mother_tongue most_at_home most_at_work lang_known
##    <chr>             <chr>            <dbl>        <dbl>        <dbl>      <dbl>
##  1 Aboriginal langu… Aborigi…           590          235           30        665
##  2 Non-Official & N… Afrikaa…         10260         4785           85      23415
##  3 Non-Official & N… Afro-As…          1150          445           10       2775
##  4 Non-Official & N… Akan (T…         13460         5985           25      22150
##  5 Non-Official & N… Albanian         26895        13135          345      31930
##  6 Aboriginal langu… Algonqu…            45           10            0        120
##  7 Aboriginal langu… Algonqu…          1260          370           40       2480
##  8 Non-Official & N… America…          2685         3020         1145      21930
##  9 Non-Official & N… Amharic          22465        12785          200      33670
## 10 Non-Official & N… Arabic          419890       223535         5585     629055
## # ℹ 204 more rows
```
…
```r
## Warning: One or more parsing issues, call `problems()` on your data frame for details,
## e.g.:
##   dat <- vroom(...)
##   problems(dat)
```

```r
canlang_data
```

```r
## # A tibble: 217 × 1
##    `Data source: https://ttimbers.github.io/canlang/`                           
##    <chr>                                                                        
##  1 "Data originally published in: Statistics Canada Census of Population 2016." 
##  2 "Reproduced and distributed on an as-is basis with their permission."        
##  3 "category,language,mother_tongue,most_at_home,most_at_work,lang_known"       
##  4 "Aboriginal languages,\"Aboriginal languages, n.o.s.\",590,235,30,665"       
##  5 "Non-Official & Non-Aboriginal languages,Afrikaans,10260,4785,85,23415"      
##  6 "Non-Official & Non-Aboriginal languages,\"Afro-Asiatic languages, n.i.e.\",…
##  7 "Non-Official & Non-Aboriginal languages,Akan (Twi),13460,5985,25,22150"     
##  8 "Non-Official & Non-Aboriginal languages,Albanian,26895,13135,345,31930"     
##  9 "Aboriginal languages,\"Algonquian languages, n.i.e.\",45,10,0,120"          
## 10 "Aboriginal languages,Algonquin,1260,370,40,2480"                            
## # ℹ 207 more rows
```

要成功将此类数据读入 R，`skip`参数可以很有用，它告诉 R 在开始读取数据之前应跳过多少行。在上面的例子中，我们将此值设置为 3。

```r
canlang_data <- read_csv("data/can_lang_meta-data.csv",
 skip = 3)
canlang_data
```

```r
## # A tibble: 214 × 6
##    category          language mother_tongue most_at_home most_at_work lang_known
##    <chr>             <chr>            <dbl>        <dbl>        <dbl>      <dbl>
##  1 Aboriginal langu… Aborigi…           590          235           30        665
##  2 Non-Official & N… Afrikaa…         10260         4785           85      23415
##  3 Non-Official & N… Afro-As…          1150          445           10       2775
##  4 Non-Official & N… Akan (T…         13460         5985           25      22150
##  5 Non-Official & N… Albanian         26895        13135          345      31930
##  6 Aboriginal langu… Algonqu…            45           10            0        120
##  7 Aboriginal langu… Algonqu…          1260          370           40       2480
##  8 Non-Official & N… America…          2685         3020         1145      21930
##  9 Non-Official & N… Amharic          22465        12785          200      33670
## 10 Non-Official & N… Arabic          419890       223535         5585     629055
## # ℹ 204 more rows
```
…
我们可以使用`read_tsv`函数来读取`.tsv`（**t**ab **s**eparated **v**alues）文件。

```r
canlang_data <- read_tsv("data/can_lang.tsv")
canlang_data
```

```r
## # A tibble: 214 × 6
##    category          language mother_tongue most_at_home most_at_work lang_known
##    <chr>             <chr>            <dbl>        <dbl>        <dbl>      <dbl>
##  1 Aboriginal langu… Aborigi…           590          235           30        665
##  2 Non-Official & N… Afrikaa…         10260         4785           85      23415
##  3 Non-Official & N… Afro-As…          1150          445           10       2775
##  4 Non-Official & N… Akan (T…         13460         5985           25      22150
##  5 Non-Official & N… Albanian         26895        13135          345      31930
##  6 Aboriginal langu… Algonqu…            45           10            0        120
##  7 Aboriginal langu… Algonqu…          1260          370           40       2480
##  8 Non-Official & N… America…          2685         3020         1145      21930
##  9 Non-Official & N… Amharic          22465        12785          200      33670
## 10 Non-Official & N… Arabic          419890       223535         5585     629055
## # ℹ 204 more rows
```
…
要使用`read_delim`函数将数据读入 R，我们指定文件路径作为第一个参数，提供制表符`"\t"`作为`delim`参数，并将`col_names`参数设置为`FALSE`以表示数据中没有提供列名。请注意，`read_csv`、`read_tsv`和`read_delim`函数都有一个`col_names`参数，默认值为`TRUE`。

> **注意：** `\t`是一个**转义字符**的例子，它始终以反斜杠（`\`）开头。转义字符用于表示非打印字符（如制表符）或具有特殊意义的字符（如引号）。

```r
canlang_data <- read_delim("data/can_lang_no_names.tsv",
 delim = "\t",
 col_names = FALSE)
canlang_data
```

```r
## # A tibble: 214 × 6
##    X1                                      X2             X3     X4    X5     X6
##    <chr>                                   <chr>       <dbl>  <dbl> <dbl>  <dbl>
##  1 Aboriginal languages                    Aborigina…    590    235    30    665
##  2 Non-Official & Non-Aboriginal languages Afrikaans   10260   4785    85  23415
##  3 Non-Official & Non-Aboriginal languages Afro-Asia…   1150    445    10   2775
##  4 Non-Official & Non-Aboriginal languages Akan (Twi)  13460   5985    25  22150
##  5 Non-Official & Non-Aboriginal languages Albanian    26895  13135   345  31930
##  6 Aboriginal languages                    Algonquia…     45     10     0    120
##  7 Aboriginal languages                    Algonquin    1260    370    40   2480
##  8 Non-Official & Non-Aboriginal languages American …   2685   3020  1145  21930
##  9 Non-Official & Non-Aboriginal languages Amharic     22465  12785   200  33670
## 10 Non-Official & Non-Aboriginal languages Arabic     419890 223535  5585 629055
## # ℹ 204 more rows
```
R 中的数据框需要具有列名。因此，如果你读取的数据没有列名，R 将会自动分配名称。在这个例子中，R 分配的列名为 `X1, X2, X3, X4, X5, X6`。在这种情况下，最好手动重命名你的列。当前的列名（`X1, X2` 等）描述性不强，会使你的分析变得混乱。要重命名列，你可以使用来自 [`dplyr` R 包](https://dplyr.tidyverse.org/)（`tidyverse` 一起加载的包之一，因此我们不需要单独加载它）的 `rename` 函数（Wickham, François, et al. 2021）。第一个参数是数据集，在后续参数中，你为要重命名的变量写入 `new_name = old_name`。我们将在下面的 `canlang_data` 数据框中将 `X1, X2, ..., X6` 列重命名为更具描述性的名称。

```r
canlang_data <- rename(canlang_data,
 category = X1,
 language = X2,
 mother_tongue = X3,
 most_at_home = X4,
 most_at_work = X5,
 lang_known = X6)
canlang_data
```

```r
## # A tibble: 214 × 6
##    category          language mother_tongue most_at_home most_at_work lang_known
##    <chr>             <chr>            <dbl>        <dbl>        <dbl>      <dbl>
##  1 Aboriginal langu… Aborigi…           590          235           30        665
##  2 Non-Official & N… Afrikaa…         10260         4785           85      23415
##  3 Non-Official & N… Afro-As…          1150          445           10       2775
##  4 Non-Official & N… Akan (T…         13460         5985           25      22150
##  5 Non-Official & N… Albanian         26895        13135          345      31930
##  6 Aboriginal langu… Algonqu…            45           10            0        120
##  7 Aboriginal langu… Algonqu…          1260          370           40       2480
##  8 Non-Official & N… America…          2685         3020         1145      21930
##  9 Non-Official & N… Amharic          22465        12785          200      33670
## 10 Non-Official & N… Arabic          419890       223535         5585     629055
## # ℹ 204 more rows
```

### 2.4.5 直接从 URL 读取表格数据

我们还可以使用 `read_csv`、`read_tsv` 或 `read_delim`（和相关函数）直接从包含表格数据的 **U**niform **R**esource **L**ocator（URL）读取数据。在这里，我们提供远程文件的 URL 给 `read_*`，而不是我们电脑上本地文件的路径。我们需要用引号包围 URL，就像我们在本地电脑上指定路径时一样。我们使用的所有其他参数与在电脑上使用本地文件时相同。

```r
url <- "https://raw.githubusercontent.com/UBC-DSCI/data/main/can_lang.csv"
canlang_data <- read_csv(url)

canlang_data
```

```r
## # A tibble: 214 × 6
##    category          language mother_tongue most_at_home most_at_work lang_known
##    <chr>             <chr>            <dbl>        <dbl>        <dbl>      <dbl>
##  1 Aboriginal langu… Aborigi…           590          235           30        665
##  2 Non-Official & N… Afrikaa…         10260         4785           85      23415
##  3 Non-Official & N… Afro-As…          1150          445           10       2775
##  4 Non-Official & N… Akan (T…         13460         5985           25      22150
##  5 Non-Official & N… Albanian         26895        13135          345      31930
##  6 Aboriginal langu… Algonqu…            45           10            0        120
##  7 Aboriginal langu… Algonqu…          1260          370           40       2480
##  8 Non-Official & N… America…          2685         3020         1145      21930
##  9 Non-Official & N… Amharic          22465        12785          200      33670
## 10 Non-Official & N… Arabic          419890       223535         5585     629055
## # ℹ 204 more rows
```

### 2.4.6 从 URL 下载数据

有时 URL 上可用的数据格式不够好，不能使用 `read_csv`、`read_tsv`、`read_delim` 或其他相关函数直接将数据读入 R。在需要在我们用 R 处理它之前先下载文件到我们本地电脑的情况中，我们可以使用 `download.file` 函数。第一个参数是 URL，第二个是我们想要存储下载文件的路径。

```r
download.file(url, "data/can_lang.csv")
canlang_data <- read_csv("data/can_lang.csv")
canlang_data
```

```r
## # A tibble: 214 × 6
##    category          language mother_tongue most_at_home most_at_work lang_known
##    <chr>             <chr>            <dbl>        <dbl>        <dbl>      <dbl>
##  1 Aboriginal langu… Aborigi…           590          235           30        665
##  2 Non-Official & N… Afrikaa…         10260         4785           85      23415
##  3 Non-Official & N… Afro-As…          1150          445           10       2775
##  4 Non-Official & N… Akan (T…         13460         5985           25      22150
##  5 Non-Official & N… Albanian         26895        13135          345      31930
##  6 Aboriginal langu… Algonqu…            45           10            0        120
##  7 Aboriginal langu… Algonqu…          1260          370           40       2480
##  8 Non-Official & N… America…          2685         3020         1145      21930
##  9 Non-Official & N… Amharic          22465        12785          200      33670
## 10 Non-Official & N… Arabic          419890       223535         5585     629055
## # ℹ 204 more rows
```
…
     ]TUEe??O??c???????6q??s??d?m???\???H?^????3} ?rZY? ?:L60?^?????XTP+?|?
X?a??4VT?,D?Jq
```

这种文件表示方式允许 Excel 文件存储`.csv`文件无法存储的额外内容，例如字体、文本格式、图形、多个工作表等。尽管在纯文本编辑器中看起来很奇怪，但我们仍然可以使用专门为此目的开发的`readxl`包将 Excel 工作表读取到 R 中。

```r
library(readxl)

canlang_data <- read_excel("data/can_lang.xlsx")
canlang_data
```

```r
## # A tibble: 214 × 6
##    category          language mother_tongue most_at_home most_at_work lang_known
##    <chr>             <chr>            <dbl>        <dbl>        <dbl>      <dbl>
##  1 Aboriginal langu… Aborigi…           590          235           30        665
##  2 Non-Official & N… Afrikaa…         10260         4785           85      23415
##  3 Non-Official & N… Afro-As…          1150          445           10       2775
##  4 Non-Official & N… Akan (T…         13460         5985           25      22150
##  5 Non-Official & N… Albanian         26895        13135          345      31930
##  6 Aboriginal langu… Algonqu…            45           10            0        120
##  7 Aboriginal langu… Algonqu…          1260          370           40       2480
##  8 Non-Official & N… America…          2685         3020         1145      21930
##  9 Non-Official & N… Amharic          22465        12785          200      33670
## 10 Non-Official & N… Arabic          419890       223535         5585     629055
## # ℹ 204 more rows
```
…
现在您可以看到，数据库将只返回我们用 `select` 函数请求的两个列。为了实际上将此数据作为数据框检索到 R 中，我们使用 `collect` 函数。下面您将看到，在运行 `collect` 之后，R 知道检索到的数据有 67 行，并且不再列出任何数据库。

```r
aboriginal_lang_data <- collect(aboriginal_lang_selected_db)
aboriginal_lang_data
```

```r
## # A tibble: 67 × 2
##    language                     mother_tongue
##    <chr>                                <dbl>
##  1 Aboriginal languages, n.o.s.           590
##  2 Algonquian languages, n.i.e.            45
##  3 Algonquin                             1260
##  4 Athabaskan languages, n.i.e.            50
##  5 Atikamekw                             6150
##  6 Babine (Wetsuwet'en)                   110
##  7 Beaver                                 190
##  8 Blackfoot                             2815
##  9 Carrier                               1025
## 10 Cayuga                                  45
## # ℹ 57 more rows
```
…
为了进一步使用本书中的技术进行数据处理，你需要将这个项目列表转换成数据框。在这里，我们将从 JSON 数据中提取`date`、`title`、`copyright`和`url`变量，并使用提取的信息构建数据框。

> **注意：**理解这段代码对于本书剩余部分不是必需的。它包含在这里是为了那些希望在他们的数据分析中将 JSON 数据解析为数据框的读者。

```r
nasa_df_all <- tibble(bind_rows(lapply(nasa_data, as.data.frame.list)))
nasa_df <- select(nasa_df_all, date, title, copyright, url)
nasa_df
```

```r
## # A tibble: 74 × 4
##    date       title                                        copyright       url  
##    <chr>      <chr>                                        <chr>           <chr>
##  1 2023-05-01 Carina Nebula North                          "\nCarlos Tayl… http…
##  2 2023-05-02 Flat Rock Hills on Mars                      "\nNASA, \nJPL… http…
##  3 2023-05-03 Centaurus A: A Peculiar Island of Stars      "\nMarco Loren… http…
##  4 2023-05-04 The Galaxy, the Jet, and a Famous Black Hole  <NA>           http…
##  5 2023-05-05 Shackleton from ShadowCam                     <NA>           http…
##  6 2023-05-06 Twilight in a Flower                         "Dario Giannob… http…
##  7 2023-05-07 The Helix Nebula from CFHT                    <NA>           http…
##  8 2023-05-08 The Spanish Dancer Spiral Galaxy              <NA>           http…
##  9 2023-05-09 Shadows of Earth                             "\nMarcella Gi… http…
## 10 2023-05-10 Milky Way over Egyptian Desert               "\nAmr Abdulwa… http…
## # ℹ 64 more rows
```
…
