…
因此，在进行多元线性回归时，避免包括非常线性相关的预测变量是很重要的。然而，实现这一点的技术超出了本书的范围；请参阅本章末尾的附加资源列表，以了解您可以在哪里了解更多信息。

## 8.8 设计新的预测变量

在我们的初步探索中，我们非常幸运地发现了一个预测变量（房屋面积），它似乎与我们的响应变量（售价）有有意义且几乎是线性的关系。但如果我们不能立即找到这样的变量，我们应该怎么办？好吧，有时这仅仅是一个事实，数据中的变量与响应变量之间没有足够的关系，无法提供有用的预测。例如，如果唯一可用的预测变量是“当前房屋所有者最喜欢的冰淇淋口味”，我们可能几乎没有希望使用该变量来预测房屋的售价（除非未来有任何关于房地产市场和房屋所有者冰淇淋偏好的重大科学发现）。在这种情况下，唯一的选择是获取更多有用变量的测量值。

然而，存在许多情况，预测变量确实与响应变量有有意义的关系，但这种关系不符合你选择的回归方法的假设。例如，一个包含两个变量——`x`和`y`——的数据框`df`，这两个变量之间存在非线性关系，将无法被简单的线性回归完全捕捉，如图 8.11 所示。

```r
df
```

```r
## # A tibble: 100 × 2
##        x      y
##    <dbl>  <dbl>
##  1 0.102 0.0720
##  2 0.800 0.532 
##  3 0.478 0.148 
##  4 0.972 1.01  
##  5 0.846 0.677 
##  6 0.405 0.157 
##  7 0.879 0.768 
##  8 0.130 0.0402
##  9 0.852 0.576 
## 10 0.180 0.0847
## # ℹ 90 more rows
```
…
