…
我们的第一步是使用可视化来加载、整理和探索数据，以便更好地理解我们所处理的数据。我们首先加载分析所需的`tidyverse`包。

```r
library(tidyverse)
```

在这种情况下，包含乳腺癌数据集的文件是一个带有标题的`.csv`文件。我们将使用不带额外参数的`read_csv`函数，然后检查其内容：

```r
cancer <- read_csv("data/wdbc.csv")
cancer
```

```r
## # A tibble: 569 × 12
##        ID Class Radius Texture Perimeter   Area Smoothness Compactness Concavity
##     <dbl> <chr>  <dbl>   <dbl>     <dbl>  <dbl>      <dbl>       <dbl>     <dbl>
##  1 8.42e5 M      1.10   -2.07     1.27    0.984      1.57       3.28      2.65  
##  2 8.43e5 M      1.83   -0.353    1.68    1.91      -0.826     -0.487    -0.0238
##  3 8.43e7 M      1.58    0.456    1.57    1.56       0.941      1.05      1.36  
##  4 8.43e7 M     -0.768   0.254   -0.592  -0.764      3.28       3.40      1.91  
##  5 8.44e7 M      1.75   -1.15     1.78    1.82       0.280      0.539     1.37  
##  6 8.44e5 M     -0.476  -0.835   -0.387  -0.505      2.24       1.24      0.866 
##  7 8.44e5 M      1.17    0.161    1.14    1.09      -0.123      0.0882    0.300 
##  8 8.45e7 M     -0.118   0.358   -0.0728 -0.219      1.60       1.14      0.0610
##  9 8.45e5 M     -0.320   0.588   -0.184  -0.384      2.20       1.68      1.22  
## 10 8.45e7 M     -0.473   1.10    -0.329  -0.509      1.58       2.56      1.74  
## # ℹ 559 more rows
## # ℹ 3 more variables: Concave_Points <dbl>, Symmetry <dbl>,
## #   Fractal_Dimension <dbl>
```
…
```r
library(tidymodels)
```

让我们通过 `tidymodels` 如何执行 K 近邻分类来一步步说明。我们将使用上面的 `cancer` 数据集，以周长和凹凸性作为预测变量，并使用 $K = 5$ 个邻居来构建我们的分类器。然后我们将使用这个分类器来预测一个新观测的周长为 0、凹凸性为 3.5 且诊断标签未知的诊断标签。让我们挑选出我们想要的两个预测变量和类别标签，并将它们存储在一个名为 `cancer_train` 的新数据集中：

```r
cancer_train <- cancer |>
 select(Class, Perimeter, Concavity)
cancer_train
```

```r
## # A tibble: 569 × 3
##    Class     Perimeter Concavity
##    <fct>         <dbl>     <dbl>
##  1 Malignant    1.27      2.65  
##  2 Malignant    1.68     -0.0238
##  3 Malignant    1.57      1.36  
##  4 Malignant   -0.592     1.91  
##  5 Malignant    1.78      1.37  
##  6 Malignant   -0.387     0.866 
##  7 Malignant    1.14      0.300 
##  8 Malignant   -0.0728    0.0610
##  9 Malignant   -0.184     1.22  
## 10 Malignant   -0.329     1.74  
## # ℹ 559 more rows
```
…
在许多其他预测模型中，每个变量的*中心*（例如，其均值）也很重要。例如，如果我们有一个以开尔文度测量的温度变量，以及同一个数据集以摄氏度测量的温度，这两个变量将相差一个常数偏移量 273（尽管它们包含的信息完全相同）。同样，在我们的假设职业分类示例中，我们可能会看到工资变量的中心在数万之间，而教育年数的中心在个位数。尽管这不会影响 K 最近邻分类算法，但这种大的偏移量可能会改变使用许多其他预测模型的结果。

为了缩放和居中我们的数据，我们需要找到变量的*均值*（平均数，它量化了一组数字的“中心”值）和*标准差*（一个量化值分布情况的数字）。对于变量的每个观测值，我们减去均值（即居中变量）并除以标准差（即缩放变量）。当我们这样做时，数据就被说成是*标准化*的，并且数据集中的所有变量都将具有均值为 0 和标准差为 1。为了说明标准化对 K 最近邻算法的影响，我们将读取原始的、未标准化的威斯康星州乳腺癌数据集；直到现在，我们一直在使用该数据集的标准化版本。和之前一样，我们将`Class`变量转换为因子类型，并将值重命名为“Malignant”和“Benign”。为了简化问题，我们只使用`Area`、`Smoothness`和`Class`变量：

```r
unscaled_cancer <- read_csv("data/wdbc_unscaled.csv") |>
 mutate(Class = as_factor(Class)) |>
 mutate(Class = fct_recode(Class, "Benign" = "B", "Malignant" = "M")) |>
 select(Class, Area, Smoothness)
unscaled_cancer
```

```r
## # A tibble: 569 × 3
##    Class      Area Smoothness
##    <fct>     <dbl>      <dbl>
##  1 Malignant 1001      0.118 
##  2 Malignant 1326      0.0847
##  3 Malignant 1203      0.110 
##  4 Malignant  386\.     0.142 
##  5 Malignant 1297      0.100 
##  6 Malignant  477\.     0.128 
##  7 Malignant 1040      0.0946
##  8 Malignant  578\.     0.119 
##  9 Malignant  520\.     0.127 
## 10 Malignant  476\.     0.119 
## # ℹ 559 more rows
```
…
+   `面积, 平滑度`: 指定 `面积` 和 `平滑度` 变量

+   `-类别`: 指定除 `类别` 变量之外的所有内容

你可以在 `recipes` 参考页面上找到所有步骤和变量选择函数的完整集合（[recipes reference page](https://recipes.tidymodels.org/reference/index.html)）。

在这一点上，我们已经根据输入到配方中的数据计算了所需的统计量，但数据尚未进行缩放和居中。要实际缩放和居中数据，我们需要将 `bake` 函数应用于未缩放的数据。

```r
scaled_cancer <- bake(uc_recipe, unscaled_cancer)
scaled_cancer
```

```r
## # A tibble: 569 × 3
##      Area Smoothness Class    
##     <dbl>      <dbl> <fct>    
##  1  0.984      1.57  Malignant
##  2  1.91      -0.826 Malignant
##  3  1.56       0.941 Malignant
##  4 -0.764      3.28  Malignant
##  5  1.82       0.280 Malignant
##  6 -0.505      2.24  Malignant
##  7  1.09      -0.123 Malignant
##  8 -0.219      1.60  Malignant
##  9 -0.384      2.20  Malignant
## 10 -0.509      1.58  Malignant
## # ℹ 559 more rows
```
…
