…
莫纳罗亚二氧化碳（CO$_{\text{2}}$）数据集（[Mauna Loa CO$_{\text{2}}$ data set](https://www.esrl.noaa.gov/gmd/ccgg/trends/data.html)），由 Pieter Tans 博士、NOAA/GML 和 Ralph Keeling 博士、斯克里普斯海洋研究所整理，记录了从 1959 年起在夏威夷莫纳罗亚研究站的大气二氧化碳（CO$_{\text{2}}$，百万分之一）浓度（Tans and Keeling 2020）。对于这本书，我们将专注于 1980-2020 年的年份。

**问题：** 大气中二氧化碳（CO$_{\text{2}}$）的浓度随时间变化吗？有没有值得注意的有趣模式？

要开始，我们将读取并检查数据：

```r
# mauna loa carbon dioxide data
co2_df <- read_csv("data/mauna_loa_data.csv")
co2_df
```

```r
## # A tibble: 484 × 2
##    date_measured   ppm
##    <date>        <dbl>
##  1 1980-02-01     338.
##  2 1980-03-01     340.
##  3 1980-04-01     341.
##  4 1980-05-01     341.
##  5 1980-06-01     341.
##  6 1980-07-01     339.
##  7 1980-08-01     338.
##  8 1980-09-01     336.
##  9 1980-10-01     336.
## 10 1980-11-01     337.
## # ℹ 474 more rows
```
…
### 4.5.2 散点图：老忠实喷泉喷发时间数据集

`faithful`数据集包含了黄石国家公园怀俄明州老忠实喷泉喷发之间的等待时间以及随后的喷发持续时间（以分钟计）的测量。`faithful`数据集在基础 R 中作为数据框提供，因此不需要加载。我们将其转换为 tibble，以利用这些专用数据框提供的更佳打印输出。

**问题：** 喷发前的等待时间与喷发持续时间之间是否存在关系？

```r
# old faithful eruption time / wait time data
faithful <- as_tibble(faithful)
faithful
```

```r
## # A tibble: 272 × 2
##    eruptions waiting
##        <dbl>   <dbl>
##  1      3.6       79
##  2      1.8       54
##  3      3.33      74
##  4      2.28      62
##  5      4.53      85
##  6      2.88      55
##  7      4.7       88
##  8      3.6       85
##  9      1.95      51
## 10      4.35      85
## # ℹ 262 more rows
```
…
### 4.5.3 轴变换和彩色散点图：加拿大语言数据集

回忆一下来自第 1、2 和 3 章的`can_lang`数据集(Timbers 2020)，它包含了 2016 年加拿大人口普查中的语言计数。

**问题：说某种语言作为母语的人的百分比与在家说该语言作为主要语言的人的百分比之间是否存在关系？在高级语言类别（官方语言、原住民语言或非官方和非原住民语言）中，这种关系的强度是否存在模式？**

要开始，我们将读取和检查数据：

```r
can_lang <- read_csv("data/can_lang.csv")
can_lang
```

```r
## # A tibble: 214 × 6
##    category          language mother_tongue most_at_home most_at_work lang_known
##    <chr>             <chr>            <dbl>        <dbl>        <dbl>      <dbl>
##  1 Aboriginal langu… Aborigi…           590          235           30        665
##  2 Non-Official & N… Afrikaa…         10260         4785           85      23415
##  3 Non-Official & N… Afro-As…          1150          445           10       2775
##  4 Non-Official & N… Akan (T…         13460         5985           25      22150
##  5 Non-Official & N… Albanian         26895        13135          345      31930
##  6 Aboriginal langu… Algonqu…            45           10            0        120
##  7 Aboriginal langu… Algonqu…          1260          370           40       2480
##  8 Non-Official & N… America…          2685         3020         1145      21930
##  9 Non-Official & N… Amharic          22465        12785          200      33670
## 10 Non-Official & N… Arabic          419890       223535         5585     629055
## # ℹ 204 more rows
```
…
在下面，我们使用`mutate`计算报告母语和在家使用的主要语言为所有语言的百分比，对于`can_lang`数据集中的所有语言。由于新列被附加到数据表的末尾，我们在转换后选择了新列，以便您可以清楚地看到从表中突变输出的结果。

```r
can_lang <- can_lang |>
 mutate(
 mother_tongue_percent = (mother_tongue / 35151728) * 100,
 most_at_home_percent = (most_at_home / 35151728) * 100
 )

can_lang |>
 select(mother_tongue_percent, most_at_home_percent)
```

```r
## # A tibble: 214 × 2
##    mother_tongue_percent most_at_home_percent
##                    <dbl>                <dbl>
##  1              0.00168             0.000669 
##  2              0.0292              0.0136   
##  3              0.00327             0.00127  
##  4              0.0383              0.0170   
##  5              0.0765              0.0374   
##  6              0.000128            0.0000284
##  7              0.00358             0.00105  
##  8              0.00764             0.00859  
##  9              0.0639              0.0364   
## 10              1.19                0.636    
## # ℹ 204 more rows
```
…
`islands.csv` 数据集包含地球陆地面积列表以及它们的面积（以千平方英里为单位）(McNeil 1977)。

**问题：** 大陆（北美洲/南美洲、非洲、欧洲、亚洲、澳大利亚、南极洲）是地球最大的七个陆地吗？如果是这样，那么在这些大陆之后，接下来几个最大的陆地是什么？

要开始，我们将读取并检查数据：

```r
# islands data
islands_df <- read_csv("data/islands.csv")
islands_df
```

```r
## # A tibble: 48 × 3
##    landmass      size landmass_type
##    <chr>        <dbl> <chr>        
##  1 Africa       11506 Continent    
##  2 Antarctica    5500 Continent    
##  3 Asia         16988 Continent    
##  4 Australia     2968 Continent    
##  5 Axel Heiberg    16 Other        
##  6 Baffin         184 Other        
##  7 Banks           23 Other        
##  8 Borneo         280 Other        
##  9 Britain         84 Other        
## 10 Celebes         73 Other        
## # ℹ 38 more rows
```
…
### 4.5.5 直方图：米歇尔逊光速数据集

`morley`数据集包含了在 1879 年进行的实验中收集到的光速测量数据。进行了五个实验，每个实验进行了 20 次运行——这意味着每个实验中收集了 20 次光速的测量数据(Michelson 1882)。`morley`数据集在基础 R 中作为数据框提供，因此不需要加载。由于光速是一个非常大的数字（真实值是 299,792.458 km/sec），数据被编码为测量光速减去 299,000。这种编码使我们能够关注测量中的变化，这些变化通常比 299,000 小得多。如果我们使用完整的大速度测量，测量中的变化将不明显，这将使得研究实验之间的差异变得困难。请注意，我们将`morley`数据转换为 tibble，以利用这些专用数据框提供的更美观的打印输出。

**问题**：鉴于我们现在对光速（每秒 299,792.458 公里）的了解，每个实验的准确性如何？

```r
# michelson morley experimental data
morley <- as_tibble(morley)
morley
```

```r
## # A tibble: 100 × 3
##     Expt   Run Speed
##    <int> <int> <int>
##  1     1     1   850
##  2     1     2   740
##  3     1     3   900
##  4     1     4  1070
##  5     1     5   930
##  6     1     6   850
##  7     1     7   950
##  8     1     8   980
##  9     1     9   980
## 10     1    10   880
## # ℹ 90 more rows
```
…
