…
图 1.3：`read_csv`函数的语法。

```r
read_csv("data/can_lang.csv")
```

```r
## # A tibble: 214 × 6
##    category          language mother_tongue most_at_home most_at_work lang_known
##    <chr>             <chr>            <dbl>        <dbl>        <dbl>      <dbl>
##  1 Aboriginal langu… Aborigi…           590          235           30        665
##  2 Non-Official & N… Afrikaa…         10260         4785           85      23415
##  3 Non-Official & N… Afro-As…          1150          445           10       2775
##  4 Non-Official & N… Akan (T…         13460         5985           25      22150
##  5 Non-Official & N… Albanian         26895        13135          345      31930
##  6 Aboriginal langu… Algonqu…            45           10            0        120
##  7 Aboriginal langu… Algonqu…          1260          370           40       2480
##  8 Non-Official & N… America…          2685         3020         1145      21930
##  9 Non-Official & N… Amharic          22465        12785          200      33670
## 10 Non-Official & N… Arabic          419890       223535         5585     629055
## # ℹ 204 more rows
```
…
在 R 中为对象命名有一些约定。在命名对象时，我们建议只使用小写字母、数字和下划线 `_` 来分隔名称中的单词。R 是区分大小写的，这意味着 `Letter` 和 `letter` 在 R 中是两个不同的对象。你还应该尝试给你的对象赋予有意义的名称。例如，你可以将数据框命名为 `x`。然而，使用更有意义的术语，如 `language_data`，将有助于你记住代码中每个名称代表的内容。我们建议遵循 *Tidyverse 风格指南* 中概述的 Tidyverse 命名约定（Wickham 2020）。现在，让我们使用赋值符号将名称 `can_lang` 分配给从 `read_csv` 获取的 2016 年加拿大人口普查语言数据框。

```r
can_lang <- read_csv("data/can_lang.csv")
```

等一下，这次什么都没发生！我们的数据在哪里？实际上，确实发生了某些事情：数据已经被加载进来，并且现在与名称 `can_lang` 相关联。我们可以使用这个名称来访问数据框并对其进行操作。例如，我们可以输入数据框的名称来在屏幕上打印前几行。你也会看到在顶部打印了观测数（即行数）和变量（即列数）。以这种方式打印数据框的前几行是一种快速了解数据框包含内容的便捷方法。

```r
can_lang
```

```r
## # A tibble: 214 × 6
##    category          language mother_tongue most_at_home most_at_work lang_known
##    <chr>             <chr>            <dbl>        <dbl>        <dbl>      <dbl>
##  1 Aboriginal langu… Aborigi…           590          235           30        665
##  2 Non-Official & N… Afrikaa…         10260         4785           85      23415
##  3 Non-Official & N… Afro-As…          1150          445           10       2775
##  4 Non-Official & N… Akan (T…         13460         5985           25      22150
##  5 Non-Official & N… Albanian         26895        13135          345      31930
##  6 Aboriginal langu… Algonqu…            45           10            0        120
##  7 Aboriginal langu… Algonqu…          1260          370           40       2480
##  8 Non-Official & N… America…          2685         3020         1145      21930
##  9 Non-Official & N… Amharic          22465        12785          200      33670
## 10 Non-Official & N… Arabic          419890       223535         5585     629055
## # ℹ 204 more rows
```
…
图 1.4：`filter` 函数的语法。

使用这些参数，`filter` 函数返回一个包含输入数据帧所有列的数据帧，但只包含我们在逻辑过滤器语句中请求的行。

```r
aboriginal_lang <- filter(can_lang, category == "Aboriginal languages")
aboriginal_lang
```

```r
## # A tibble: 67 × 6
##    category          language mother_tongue most_at_home most_at_work lang_known
##    <chr>             <chr>            <dbl>        <dbl>        <dbl>      <dbl>
##  1 Aboriginal langu… Aborigi…           590          235           30        665
##  2 Aboriginal langu… Algonqu…            45           10            0        120
##  3 Aboriginal langu… Algonqu…          1260          370           40       2480
##  4 Aboriginal langu… Athabas…            50           10            0         85
##  5 Aboriginal langu… Atikame…          6150         5465         1100       6645
##  6 Aboriginal langu… Babine …           110           20           10        210
##  7 Aboriginal langu… Beaver             190           50            0        340
##  8 Aboriginal langu… Blackfo…          2815         1110           85       5645
##  9 Aboriginal langu… Carrier           1025          250           15       2100
## 10 Aboriginal langu… Cayuga              45           10           10        125
## # ℹ 57 more rows
```
…
图 1.5：`select` 函数的语法。

```r
selected_lang <- select(aboriginal_lang, language, mother_tongue)
selected_lang
```

```r
## # A tibble: 67 × 2
##    language                     mother_tongue
##    <chr>                                <dbl>
##  1 Aboriginal languages, n.o.s.           590
##  2 Algonquian languages, n.i.e.            45
##  3 Algonquin                             1260
##  4 Athabaskan languages, n.i.e.            50
##  5 Atikamekw                             6150
##  6 Babine (Wetsuwet'en)                   110
##  7 Beaver                                 190
##  8 Blackfoot                             2815
##  9 Carrier                               1025
## 10 Cayuga                                  45
## # ℹ 57 more rows
```
…
图 1.6：`arrange` 函数的语法。

```r
arranged_lang <- arrange(selected_lang, by = desc(mother_tongue))
arranged_lang
```

```r
## # A tibble: 67 × 2
##    language          mother_tongue
##    <chr>                     <dbl>
##  1 Cree, n.o.s.              64050
##  2 Inuktitut                 35210
##  3 Ojibway                   17885
##  4 Oji-Cree                  12855
##  5 Dene                      10700
##  6 Montagnais (Innu)         10235
##  7 Mi'kmaq                    6690
##  8 Atikamekw                  6150
##  9 Plains Cree                3065
## 10 Stoney                     3025
## # ℹ 57 more rows
```
…
