Chapter 4 Effective data visualization
…
Question:
Does the concentration of atmospheric CO\(_{\text{2}}\) change over time,
and are there any interesting patterns to note?

To get started, we will read and inspect the data:

# mauna loa carbon dioxide data
co2_df <- read_csv("data/mauna_loa_data.csv")
co2_df

## # A tibble: 484 × 2
##    date_measured   ppm
##    <date>        <dbl>
##  1 1980-02-01     338.
##  2 1980-03-01     340.
##  3 1980-04-01     341.
##  4 1980-05-01     341.
##  5 1980-06-01     341.
##  6 1980-07-01     339.
##  7 1980-08-01     338.
##  8 1980-09-01     336.
##  9 1980-10-01     336.
## 10 1980-11-01     337.
## # ℹ 474 more rows
…
Question:
Is there a relationship between the waiting time before an eruption
and the duration of the eruption?

# old faithful eruption time / wait time data
faithful <- as_tibble(faithful)
faithful

## # A tibble: 272 × 2
##    eruptions waiting
##        <dbl>   <dbl>
##  1      3.6       79
##  2      1.8       54
##  3      3.33      74
##  4      2.28      62
##  5      4.53      85
##  6      2.88      55
##  7      4.7       88
##  8      3.6       85
##  9      1.95      51
## 10      4.35      85
## # ℹ 262 more rows
…
Question: Is there a relationship between
the percentage of people who speak a language as their mother tongue and
the percentage for whom that is the primary language spoken at home?
And is there a pattern in the strength of this relationship in the
higher-level language categories (Official languages, Aboriginal languages, or
non-official and non-Aboriginal languages)?

To get started, we will read and inspect the data:

can_lang <- read_csv("data/can_lang.csv")
can_lang

## # A tibble: 214 × 6
##    category          language mother_tongue most_at_home most_at_work lang_known
##    <chr>             <chr>            <dbl>        <dbl>        <dbl>      <dbl>
##  1 Aboriginal langu… Aborigi…           590          235           30        665
##  2 Non-Official & N… Afrikaa…         10260         4785           85      23415
##  3 Non-Official & N… Afro-As…          1150          445           10       2775
##  4 Non-Official & N… Akan (T…         13460         5985           25      22150
##  5 Non-Official & N… Albanian         26895        13135          345      31930
##  6 Aboriginal langu… Algonqu…            45           10            0        120
##  7 Aboriginal langu… Algonqu…          1260          370           40       2480
##  8 Non-Official & N… America…          2685         3020         1145      21930
##  9 Non-Official & N… Amharic          22465        12785          200      33670
## 10 Non-Official & N… Arabic          419890       223535         5585     629055
## # ℹ 204 more rows
…
can_lang <- can_lang |>
  mutate(
    mother_tongue_percent = (mother_tongue / 35151728) * 100,
    most_at_home_percent = (most_at_home / 35151728) * 100
  )

can_lang |>
  select(mother_tongue_percent, most_at_home_percent)

## # A tibble: 214 × 2
##    mother_tongue_percent most_at_home_percent
##                    <dbl>                <dbl>
##  1              0.00168             0.000669 
##  2              0.0292              0.0136   
##  3              0.00327             0.00127  
##  4              0.0383              0.0170   
##  5              0.0765              0.0374   
##  6              0.000128            0.0000284
##  7              0.00358             0.00105  
##  8              0.00764             0.00859  
##  9              0.0639              0.0364   
## 10              1.19                0.636    
## # ℹ 204 more rows
…
4.5.4 Bar plots: the island landmass data set

The islands.csv data set contains a list of Earth’s landmasses as well as their area (in thousands of square miles) (McNeil 1977).

Question: Are the continents (North / South America, Africa, Europe, Asia, Australia, Antarctica) Earth’s seven largest landmasses? If so, what are the next few largest landmasses after those?

To get started, we will read and inspect the data:

# islands data
islands_df <- read_csv("data/islands.csv")
islands_df

## # A tibble: 48 × 3
##    landmass      size landmass_type
##    <chr>        <dbl> <chr>        
##  1 Africa       11506 Continent    
##  2 Antarctica    5500 Continent    
##  3 Asia         16988 Continent    
##  4 Australia     2968 Continent    
##  5 Axel Heiberg    16 Other        
##  6 Baffin         184 Other        
##  7 Banks           23 Other        
##  8 Borneo         280 Other        
##  9 Britain         84 Other        
## 10 Celebes         73 Other        
## # ℹ 38 more rows
…
Question: Given what we know now about the speed of
light (299,792.458 kilometres per second), how accurate were each of the experiments?

# michelson morley experimental data
morley <- as_tibble(morley)
morley

## # A tibble: 100 × 3
##     Expt   Run Speed
##    <int> <int> <int>
##  1     1     1   850
##  2     1     2   740
##  3     1     3   900
##  4     1     4  1070
##  5     1     5   930
##  6     1     6   850
##  7     1     7   950
##  8     1     8   980
##  9     1     9   980
## 10     1    10   880
## # ℹ 90 more rows
…
