Chapter 2 Reading in data locally and from the web
…
## Rows: 214 Columns: 6
## ── Column specification ────────────────────────────────────────────────────────
## Delimiter: ","
## chr (2): category, language
## dbl (4): mother_tongue, most_at_home, most_at_work, lang_known
## 
## ℹ Use `spec()` to retrieve the full column specification for this data.
## ℹ Specify the column types or set `show_col_types = FALSE` to quiet this message.

Finally, to view the first 10 rows of the data frame,
we must call it:

canlang_data

## # A tibble: 214 × 6
##    category          language mother_tongue most_at_home most_at_work lang_known
##    <chr>             <chr>            <dbl>        <dbl>        <dbl>      <dbl>
##  1 Aboriginal langu… Aborigi…           590          235           30        665
##  2 Non-Official & N… Afrikaa…         10260         4785           85      23415
##  3 Non-Official & N… Afro-As…          1150          445           10       2775
##  4 Non-Official & N… Akan (T…         13460         5985           25      22150
##  5 Non-Official & N… Albanian         26895        13135          345      31930
##  6 Aboriginal langu… Algonqu…            45           10            0        120
##  7 Aboriginal langu… Algonqu…          1260          370           40       2480
##  8 Non-Official & N… America…          2685         3020         1145      21930
##  9 Non-Official & N… Amharic          22465        12785          200      33670
## 10 Non-Official & N… Arabic          419890       223535         5585     629055
## # ℹ 204 more rows
…
canlang_data <- read_csv("data/can_lang_meta-data.csv")

## Warning: One or more parsing issues, call `problems()` on your data frame for details,
## e.g.:
##   dat <- vroom(...)
##   problems(dat)

canlang_data

## # A tibble: 217 × 1
##    `Data source: https://ttimbers.github.io/canlang/`                           
##    <chr>                                                                        
##  1 "Data originally published in: Statistics Canada Census of Population 2016." 
##  2 "Reproduced and distributed on an as-is basis with their permission."        
##  3 "category,language,mother_tongue,most_at_home,most_at_work,lang_known"       
##  4 "Aboriginal languages,\"Aboriginal languages, n.o.s.\",590,235,30,665"       
##  5 "Non-Official & Non-Aboriginal languages,Afrikaans,10260,4785,85,23415"      
##  6 "Non-Official & Non-Aboriginal languages,\"Afro-Asiatic languages, n.i.e.\",…
##  7 "Non-Official & Non-Aboriginal languages,Akan (Twi),13460,5985,25,22150"     
##  8 "Non-Official & Non-Aboriginal languages,Albanian,26895,13135,345,31930"     
##  9 "Aboriginal languages,\"Algonquian languages, n.i.e.\",45,10,0,120"          
## 10 "Aboriginal languages,Algonquin,1260,370,40,2480"                            
## # ℹ 207 more rows

To successfully read data like this into R, the skip
argument can be useful to tell R
how many lines to skip before
it should start reading in the data. In the example above, we would set this
value to 3.

canlang_data <- read_csv("data/can_lang_meta-data.csv",
                         skip = 3)
canlang_data

## # A tibble: 214 × 6
##    category          language mother_tongue most_at_home most_at_work lang_known
##    <chr>             <chr>            <dbl>        <dbl>        <dbl>      <dbl>
##  1 Aboriginal langu… Aborigi…           590          235           30        665
##  2 Non-Official & N… Afrikaa…         10260         4785           85      23415
##  3 Non-Official & N… Afro-As…          1150          445           10       2775
##  4 Non-Official & N… Akan (T…         13460         5985           25      22150
##  5 Non-Official & N… Albanian         26895        13135          345      31930
##  6 Aboriginal langu… Algonqu…            45           10            0        120
##  7 Aboriginal langu… Algonqu…          1260          370           40       2480
##  8 Non-Official & N… America…          2685         3020         1145      21930
##  9 Non-Official & N… Amharic          22465        12785          200      33670
## 10 Non-Official & N… Arabic          419890       223535         5585     629055
## # ℹ 204 more rows
…
We can use the read_tsv function
to read in .tsv (tab separated values) files.

canlang_data <- read_tsv("data/can_lang.tsv")
canlang_data

## # A tibble: 214 × 6
##    category          language mother_tongue most_at_home most_at_work lang_known
##    <chr>             <chr>            <dbl>        <dbl>        <dbl>      <dbl>
##  1 Aboriginal langu… Aborigi…           590          235           30        665
##  2 Non-Official & N… Afrikaa…         10260         4785           85      23415
##  3 Non-Official & N… Afro-As…          1150          445           10       2775
##  4 Non-Official & N… Akan (T…         13460         5985           25      22150
##  5 Non-Official & N… Albanian         26895        13135          345      31930
##  6 Aboriginal langu… Algonqu…            45           10            0        120
##  7 Aboriginal langu… Algonqu…          1260          370           40       2480
##  8 Non-Official & N… America…          2685         3020         1145      21930
##  9 Non-Official & N… Amharic          22465        12785          200      33670
## 10 Non-Official & N… Arabic          419890       223535         5585     629055
## # ℹ 204 more rows
…
Note: \t is an example of an escaped character,
which always starts with a backslash (\).
Escaped characters are used to represent non-printing characters
(like the tab) or those with special meanings (such as quotation marks).

canlang_data <- read_delim("data/can_lang_no_names.tsv",
                           delim = "\t",
                           col_names = FALSE)
canlang_data

## # A tibble: 214 × 6
##    X1                                      X2             X3     X4    X5     X6
##    <chr>                                   <chr>       <dbl>  <dbl> <dbl>  <dbl>
##  1 Aboriginal languages                    Aborigina…    590    235    30    665
##  2 Non-Official & Non-Aboriginal languages Afrikaans   10260   4785    85  23415
##  3 Non-Official & Non-Aboriginal languages Afro-Asia…   1150    445    10   2775
##  4 Non-Official & Non-Aboriginal languages Akan (Twi)  13460   5985    25  22150
##  5 Non-Official & Non-Aboriginal languages Albanian    26895  13135   345  31930
##  6 Aboriginal languages                    Algonquia…     45     10     0    120
##  7 Aboriginal languages                    Algonquin    1260    370    40   2480
##  8 Non-Official & Non-Aboriginal languages American …   2685   3020  1145  21930
##  9 Non-Official & Non-Aboriginal languages Amharic     22465  12785   200  33670
## 10 Non-Official & Non-Aboriginal languages Arabic     419890 223535  5585 629055
## # ℹ 204 more rows
…
canlang_data <- rename(canlang_data,
       category = X1,
       language = X2,
       mother_tongue = X3,
       most_at_home = X4,
       most_at_work = X5,
       lang_known = X6)
canlang_data

## # A tibble: 214 × 6
##    category          language mother_tongue most_at_home most_at_work lang_known
##    <chr>             <chr>            <dbl>        <dbl>        <dbl>      <dbl>
##  1 Aboriginal langu… Aborigi…           590          235           30        665
##  2 Non-Official & N… Afrikaa…         10260         4785           85      23415
##  3 Non-Official & N… Afro-As…          1150          445           10       2775
##  4 Non-Official & N… Akan (T…         13460         5985           25      22150
##  5 Non-Official & N… Albanian         26895        13135          345      31930
##  6 Aboriginal langu… Algonqu…            45           10            0        120
##  7 Aboriginal langu… Algonqu…          1260          370           40       2480
##  8 Non-Official & N… America…          2685         3020         1145      21930
##  9 Non-Official & N… Amharic          22465        12785          200      33670
## 10 Non-Official & N… Arabic          419890       223535         5585     629055
## # ℹ 204 more rows
…
We can also use read_csv, read_tsv, or read_delim (and related functions)
to read in data directly from a Uniform Resource Locator (URL) that
contains tabular data. Here, we provide the URL of a remote file to
read_*, instead of a path to a local file on our
computer. We need to surround the URL with quotes similar to when we specify a
path on our local computer. All other arguments that we use are the same as
when using these functions with a local file on our computer.

url <- "https://raw.githubusercontent.com/UBC-DSCI/data/main/can_lang.csv"
canlang_data <- read_csv(url)

canlang_data

## # A tibble: 214 × 6
##    category          language mother_tongue most_at_home most_at_work lang_known
##    <chr>             <chr>            <dbl>        <dbl>        <dbl>      <dbl>
##  1 Aboriginal langu… Aborigi…           590          235           30        665
##  2 Non-Official & N… Afrikaa…         10260         4785           85      23415
##  3 Non-Official & N… Afro-As…          1150          445           10       2775
##  4 Non-Official & N… Akan (T…         13460         5985           25      22150
##  5 Non-Official & N… Albanian         26895        13135          345      31930
##  6 Aboriginal langu… Algonqu…            45           10            0        120
##  7 Aboriginal langu… Algonqu…          1260          370           40       2480
##  8 Non-Official & N… America…          2685         3020         1145      21930
##  9 Non-Official & N… Amharic          22465        12785          200      33670
## 10 Non-Official & N… Arabic          419890       223535         5585     629055
## # ℹ 204 more rows

2.4.6 Downloading data from a URL

Occasionally the data available at a URL is not formatted nicely enough to use
read_csv, read_tsv, read_delim, or other related functions to read the data
directly into R. In situations where it is necessary to download a file
to our local computer prior to working with it in R, we can use the download.file
function. The first argument is the URL, and the second is a path where we would
like to store the downloaded file.

download.file(url, "data/can_lang.csv")
canlang_data <- read_csv("data/can_lang.csv")
canlang_data

## # A tibble: 214 × 6
##    category          language mother_tongue most_at_home most_at_work lang_known
##    <chr>             <chr>            <dbl>        <dbl>        <dbl>      <dbl>
##  1 Aboriginal langu… Aborigi…           590          235           30        665
##  2 Non-Official & N… Afrikaa…         10260         4785           85      23415
##  3 Non-Official & N… Afro-As…          1150          445           10       2775
##  4 Non-Official & N… Akan (T…         13460         5985           25      22150
##  5 Non-Official & N… Albanian         26895        13135          345      31930
##  6 Aboriginal langu… Algonqu…            45           10            0        120
##  7 Aboriginal langu… Algonqu…          1260          370           40       2480
##  8 Non-Official & N… America…          2685         3020         1145      21930
##  9 Non-Official & N… Amharic          22465        12785          200      33670
## 10 Non-Official & N… Arabic          419890       223535         5585     629055
## # ℹ 204 more rows
…
This type of file representation allows Excel files to store additional things
that you cannot store in a .csv file, such as fonts, text formatting,
graphics, multiple sheets and more. And despite looking odd in a plain text
editor, we can read Excel spreadsheets into R using the readxl package
developed specifically for this
purpose. 

library(readxl)

canlang_data <- read_excel("data/can_lang.xlsx")
canlang_data

## # A tibble: 214 × 6
##    category          language mother_tongue most_at_home most_at_work lang_known
##    <chr>             <chr>            <dbl>        <dbl>        <dbl>      <dbl>
##  1 Aboriginal langu… Aborigi…           590          235           30        665
##  2 Non-Official & N… Afrikaa…         10260         4785           85      23415
##  3 Non-Official & N… Afro-As…          1150          445           10       2775
##  4 Non-Official & N… Akan (T…         13460         5985           25      22150
##  5 Non-Official & N… Albanian         26895        13135          345      31930
##  6 Aboriginal langu… Algonqu…            45           10            0        120
##  7 Aboriginal langu… Algonqu…          1260          370           40       2480
##  8 Non-Official & N… America…          2685         3020         1145      21930
##  9 Non-Official & N… Amharic          22465        12785          200      33670
## 10 Non-Official & N… Arabic          419890       223535         5585     629055
## # ℹ 204 more rows
…
Now you can see that the database will return only the two columns we asked for with the select function.
In order to actually retrieve this data in R as a data frame,
we use the collect function.
Below you will see that after running collect, R knows that the retrieved
data has 67 rows, and there is no database listed any more.

aboriginal_lang_data <- collect(aboriginal_lang_selected_db)
aboriginal_lang_data

## # A tibble: 67 × 2
##    language                     mother_tongue
##    <chr>                                <dbl>
##  1 Aboriginal languages, n.o.s.           590
##  2 Algonquian languages, n.i.e.            45
##  3 Algonquin                             1260
##  4 Athabaskan languages, n.i.e.            50
##  5 Atikamekw                             6150
##  6 Babine (Wetsuwet'en)                   110
##  7 Beaver                                 190
##  8 Blackfoot                             2815
##  9 Carrier                               1025
## 10 Cayuga                                  45
## # ℹ 57 more rows
…
## [1] 74

For further data processing using the techniques in this book, you’ll need to turn this list of items
into a data frame. Here we will extract the date, title, copyright, and url variables
from the JSON data, and construct a data frame using the extracted information.

Note: Understanding this code is not required for the remainder of the textbook. It is included for those
readers who would like to parse JSON data into a data frame in their own data analyses.

nasa_df_all <- tibble(bind_rows(lapply(nasa_data, as.data.frame.list)))
nasa_df <- select(nasa_df_all, date, title, copyright, url)
nasa_df

## # A tibble: 74 × 4
##    date       title                                        copyright       url  
##    <chr>      <chr>                                        <chr>           <chr>
##  1 2023-05-01 Carina Nebula North                          "\nCarlos Tayl… http…
##  2 2023-05-02 Flat Rock Hills on Mars                      "\nNASA, \nJPL… http…
##  3 2023-05-03 Centaurus A: A Peculiar Island of Stars      "\nMarco Loren… http…
##  4 2023-05-04 The Galaxy, the Jet, and a Famous Black Hole  <NA>           http…
##  5 2023-05-05 Shackleton from ShadowCam                     <NA>           http…
##  6 2023-05-06 Twilight in a Flower                         "Dario Giannob… http…
##  7 2023-05-07 The Helix Nebula from CFHT                    <NA>           http…
##  8 2023-05-08 The Spanish Dancer Spiral Galaxy              <NA>           http…
##  9 2023-05-09 Shadows of Earth                             "\nMarcella Gi… http…
## 10 2023-05-10 Milky Way over Egyptian Desert               "\nAmr Abdulwa… http…
## # ℹ 64 more rows
…
