Chapter 1 R and the Tidyverse
…
Figure 1.3: Syntax for the read_csv function.

read_csv("data/can_lang.csv")

## # A tibble: 214 × 6
##    category          language mother_tongue most_at_home most_at_work lang_known
##    <chr>             <chr>            <dbl>        <dbl>        <dbl>      <dbl>
##  1 Aboriginal langu… Aborigi…           590          235           30        665
##  2 Non-Official & N… Afrikaa…         10260         4785           85      23415
##  3 Non-Official & N… Afro-As…          1150          445           10       2775
##  4 Non-Official & N… Akan (T…         13460         5985           25      22150
##  5 Non-Official & N… Albanian         26895        13135          345      31930
##  6 Aboriginal langu… Algonqu…            45           10            0        120
##  7 Aboriginal langu… Algonqu…          1260          370           40       2480
##  8 Non-Official & N… America…          2685         3020         1145      21930
##  9 Non-Official & N… Amharic          22465        12785          200      33670
## 10 Non-Official & N… Arabic          419890       223535         5585     629055
## # ℹ 204 more rows
…
can_lang <- read_csv("data/can_lang.csv")

Wait a minute, nothing happened this time! Where’s our data?
Actually, something did happen: the data was loaded in
and now has the name can_lang associated with it.
And we can use that name to access the data frame and do things with it.
For example, we can type the name of the data frame to print the first few rows
on the screen. You will also see at the top that the number of observations (i.e., rows) and
variables (i.e., columns) are printed. Printing the first few rows of a data frame
like this is a handy way to get a quick sense for what is contained in a data frame.

can_lang

## # A tibble: 214 × 6
##    category          language mother_tongue most_at_home most_at_work lang_known
##    <chr>             <chr>            <dbl>        <dbl>        <dbl>      <dbl>
##  1 Aboriginal langu… Aborigi…           590          235           30        665
##  2 Non-Official & N… Afrikaa…         10260         4785           85      23415
##  3 Non-Official & N… Afro-As…          1150          445           10       2775
##  4 Non-Official & N… Akan (T…         13460         5985           25      22150
##  5 Non-Official & N… Albanian         26895        13135          345      31930
##  6 Aboriginal langu… Algonqu…            45           10            0        120
##  7 Aboriginal langu… Algonqu…          1260          370           40       2480
##  8 Non-Official & N… America…          2685         3020         1145      21930
##  9 Non-Official & N… Amharic          22465        12785          200      33670
## 10 Non-Official & N… Arabic          419890       223535         5585     629055
## # ℹ 204 more rows
…
Figure 1.4: Syntax for the filter function.

With these arguments, filter returns a data frame that has all the columns of
the input data frame, but only those rows we asked for in our logical filter
statement.

aboriginal_lang <- filter(can_lang, category == "Aboriginal languages")
aboriginal_lang

## # A tibble: 67 × 6
##    category          language mother_tongue most_at_home most_at_work lang_known
##    <chr>             <chr>            <dbl>        <dbl>        <dbl>      <dbl>
##  1 Aboriginal langu… Aborigi…           590          235           30        665
##  2 Aboriginal langu… Algonqu…            45           10            0        120
##  3 Aboriginal langu… Algonqu…          1260          370           40       2480
##  4 Aboriginal langu… Athabas…            50           10            0         85
##  5 Aboriginal langu… Atikame…          6150         5465         1100       6645
##  6 Aboriginal langu… Babine …           110           20           10        210
##  7 Aboriginal langu… Beaver             190           50            0        340
##  8 Aboriginal langu… Blackfo…          2815         1110           85       5645
##  9 Aboriginal langu… Carrier           1025          250           15       2100
## 10 Aboriginal langu… Cayuga              45           10           10        125
## # ℹ 57 more rows
…
Figure 1.5: Syntax for the select function.

selected_lang <- select(aboriginal_lang, language, mother_tongue)
selected_lang

## # A tibble: 67 × 2
##    language                     mother_tongue
##    <chr>                                <dbl>
##  1 Aboriginal languages, n.o.s.           590
##  2 Algonquian languages, n.i.e.            45
##  3 Algonquin                             1260
##  4 Athabaskan languages, n.i.e.            50
##  5 Atikamekw                             6150
##  6 Babine (Wetsuwet'en)                   110
##  7 Beaver                                 190
##  8 Blackfoot                             2815
##  9 Carrier                               1025
## 10 Cayuga                                  45
## # ℹ 57 more rows
…
Figure 1.6: Syntax for the arrange function.

arranged_lang <- arrange(selected_lang, by = desc(mother_tongue))
arranged_lang

## # A tibble: 67 × 2
##    language          mother_tongue
##    <chr>                     <dbl>
##  1 Cree, n.o.s.              64050
##  2 Inuktitut                 35210
##  3 Ojibway                   17885
##  4 Oji-Cree                  12855
##  5 Dene                      10700
##  6 Montagnais (Innu)         10235
##  7 Mi'kmaq                    6690
##  8 Atikamekw                  6150
##  9 Plains Cree                3065
## 10 Stoney                     3025
## # ℹ 57 more rows
…
