Chapter 10 Statistical inference
…
library(tidyverse)

set.seed(123)

airbnb <- read_csv("data/listings.csv")
airbnb

## # A tibble: 4,594 × 8
##       id neighbourhood     room_type accommodates bathrooms bedrooms  beds price
##    <dbl> <chr>             <chr>            <dbl> <chr>        <dbl> <dbl> <dbl>
##  1     1 Downtown          Entire h…            5 2 baths          2     2   150
##  2     2 Downtown Eastside Entire h…            4 2 baths          2     2   132
##  3     3 West End          Entire h…            2 1 bath           1     1    85
##  4     4 Kensington-Cedar… Entire h…            2 1 bath           1     0   146
##  5     5 Kensington-Cedar… Entire h…            4 1 bath           1     2   110
##  6     6 Hastings-Sunrise  Entire h…            4 1 bath           2     3   195
##  7     7 Renfrew-Collingw… Entire h…            8 3 baths          4     5   130
##  8     8 Mount Pleasant    Entire h…            2 1 bath           1     1    94
##  9     9 Grandview-Woodla… Private …            2 1 privat…        1     1    79
## 10    10 West End          Private …            2 1 privat…        1     1    75
## # ℹ 4,584 more rows
…
We again use the rep_sample_n to take samples of size 40 from our
population of Airbnb listings. But this time we set the reps argument to 20,000 to specify
that we want to take 20,000 samples of size 40.

samples <- rep_sample_n(airbnb, size = 40, reps = 20000)
samples

## # A tibble: 800,000 × 9
## # Groups:   replicate [20,000]
##    replicate    id neighbourhood room_type accommodates bathrooms bedrooms  beds
##        <int> <dbl> <chr>         <chr>            <dbl> <chr>        <dbl> <dbl>
##  1         1  4403 Downtown      Entire h…            2 1 bath           1     1
##  2         1   902 Kensington-C… Private …            2 1 shared…        1     1
##  3         1  3808 Hastings-Sun… Entire h…            6 1.5 baths        1     3
##  4         1   561 Kensington-C… Entire h…            6 1 bath           2     2
##  5         1  3385 Mount Pleasa… Entire h…            4 1 bath           1     1
##  6         1  4232 Shaughnessy   Entire h…            6 1.5 baths        2     2
##  7         1  1169 Downtown      Entire h…            3 1 bath           1     1
##  8         1   959 Kitsilano     Private …            1 1.5 shar…        1     1
##  9         1  2171 Downtown      Entire h…            2 1 bath           1     1
## 10         1  1258 Dunbar South… Entire h…            4 1 bath           2     2
## # ℹ 799,990 more rows
## # ℹ 1 more variable: price <dbl>
…
Now that we have obtained the samples, we need to compute the
proportion of entire home/apartment listings in each sample.
We first group the data by the replicate variable—to group the
set of listings in each sample together—and then use summarize
to compute the proportion in each sample.
We print both the first and last few entries of the resulting data frame
below to show that we end up with 20,000 point estimates, one for each of the 20,000 samples.

sample_estimates <- samples |>
  group_by(replicate) |>
  summarize(sample_proportion = sum(room_type == "Entire home/apt") / 40)

sample_estimates

## # A tibble: 20,000 × 2
##    replicate sample_proportion
##        <int>             <dbl>
##  1         1             0.85 
##  2         2             0.85 
##  3         3             0.65 
##  4         4             0.7  
##  5         5             0.75 
##  6         6             0.725
##  7         7             0.775
##  8         8             0.775
##  9         9             0.7  
## 10        10             0.675
## # ℹ 19,990 more rows
…
Also, recall from the previous section that the point estimate can vary; if we
took another random sample from the population, our estimate’s value might
change. So then, did we just get lucky with our point estimate above? How much
does our estimate vary across different samples of size 40 in this example?
Again, since we have access to the population, we can take many samples and
plot the sampling distribution of sample means for samples of size 40 to
get a sense for this variation. In this case, we’ll use 20,000 samples of size
40.

samples <- rep_sample_n(airbnb, size = 40, reps = 20000)
samples

## # A tibble: 800,000 × 9
## # Groups:   replicate [20,000]
##    replicate    id neighbourhood room_type accommodates bathrooms bedrooms  beds
##        <int> <dbl> <chr>         <chr>            <dbl> <chr>        <dbl> <dbl>
##  1         1  1177 Downtown      Entire h…            4 2 baths          2     2
##  2         1  4063 Downtown      Entire h…            2 1 bath           1     1
##  3         1  2641 Kitsilano     Private …            1 1 shared…        1     1
##  4         1  1941 West End      Entire h…            2 1 bath           1     1
##  5         1  2431 Mount Pleasa… Entire h…            2 1 bath           1     1
##  6         1  1871 Arbutus Ridge Entire h…            4 1 bath           2     2
##  7         1  2557 Marpole       Private …            3 1 privat…        1     2
##  8         1  3534 Downtown      Entire h…            2 1 bath           1     1
##  9         1  4379 Downtown      Entire h…            4 1 bath           1     0
## 10         1  2161 Downtown      Entire h…            4 2 baths          2     2
## # ℹ 799,990 more rows
## # ℹ 1 more variable: price <dbl>

Now we can calculate the sample mean for each replicate and plot the sampling
distribution of sample means for samples of size 40.

sample_estimates <- samples |>
  group_by(replicate) |>
  summarize(mean_price = mean(price))

sample_estimates

## # A tibble: 20,000 × 2
##    replicate mean_price
##        <int>      <dbl>
##  1         1     160.06
##  2         2     173.18
##  3         3     131.20
##  4         4     176.96
##  5         5     125.65
##  6         6     148.84
##  7         7     134.82
##  8         8     137.26
##  9         9     166.11
## 10        10     157.81
## # ℹ 19,990 more rows
…
Figure 10.9: Overview of the bootstrap process.

10.5.2 Bootstrapping in R

Let’s continue working with our Airbnb example to illustrate how we might create
and use a bootstrap distribution using just a single sample from the population.
Once again, suppose we are
interested in estimating the population mean price per night of all Airbnb
listings in Vancouver, Canada, using a single sample size of 40.
Recall our point estimate was $155.80. The
histogram of prices in the sample is displayed in Figure 10.10.

one_sample

## # A tibble: 40 × 8
##       id neighbourhood     room_type accommodates bathrooms bedrooms  beds price
##    <dbl> <chr>             <chr>            <dbl> <chr>        <dbl> <dbl> <dbl>
##  1  3928 Marpole           Private …            2 1 shared…        1     1    58
##  2  3013 Kensington-Cedar… Entire h…            4 1 bath           2     2   112
##  3  3156 Downtown          Entire h…            6 2 baths          2     2   151
##  4  3873 Dunbar Southlands Private …            5 1 bath           2     3   700
##  5  3632 Downtown Eastside Entire h…            6 2 baths          3     3   157
##  6   296 Kitsilano         Private …            1 1 shared…        1     1   100
##  7  3514 West End          Entire h…            2 1 bath           1     1   110
##  8   594 Sunset            Entire h…            5 1 bath           3     3   105
##  9  3305 Dunbar Southlands Entire h…            4 1 bath           1     2   196
## 10   938 Downtown          Entire h…            7 2 baths          2     3   269
## # ℹ 30 more rows
…
Let’s now take 20,000 bootstrap samples from the original sample (one_sample)
using rep_sample_n, and calculate the means for
each of those replicates. Recall that this assumes that one_sample looks like
our original population; but since we do not have access to the population itself,
this is often the best we can do.

boot20000 <- one_sample |>
  rep_sample_n(size = 40, replace = TRUE, reps = 20000)

boot20000

## # A tibble: 800,000 × 9
## # Groups:   replicate [20,000]
##    replicate    id neighbourhood room_type accommodates bathrooms bedrooms  beds
##        <int> <dbl> <chr>         <chr>            <dbl> <chr>        <dbl> <dbl>
##  1         1  1276 Hastings-Sun… Entire h…            2 1 bath           1     1
##  2         1  3235 Hastings-Sun… Entire h…            2 1 bath           1     1
##  3         1  1301 Oakridge      Entire h…           12 2 baths          2    12
##  4         1   118 Grandview-Wo… Entire h…            4 1 bath           2     2
##  5         1  2550 Downtown Eas… Private …            2 1.5 shar…        1     1
##  6         1  1006 Grandview-Wo… Entire h…            5 1 bath           3     4
##  7         1  3632 Downtown Eas… Entire h…            6 2 baths          3     3
##  8         1  1923 West End      Entire h…            4 2 baths          2     2
##  9         1  3873 Dunbar South… Private …            5 1 bath           2     3
## 10         1  2349 Kerrisdale    Private …            2 1 shared…        1     1
## # ℹ 799,990 more rows
## # ℹ 1 more variable: price <dbl>
…
We can see that the bootstrap sample distributions and the sample means are
different. They are different because we are sampling with replacement. We
will now calculate point estimates for our 20,000 bootstrap samples and
generate a bootstrap distribution of our point estimates. The bootstrap
distribution (Figure 10.13) suggests how we might expect
our point estimate to behave if we took another sample.

boot20000_means <- boot20000 |>
  group_by(replicate) |>
  summarize(mean_price = mean(price))

boot20000_means

## # A tibble: 20,000 × 2
##    replicate mean_price
##        <int>      <dbl>
##  1         1     177.2 
##  2         2     131.45
##  3         3     179.10
##  4         4     171.35
##  5         5     191.32
##  6         6     170.05
##  7         7     178.83
##  8         8     154.78
##  9         9     163.85
## 10        10     209.28
## # ℹ 19,990 more rows
…
