6 Work with models
…
We can start by learning a little more about how the output of models
is stored in R. Remember, we are always working with objects, and
objects have an internal structure consisting of named pieces.
Sometimes these are single numbers, sometimes vectors, and sometimes
lists of things like vectors, matrices, or formulas.

We have been working extensively with tibbles and data frames. These
store tables of data with named columns, perhaps consisting of
different classes of variable, such as integers, characters, dates, or
factors. Model objects are a little more complicated again.

gapminder

## # A tibble: 1,704 x 6
##    country     continent  year lifeExp      pop gdpPercap
##    <fct>       <fct>     <int>   <dbl>    <int>     <dbl>
##  1 Afghanistan Asia       1952    28.8  8425333       779
##  2 Afghanistan Asia       1957    30.3  9240934       821
##  3 Afghanistan Asia       1962    32.0 10267083       853
##  4 Afghanistan Asia       1967    34.0 11537966       836
##  5 Afghanistan Asia       1972    36.1 13079460       740
##  6 Afghanistan Asia       1977    38.4 14880372       786
##  7 Afghanistan Asia       1982    39.9 12881816       978
##  8 Afghanistan Asia       1987    40.8 13867957       852
##  9 Afghanistan Asia       1992    41.7 16317921       649
## 10 Afghanistan Asia       1997    41.8 22227415       635
## # ... with 1,694 more rows
…
With dplyr and broom we can do this for every continent-year slice
of the data in a compact and tidy way. We start with our table of
data, and then (%>%) group the countries by continent and year
using the group_by() function. We introduced this grouping operation
in Chapter 4. Our data is reorganized first by
continent, and within continent by year. Here we will take one further
step and nest the data that make up each group:

out_le <- gapminder %>%
    group_by(continent, year) %>%
    nest()

out_le

## # A tibble: 60 x 3
##    continent  year data             
##    <fct>     <int> <list>           
##  1 Asia       1952 <tibble [33 × 4]>
##  2 Asia       1957 <tibble [33 × 4]>
##  3 Asia       1962 <tibble [33 × 4]>
##  4 Asia       1967 <tibble [33 × 4]>
##  5 Asia       1972 <tibble [33 × 4]>
##  6 Asia       1977 <tibble [33 × 4]>
##  7 Asia       1982 <tibble [33 × 4]>
##  8 Asia       1987 <tibble [33 × 4]>
##  9 Asia       1992 <tibble [33 × 4]>
## 10 Asia       1997 <tibble [33 × 4]>
## # ... with 50 more rows
…
out_le %>% filter(continent == "Europe" & year == 1977) %>% unnest()

## # A tibble: 30 x 6
##    continent  year country         lifeExp    pop gdpPercap
##    <fct>     <int> <fct>             <dbl>  <int>     <dbl>
##  1 Europe     1977 Albania            68.9 2.51e⁶      3533
##  2 Europe     1977 Austria            72.2 7.57e⁶     19749
##  3 Europe     1977 Belgium            72.8 9.82e⁶     19118
##  4 Europe     1977 Bosnia and Her…    69.9 4.09e⁶      3528
##  5 Europe     1977 Bulgaria           70.8 8.80e⁶      7612
##  6 Europe     1977 Croatia            70.6 4.32e⁶     11305
##  7 Europe     1977 Czech Republic     70.7 1.02e⁷     14800
##  8 Europe     1977 Denmark            74.7 5.09e⁶     20423
##  9 Europe     1977 Finland            72.5 4.74e⁶     15605
## 10 Europe     1977 France             73.8 5.32e⁷     18293
## # ... with 20 more rows
…
fit_ols <- function(df) {
    lm(lifeExp ~ log(gdpPercap), data = df)
}

out_le <- gapminder %>%
    group_by(continent, year) %>%
    nest() %>% 
    mutate(model = map(data, fit_ols)) 

out_le

## # A tibble: 60 x 4
##    continent  year data              model   
##    <fct>     <int> <list>            <list>  
##  1 Asia       1952 <tibble [33 × 4]> <S3: lm>
##  2 Asia       1957 <tibble [33 × 4]> <S3: lm>
##  3 Asia       1962 <tibble [33 × 4]> <S3: lm>
##  4 Asia       1967 <tibble [33 × 4]> <S3: lm>
##  5 Asia       1972 <tibble [33 × 4]> <S3: lm>
##  6 Asia       1977 <tibble [33 × 4]> <S3: lm>
##  7 Asia       1982 <tibble [33 × 4]> <S3: lm>
##  8 Asia       1987 <tibble [33 × 4]> <S3: lm>
##  9 Asia       1992 <tibble [33 × 4]> <S3: lm>
## 10 Asia       1997 <tibble [33 × 4]> <S3: lm>
## # ... with 50 more rows
…
out_grp <- gss_wt %>%
    filter(year %in% seq(1976, 2016, by = 4)) %>%
    group_by(year, race, degree) %>%
    summarize(prop = survey_mean(na.rm = TRUE))

out_grp

## # A tibble: 150 x 5
##     year race  degree           prop prop_se
##    <dbl> <fct> <fct>           <dbl>   <dbl>
##  1  1976 White Lt High School 0.328  0.0160 
##  2  1976 White High School    0.518  0.0162 
##  3  1976 White Junior College 0.0129 0.00298
##  4  1976 White Bachelor       0.101  0.00960
##  5  1976 White Graduate       0.0393 0.00644
##  6  1976 Black Lt High School 0.562  0.0611 
##  7  1976 Black High School    0.337  0.0476 
##  8  1976 Black Junior College 0.0426 0.0193 
##  9  1976 Black Bachelor       0.0581 0.0239 
## 10  1976 Black Graduate       0      0      
## # ... with 140 more rows

The results returned in out_grp include standard errors. We can also ask survey_mean() to calculate confidence intervals for us, if we wish.

Grouping with group_by() lets us calculate counts or means for the innermost variable, grouped by the next variable “up” or “out”, in this case, degree by race, such that the proportions for degree will sum to one for each group in race, and this will be done separately for each value of year. If we want the marginal frequencies, such that the values for all combinations of race and degree sum to one within each year, we first have to interact the variables we are cross-classifying. Then we group by the new interacted variable and do the calculation as before:

out_mrg <- gss_wt %>%
    filter(year %in% seq(1976, 2016, by = 4)) %>%
    mutate(racedeg = interaction(race, degree)) %>%
    group_by(year, racedeg) %>%
    summarize(prop = survey_mean(na.rm = TRUE))

out_mrg

## # A tibble: 150 x 4
##     year racedeg                 prop prop_se
##    <dbl> <fct>                  <dbl>   <dbl>
##  1  1976 White.Lt High School 0.298   0.0146 
##  2  1976 Black.Lt High School 0.0471  0.00840
##  3  1976 Other.Lt High School 0.00195 0.00138
##  4  1976 White.High School    0.471   0.0160 
##  5  1976 Black.High School    0.0283  0.00594
##  6  1976 Other.High School    0.00325 0.00166
##  7  1976 White.Junior College 0.0117  0.00268
##  8  1976 Black.Junior College 0.00357 0.00162
##  9  1976 Other.Junior College 0       0      
## 10  1976 White.Bachelor       0.0919  0.00888
## # ... with 140 more rows
…
out_mrg <- gss_wt %>%
    filter(year %in% seq(1976, 2016, by = 4)) %>%
    mutate(racedeg = interaction(race, degree)) %>%
    group_by(year, racedeg) %>%
    summarize(prop = survey_mean(na.rm = TRUE)) %>%
    separate(racedeg, sep = "\\.", into = c("race", "degree"))

out_mrg

## # A tibble: 150 x 5
##     year race  degree            prop prop_se
##    <dbl> <chr> <chr>            <dbl>   <dbl>
##  1  1976 White Lt High School 0.298   0.0146 
##  2  1976 Black Lt High School 0.0471  0.00840
##  3  1976 Other Lt High School 0.00195 0.00138
##  4  1976 White High School    0.471   0.0160 
##  5  1976 Black High School    0.0283  0.00594
##  6  1976 Other High School    0.00325 0.00166
##  7  1976 White Junior College 0.0117  0.00268
##  8  1976 Black Junior College 0.00357 0.00162
##  9  1976 Other Junior College 0       0      
## 10  1976 White Bachelor       0.0919  0.00888
## # ... with 140 more rows
…
We can start by learning a little more about how the output of models
is stored in R. Remember, we are always working with objects, and
objects have an internal structure consisting of named pieces.
Sometimes these are single numbers, sometimes vectors, and sometimes
lists of things like vectors, matrices, or formulas.

We have been working extensively with tibbles and data frames. These
store tables of data with named columns, perhaps consisting of
different classes of variable, such as integers, characters, dates, or
factors. Model objects are a little more complicated again.

gapminder

## # A tibble: 1,704 x 6
##    country     continent  year lifeExp      pop gdpPercap
##    <fct>       <fct>     <int>   <dbl>    <int>     <dbl>
##  1 Afghanistan Asia       1952    28.8  8425333       779
##  2 Afghanistan Asia       1957    30.3  9240934       821
##  3 Afghanistan Asia       1962    32.0 10267083       853
##  4 Afghanistan Asia       1967    34.0 11537966       836
##  5 Afghanistan Asia       1972    36.1 13079460       740
##  6 Afghanistan Asia       1977    38.4 14880372       786
##  7 Afghanistan Asia       1982    39.9 12881816       978
##  8 Afghanistan Asia       1987    40.8 13867957       852
##  9 Afghanistan Asia       1992    41.7 16317921       649
## 10 Afghanistan Asia       1997    41.8 22227415       635
## # ... with 1,694 more rows
…
With dplyr and broom we can do this for every continent-year slice
of the data in a compact and tidy way. We start with our table of
data, and then (%>%) group the countries by continent and year
using the group_by() function. We introduced this grouping operation
in Chapter 4. Our data is reorganized first by
continent, and within continent by year. Here we will take one further
step and nest the data that make up each group:

out_le <- gapminder %>%
    group_by(continent, year) %>%
    nest()

out_le

## # A tibble: 60 x 3
##    continent  year data             
##    <fct>     <int> <list>           
##  1 Asia       1952 <tibble [33 × 4]>
##  2 Asia       1957 <tibble [33 × 4]>
##  3 Asia       1962 <tibble [33 × 4]>
##  4 Asia       1967 <tibble [33 × 4]>
##  5 Asia       1972 <tibble [33 × 4]>
##  6 Asia       1977 <tibble [33 × 4]>
##  7 Asia       1982 <tibble [33 × 4]>
##  8 Asia       1987 <tibble [33 × 4]>
##  9 Asia       1992 <tibble [33 × 4]>
## 10 Asia       1997 <tibble [33 × 4]>
## # ... with 50 more rows
…
out_le %>% filter(continent == "Europe" & year == 1977) %>% unnest()

## # A tibble: 30 x 6
##    continent  year country         lifeExp    pop gdpPercap
##    <fct>     <int> <fct>             <dbl>  <int>     <dbl>
##  1 Europe     1977 Albania            68.9 2.51e⁶      3533
##  2 Europe     1977 Austria            72.2 7.57e⁶     19749
##  3 Europe     1977 Belgium            72.8 9.82e⁶     19118
##  4 Europe     1977 Bosnia and Her…    69.9 4.09e⁶      3528
##  5 Europe     1977 Bulgaria           70.8 8.80e⁶      7612
##  6 Europe     1977 Croatia            70.6 4.32e⁶     11305
##  7 Europe     1977 Czech Republic     70.7 1.02e⁷     14800
##  8 Europe     1977 Denmark            74.7 5.09e⁶     20423
##  9 Europe     1977 Finland            72.5 4.74e⁶     15605
## 10 Europe     1977 France             73.8 5.32e⁷     18293
## # ... with 20 more rows
…
fit_ols <- function(df) {
    lm(lifeExp ~ log(gdpPercap), data = df)
}

out_le <- gapminder %>%
    group_by(continent, year) %>%
    nest() %>% 
    mutate(model = map(data, fit_ols)) 

out_le

## # A tibble: 60 x 4
##    continent  year data              model   
##    <fct>     <int> <list>            <list>  
##  1 Asia       1952 <tibble [33 × 4]> <S3: lm>
##  2 Asia       1957 <tibble [33 × 4]> <S3: lm>
##  3 Asia       1962 <tibble [33 × 4]> <S3: lm>
##  4 Asia       1967 <tibble [33 × 4]> <S3: lm>
##  5 Asia       1972 <tibble [33 × 4]> <S3: lm>
##  6 Asia       1977 <tibble [33 × 4]> <S3: lm>
##  7 Asia       1982 <tibble [33 × 4]> <S3: lm>
##  8 Asia       1987 <tibble [33 × 4]> <S3: lm>
##  9 Asia       1992 <tibble [33 × 4]> <S3: lm>
## 10 Asia       1997 <tibble [33 × 4]> <S3: lm>
## # ... with 50 more rows
…
out_grp <- gss_wt %>%
    filter(year %in% seq(1976, 2016, by = 4)) %>%
    group_by(year, race, degree) %>%
    summarize(prop = survey_mean(na.rm = TRUE))

out_grp

## # A tibble: 150 x 5
##     year race  degree           prop prop_se
##    <dbl> <fct> <fct>           <dbl>   <dbl>
##  1  1976 White Lt High School 0.328  0.0160 
##  2  1976 White High School    0.518  0.0162 
##  3  1976 White Junior College 0.0129 0.00298
##  4  1976 White Bachelor       0.101  0.00960
##  5  1976 White Graduate       0.0393 0.00644
##  6  1976 Black Lt High School 0.562  0.0611 
##  7  1976 Black High School    0.337  0.0476 
##  8  1976 Black Junior College 0.0426 0.0193 
##  9  1976 Black Bachelor       0.0581 0.0239 
## 10  1976 Black Graduate       0      0      
## # ... with 140 more rows

The results returned in out_grp include standard errors. We can also ask survey_mean() to calculate confidence intervals for us, if we wish.

Grouping with group_by() lets us calculate counts or means for the innermost variable, grouped by the next variable “up” or “out”, in this case, degree by race, such that the proportions for degree will sum to one for each group in race, and this will be done separately for each value of year. If we want the marginal frequencies, such that the values for all combinations of race and degree sum to one within each year, we first have to interact the variables we are cross-classifying. Then we group by the new interacted variable and do the calculation as before:

out_mrg <- gss_wt %>%
    filter(year %in% seq(1976, 2016, by = 4)) %>%
    mutate(racedeg = interaction(race, degree)) %>%
    group_by(year, racedeg) %>%
    summarize(prop = survey_mean(na.rm = TRUE))

out_mrg

## # A tibble: 150 x 4
##     year racedeg                 prop prop_se
##    <dbl> <fct>                  <dbl>   <dbl>
##  1  1976 White.Lt High School 0.298   0.0146 
##  2  1976 Black.Lt High School 0.0471  0.00840
##  3  1976 Other.Lt High School 0.00195 0.00138
##  4  1976 White.High School    0.471   0.0160 
##  5  1976 Black.High School    0.0283  0.00594
##  6  1976 Other.High School    0.00325 0.00166
##  7  1976 White.Junior College 0.0117  0.00268
##  8  1976 Black.Junior College 0.00357 0.00162
##  9  1976 Other.Junior College 0       0      
## 10  1976 White.Bachelor       0.0919  0.00888
## # ... with 140 more rows
…
out_mrg <- gss_wt %>%
    filter(year %in% seq(1976, 2016, by = 4)) %>%
    mutate(racedeg = interaction(race, degree)) %>%
    group_by(year, racedeg) %>%
    summarize(prop = survey_mean(na.rm = TRUE)) %>%
    separate(racedeg, sep = "\\.", into = c("race", "degree"))

out_mrg

## # A tibble: 150 x 5
##     year race  degree            prop prop_se
##    <dbl> <chr> <chr>            <dbl>   <dbl>
##  1  1976 White Lt High School 0.298   0.0146 
##  2  1976 Black Lt High School 0.0471  0.00840
##  3  1976 Other Lt High School 0.00195 0.00138
##  4  1976 White High School    0.471   0.0160 
##  5  1976 Black High School    0.0283  0.00594
##  6  1976 Other High School    0.00325 0.00166
##  7  1976 White Junior College 0.0117  0.00268
##  8  1976 Black Junior College 0.00357 0.00162
##  9  1976 Other Junior College 0       0      
## 10  1976 White Bachelor       0.0919  0.00888
## # ... with 140 more rows
…
