5 Graph tables, add labels, make notes
…
Finally, when we use mutate() to create the freq variable, not
only can we make up that name within the function, mutate() is also
clever enough to let us use that name right away, on the next line
of the same function call, when we create the pct variable. This
means we do not have to repeatedly write separate mutate() calls for
every new variable we want to create.

Our pipeline takes the gss_sm data frame, which has 2867 rows and 32 columns, and transforms it into rel_by_region, a summary table with 24 rows and 5 columns that looks like this, in part:

rel_by_region

## # A tibble: 24 x 5
## # Groups:   bigregion [4]
##    bigregion religion       N    freq   pct
##    <fct>     <fct>      <int>   <dbl> <dbl>
##  1 Northeast Protestant   158 0.324   32.0 
##  2 Northeast Catholic     162 0.332   33.0 
##  3 Northeast Jewish        27 0.0553   6.00
##  4 Northeast None         112 0.230   23.0 
##  5 Northeast Other         28 0.0574   6.00
##  6 Northeast <NA>           1 0.00205  0   
##  7 Midwest   Protestant   325 0.468   47.0 
##  8 Midwest   Catholic     172 0.247   25.0 
##  9 Midwest   Jewish         3 0.00432  0   
## 10 Midwest   None         157 0.226   23.0 
## # ... with 14 more rows
…
Figure 5.17: Plot points and text labels, with a horizontal position adjustment.

Instead of wrestling any further with geom_text(), we will use ggrepel instead. This very useful library adds some new geoms to ggplot. Just as ggplot extends the plotting capabilities of R, there are many small libraries that extend the capabilities of ggplot, often by providing some new type of geom. The ggrepel library provides geom_text_repel() and geom_label_repel(), two geoms that can pick out labels much more flexibly than the default geom_text(). First, make sure the library is installed, then load it in the usual way:

library(ggrepel)

We will use geom_text_repel() instead of geom_text(). To demonstrate some of what geom_text_repel() can do, we will switch datasets and work with some historical U.S. presidential election data provided in the socviz library.

elections_historic %>% select(2:7) 

## # A tibble: 49 x 6
##     year winner                 win_party ec_pct popular_pct popular_margin
##    <int> <chr>                  <chr>      <dbl>       <dbl>          <dbl>
##  1  1824 John Quincy Adams      D.-R.      0.322       0.309        -0.104 
##  2  1828 Andrew Jackson         Dem.       0.682       0.559         0.122 
##  3  1832 Andrew Jackson         Dem.       0.766       0.547         0.178 
##  4  1836 Martin Van Buren       Dem.       0.578       0.508         0.142 
##  5  1840 William Henry Harrison Whig       0.796       0.529         0.0605
##  6  1844 James Polk             Dem.       0.618       0.495         0.0145
##  7  1848 Zachary Taylor         Whig       0.562       0.473         0.0479
##  8  1852 Franklin Pierce        Dem.       0.858       0.508         0.0695
##  9  1856 James Buchanan         Dem.       0.588       0.453         0.122 
## 10  1860 Abraham Lincoln        Rep.       0.594       0.396         0.101 
## # ... with 39 more rows
…
Finally, when we use mutate() to create the freq variable, not
only can we make up that name within the function, mutate() is also
clever enough to let us use that name right away, on the next line
of the same function call, when we create the pct variable. This
means we do not have to repeatedly write separate mutate() calls for
every new variable we want to create.

Our pipeline takes the gss_sm data frame, which has 2867 rows and 32 columns, and transforms it into rel_by_region, a summary table with 24 rows and 5 columns that looks like this, in part:

rel_by_region

## # A tibble: 24 x 5
## # Groups:   bigregion [4]
##    bigregion religion       N    freq   pct
##    <fct>     <fct>      <int>   <dbl> <dbl>
##  1 Northeast Protestant   158 0.324   32.0 
##  2 Northeast Catholic     162 0.332   33.0 
##  3 Northeast Jewish        27 0.0553   6.00
##  4 Northeast None         112 0.230   23.0 
##  5 Northeast Other         28 0.0574   6.00
##  6 Northeast <NA>           1 0.00205  0   
##  7 Midwest   Protestant   325 0.468   47.0 
##  8 Midwest   Catholic     172 0.247   25.0 
##  9 Midwest   Jewish         3 0.00432  0   
## 10 Midwest   None         157 0.226   23.0 
## # ... with 14 more rows
…
Figure 5.17: Plot points and text labels, with a horizontal position adjustment.

Instead of wrestling any further with geom_text(), we will use ggrepel instead. This very useful library adds some new geoms to ggplot. Just as ggplot extends the plotting capabilities of R, there are many small libraries that extend the capabilities of ggplot, often by providing some new type of geom. The ggrepel library provides geom_text_repel() and geom_label_repel(), two geoms that can pick out labels much more flexibly than the default geom_text(). First, make sure the library is installed, then load it in the usual way:

library(ggrepel)

We will use geom_text_repel() instead of geom_text(). To demonstrate some of what geom_text_repel() can do, we will switch datasets and work with some historical U.S. presidential election data provided in the socviz library.

elections_historic %>% select(2:7) 

## # A tibble: 49 x 6
##     year winner                 win_party ec_pct popular_pct popular_margin
##    <int> <chr>                  <chr>      <dbl>       <dbl>          <dbl>
##  1  1824 John Quincy Adams      D.-R.      0.322       0.309        -0.104 
##  2  1828 Andrew Jackson         Dem.       0.682       0.559         0.122 
##  3  1832 Andrew Jackson         Dem.       0.766       0.547         0.178 
##  4  1836 Martin Van Buren       Dem.       0.578       0.508         0.142 
##  5  1840 William Henry Harrison Whig       0.796       0.529         0.0605
##  6  1844 James Polk             Dem.       0.618       0.495         0.0145
##  7  1848 Zachary Taylor         Whig       0.562       0.473         0.0479
##  8  1852 Franklin Pierce        Dem.       0.858       0.508         0.0695
##  9  1856 James Buchanan         Dem.       0.588       0.453         0.122 
## 10  1860 Abraham Lincoln        Rep.       0.594       0.396         0.101 
## # ... with 39 more rows
…
