A Appendix
…
## # A tibble: 366 x 11
##    age   sex    year total elem4 elem8   hs3   hs4 coll3 coll4 median
##    <chr> <chr> <int> <int> <int> <int> <dbl> <dbl> <dbl> <dbl>  <dbl>
##  1 25-34 Male   2016 21845   116   468  1427  6386  6015  7432     NA
##  2 25-34 Male   2015 21427   166   488  1584  6198  5920  7071     NA
##  3 25-34 Male   2014 21217   151   512  1611  6323  5910  6710     NA
##  4 25-34 Male   2013 20816   161   582  1747  6058  5749  6519     NA
##  5 25-34 Male   2012 20464   161   579  1707  6127  5619  6270     NA
##  6 25-34 Male   2011 20985   190   657  1791  6444  5750  6151     NA
##  7 25-34 Male   2010 20689   186   641  1866  6458  5587  5951     NA
##  8 25-34 Male   2009 20440   184   695  1806  6495  5508  5752     NA
##  9 25-34 Male   2008 20210   172   714  1874  6356  5277  5816     NA
## 10 25-34 Male   2007 20024   246   757  1930  6361  5137  5593     NA
## # ... with 356 more rows
…
Figure A.6: Integer year shown with a decimal point.

p <- ggplot(data = bad_year, aes(x = year, y = donors))
p + geom_point()

The decimal point on the x-axis labels is unwanted. We could sort this out cosmetically, by giving scale_x_continuous() a set of breaks and labels that represent the years as characters. Alternatively, we can change the class of the year variable. For convenience, we will tell R that the year variable should be treated as a Date measure, and not an integer. We’ll use a home-cooked function, int_to_year(), that takes
integers and converts them to dates.

bad_year$year <- int_to_year(bad_year$year)
bad_year %>% select(1:3)

## # A tibble: 238 x 3
##    country   year       donors
##    <chr>     <date>      <dbl>
##  1 Australia NA          NA   
##  2 Australia 1991-01-01  12.1 
##  3 Australia 1992-01-01  12.4 
##  4 Australia 1993-01-01  12.5 
##  5 Australia 1994-01-01  10.2 
##  6 Australia 1995-01-01  10.2 
##  7 Australia 1996-01-01  10.6 
##  8 Australia 1997-01-01  10.3 
##  9 Australia 1998-01-01  10.5 
## 10 Australia 1999-01-01   8.67
## # ... with 228 more rows
…
## # A tibble: 366 x 11
##    age   sex    year total elem4 elem8   hs3   hs4 coll3 coll4 median
##    <chr> <chr> <int> <int> <int> <int> <dbl> <dbl> <dbl> <dbl>  <dbl>
##  1 25-34 Male   2016 21845   116   468  1427  6386  6015  7432     NA
##  2 25-34 Male   2015 21427   166   488  1584  6198  5920  7071     NA
##  3 25-34 Male   2014 21217   151   512  1611  6323  5910  6710     NA
##  4 25-34 Male   2013 20816   161   582  1747  6058  5749  6519     NA
##  5 25-34 Male   2012 20464   161   579  1707  6127  5619  6270     NA
##  6 25-34 Male   2011 20985   190   657  1791  6444  5750  6151     NA
##  7 25-34 Male   2010 20689   186   641  1866  6458  5587  5951     NA
##  8 25-34 Male   2009 20440   184   695  1806  6495  5508  5752     NA
##  9 25-34 Male   2008 20210   172   714  1874  6356  5277  5816     NA
## 10 25-34 Male   2007 20024   246   757  1930  6361  5137  5593     NA
## # ... with 356 more rows
…
## # A tibble: 366 x 11
##    age   sex    year total elem4 elem8   hs3   hs4 coll3 coll4 median
##    <chr> <chr> <int> <int> <int> <int> <dbl> <dbl> <dbl> <dbl>  <dbl>
##  1 25-34 Male   2016 21845   116   468  1427  6386  6015  7432     NA
##  2 25-34 Male   2015 21427   166   488  1584  6198  5920  7071     NA
##  3 25-34 Male   2014 21217   151   512  1611  6323  5910  6710     NA
##  4 25-34 Male   2013 20816   161   582  1747  6058  5749  6519     NA
##  5 25-34 Male   2012 20464   161   579  1707  6127  5619  6270     NA
##  6 25-34 Male   2011 20985   190   657  1791  6444  5750  6151     NA
##  7 25-34 Male   2010 20689   186   641  1866  6458  5587  5951     NA
##  8 25-34 Male   2009 20440   184   695  1806  6495  5508  5752     NA
##  9 25-34 Male   2008 20210   172   714  1874  6356  5277  5816     NA
## 10 25-34 Male   2007 20024   246   757  1930  6361  5137  5593     NA
## # ... with 356 more rows
…
Figure A.6: Integer year shown with a decimal point.

p <- ggplot(data = bad_year, aes(x = year, y = donors))
p + geom_point()

The decimal point on the x-axis labels is unwanted. We could sort this out cosmetically, by giving scale_x_continuous() a set of breaks and labels that represent the years as characters. Alternatively, we can change the class of the year variable. For convenience, we will tell R that the year variable should be treated as a Date measure, and not an integer. We’ll use a home-cooked function, int_to_year(), that takes
integers and converts them to dates.

bad_year$year <- int_to_year(bad_year$year)
bad_year %>% select(1:3)

## # A tibble: 238 x 3
##    country   year       donors
##    <chr>     <date>      <dbl>
##  1 Australia NA          NA   
##  2 Australia 1991-01-01  12.1 
##  3 Australia 1992-01-01  12.4 
##  4 Australia 1993-01-01  12.5 
##  5 Australia 1994-01-01  10.2 
##  6 Australia 1995-01-01  10.2 
##  7 Australia 1996-01-01  10.6 
##  8 Australia 1997-01-01  10.3 
##  9 Australia 1998-01-01  10.5 
## 10 Australia 1999-01-01   8.67
## # ... with 228 more rows
…
Figure A.6: Integer year shown with a decimal point.

p <- ggplot(data = bad_year, aes(x = year, y = donors))
p + geom_point()

The decimal point on the x-axis labels is unwanted. We could sort this out cosmetically, by giving scale_x_continuous() a set of breaks and labels that represent the years as characters. Alternatively, we can change the class of the year variable. For convenience, we will tell R that the year variable should be treated as a Date measure, and not an integer. We’ll use a home-cooked function, int_to_year(), that takes
integers and converts them to dates.

bad_year$year <- int_to_year(bad_year$year)
bad_year %>% select(1:3)

## # A tibble: 238 x 3
##    country   year       donors
##    <chr>     <date>      <dbl>
##  1 Australia NA          NA   
##  2 Australia 1991-01-01  12.1 
##  3 Australia 1992-01-01  12.4 
##  4 Australia 1993-01-01  12.5 
##  5 Australia 1994-01-01  10.2 
##  6 Australia 1995-01-01  10.2 
##  7 Australia 1996-01-01  10.6 
##  8 Australia 1997-01-01  10.3 
##  9 Australia 1998-01-01  10.5 
## 10 Australia 1999-01-01   8.67
## # ... with 228 more rows
…
