7 Draw maps
…
statebins(state_data = election,          
          state_col = "state", value_col = "pct_trump",
          text_color = "white", breaks = 4,
          labels = c("4-21", "21-37", "37-53", "53-70"),
          brewer_pal="Reds", font_size = 3, legend_title="Percent Trump")

7.4 Small-multiple maps

Sometimes we have geographical data with repeated observations over time. A common case is to have a country- or state-level measure observed over a period of years. In these cases, we might want to make a small multiple map to show changes over time. For example, the opiates data has state-level measures of the death rate from opiate-related causes (such as heroin or fentanyl overdoses) between 1999 and 2014.

opiates

## # A tibble: 800 x 11
##     year state        fips deaths population crude adjusted
##    <int> <chr>       <int>  <int>      <int> <dbl>    <dbl>
##  1  1999 Alabama         1     37    4430141 0.800    0.800
##  2  1999 Alaska          2     27     624779 4.30     4.00 
##  3  1999 Arizona         4    229    5023823 4.60     4.70 
##  4  1999 Arkansas        5     28    2651860 1.10     1.10 
##  5  1999 California      6   1474   33499204 4.40     4.50 
##  6  1999 Colorado        8    164    4226018 3.90     3.70 
##  7  1999 Connecticut     9    151    3386401 4.50     4.40 
##  8  1999 Delaware       10     32     774990 4.10     4.10 
##  9  1999 District o…    11     28     570213 4.90     4.90 
## 10  1999 Florida        12    402   15759421 2.60     2.60 
## # ... with 790 more rows, and 4 more variables:
## #   adjusted_se <dbl>, region <ord>, abbr <chr>,
## #   division_name <chr>
…
statebins(state_data = election,          
          state_col = "state", value_col = "pct_trump",
          text_color = "white", breaks = 4,
          labels = c("4-21", "21-37", "37-53", "53-70"),
          brewer_pal="Reds", font_size = 3, legend_title="Percent Trump")

7.4 Small-multiple maps

Sometimes we have geographical data with repeated observations over time. A common case is to have a country- or state-level measure observed over a period of years. In these cases, we might want to make a small multiple map to show changes over time. For example, the opiates data has state-level measures of the death rate from opiate-related causes (such as heroin or fentanyl overdoses) between 1999 and 2014.

opiates

## # A tibble: 800 x 11
##     year state        fips deaths population crude adjusted
##    <int> <chr>       <int>  <int>      <int> <dbl>    <dbl>
##  1  1999 Alabama         1     37    4430141 0.800    0.800
##  2  1999 Alaska          2     27     624779 4.30     4.00 
##  3  1999 Arizona         4    229    5023823 4.60     4.70 
##  4  1999 Arkansas        5     28    2651860 1.10     1.10 
##  5  1999 California      6   1474   33499204 4.40     4.50 
##  6  1999 Colorado        8    164    4226018 3.90     3.70 
##  7  1999 Connecticut     9    151    3386401 4.50     4.40 
##  8  1999 Delaware       10     32     774990 4.10     4.10 
##  9  1999 District o…    11     28     570213 4.90     4.90 
## 10  1999 Florida        12    402   15759421 2.60     2.60 
## # ... with 790 more rows, and 4 more variables:
## #   adjusted_se <dbl>, region <ord>, abbr <chr>,
## #   division_name <chr>
…
