4 Show the right numbers
…
Figure 4.20: Survival on the Titanic, by Sex.

p <- ggplot(data = titanic,
            mapping = aes(x = fate, y = percent, fill = sex))
p + geom_bar(position = "dodge", stat = "identity") + theme(legend.position = "top")

For convenience ggplot also provides a related geom, geom_col(),
which has exactly the same effect but assumes that stat = "identity". We will use this form in future when we don’t need any calculations done on the plot.

The position argument in geom_bar() and geom_col() can also take the value of "identity". Just as stat = "identity" means “don’t do any summary calculations”, position = "identity" means “just plot the values as given”. This allows us to do things like, for example, plot a flow of positive and negative values in a bar chart. This sort of graph is an alternative to a line plot and is often seen in public policy settings where changes relative to some threshold level or baseline are of interest. For example, the oecd_sum table in socviz contains information on average life expectancy at birth within the United States, and across other OECD countries.

oecd_sum

## # A tibble: 57 x 5
## # Groups:   year [57]
##     year other   usa  diff hi_lo
##    <int> <dbl> <dbl> <dbl> <chr>
##  1  1960  68.6  69.9 1.30  Below
##  2  1961  69.2  70.4 1.20  Below
##  3  1962  68.9  70.2 1.30  Below
##  4  1963  69.1  70.0 0.900 Below
##  5  1964  69.5  70.3 0.800 Below
##  6  1965  69.6  70.3 0.700 Below
##  7  1966  69.9  70.3 0.400 Below
##  8  1967  70.1  70.7 0.600 Below
##  9  1968  70.1  70.4 0.300 Below
## 10  1969  70.1  70.6 0.500 Below
## # ... with 47 more rows
…
Figure 4.20: Survival on the Titanic, by Sex.

p <- ggplot(data = titanic,
            mapping = aes(x = fate, y = percent, fill = sex))
p + geom_bar(position = "dodge", stat = "identity") + theme(legend.position = "top")

For convenience ggplot also provides a related geom, geom_col(),
which has exactly the same effect but assumes that stat = "identity". We will use this form in future when we don’t need any calculations done on the plot.

The position argument in geom_bar() and geom_col() can also take the value of "identity". Just as stat = "identity" means “don’t do any summary calculations”, position = "identity" means “just plot the values as given”. This allows us to do things like, for example, plot a flow of positive and negative values in a bar chart. This sort of graph is an alternative to a line plot and is often seen in public policy settings where changes relative to some threshold level or baseline are of interest. For example, the oecd_sum table in socviz contains information on average life expectancy at birth within the United States, and across other OECD countries.

oecd_sum

## # A tibble: 57 x 5
## # Groups:   year [57]
##     year other   usa  diff hi_lo
##    <int> <dbl> <dbl> <dbl> <chr>
##  1  1960  68.6  69.9 1.30  Below
##  2  1961  69.2  70.4 1.20  Below
##  3  1962  68.9  70.2 1.30  Below
##  4  1963  69.1  70.0 0.900 Below
##  5  1964  69.5  70.3 0.800 Below
##  6  1965  69.6  70.3 0.700 Below
##  7  1966  69.9  70.3 0.400 Below
##  8  1967  70.1  70.7 0.600 Below
##  9  1968  70.1  70.4 0.300 Below
## 10  1969  70.1  70.6 0.500 Below
## # ... with 47 more rows
…
