Chapter 4 Bayesian regression models
…
## [1] -196  196

That is, we don’t expect changes in size that increase or decrease the pupil size more than 200 units for one unit increase in load.

The priors we have specified here are relatively  uninformative; as mentioned earlier, this is because we are considering the situation where we don’t have much prior experience with pupil size studies. In other settings, we might have more prior knowledge and experience; in that case, one could use somewhat more principled priors. We address this point in the online chapter on priors (online chapter E) and Bayesian workflow (online chapter F).

4.1.2 The  brms model

Before fitting the brms model of the effect of load on pupil size, load the data and center the predictor load:

data("df_pupil")
(df_pupil <- df_pupil %>%
   mutate(c_load = load - mean(load)))

## # A tibble: 41 × 5
##    subj trial  load p_size c_load
##   <int> <int> <int>  <dbl>  <dbl>
## 1   701     1     2  1021. -0.439
## 2   701     2     1   951. -1.44 
## 3   701     3     5  1064.  2.56 
## # ℹ 38 more rows
…
data("df_recall")
df_recall <- df_recall %>%
  mutate(c_set_size = set_size - mean(set_size))
# Set sizes in the data set:
df_recall$set_size %>%
  unique() %>% sort()

## [1] 2 4 6 8

# Trials by set size
df_recall %>%
  group_by(set_size) %>%
  count()

## # A tibble: 4 × 2
## # Groups:   set_size [4]
##   set_size     n
##      <int> <int>
## 1        2    23
## 2        4    23
## 3        6    23
## # ℹ 1 more row

Here, the column correct records the incorrect vs. correct responses with 0 vs 1 respectively, and the column c_set_size records the centered memory set size; these latter scores have continuous values -3, -1, 1, and 3. These continuous values are centered versions of 2, 4, 6, and 8.

df_recall

## # A tibble: 92 × 8
##   subj  set_size correct trial session block tested c_set_size
##   <chr>    <int>   <int> <int>   <int> <int>  <int>      <dbl>
## 1 10           4       1     1       1     1      2         -1
## 2 10           8       0     4       1     1      8          3
## 3 10           2       1     9       1     1      2         -3
## # ℹ 89 more rows
…
