5 Graphs, tables, and maps
…
5.2 Graphs

A world turning to a saner and richer civilization will be a world turning to charts.

Karsten (1923, 684)

Graphs are a critical aspect of compelling data stories. They allow us to see both broad patterns and details (Cleveland [1985] 1994, 5). Graphs enable a familiarity with our data that is hard to get from any other method. Every variable of interest should be graphed.

The most important objective of a graph is to convey as much of the actual data, and its context, as possible. In a way, graphing is an information encoding process where we construct a deliberate representation to convey information to our audience. The audience must decode that representation. The success of our graph depends on how much information is lost in this process so the decoding is a critical aspect (Cleveland [1985] 1994, 221). This means that we must focus on creating effective graphs that are suitable for our specific audience.

To see why graphing the actual data is important, after installing and loading datasauRus consider the datasaurus_dozen dataset.

datasaurus_dozen

# A tibble: 1,846 × 3
   dataset     x     y
   <chr>   <dbl> <dbl>
 1 dino     55.4  97.2
 2 dino     51.5  96.0
 3 dino     46.2  94.5
 4 dino     42.8  91.4
 5 dino     40.8  88.3
 6 dino     38.7  84.9
 7 dino     35.6  79.9
 8 dino     33.1  77.6
 9 dino     29.0  74.5
10 dino     26.2  71.4
# ℹ 1,836 more rows
…
