…
## 6.2 查看模型对象内部

在本书中，涵盖 R 中拟合统计模型的细节超出了范围。对于该主题的全面、现代介绍，你应该阅读（Gelman & Hill, 2018）。（Harrell, 2016）在建模与绘图数据之间的许多实际联系方面也非常出色。同样，（Gelman, 2004）详细讨论了将图形作为模型检查和验证工具的使用。在这里，我们将讨论一些方法，通过这些方法可以从你拟合的模型中提取出易于在 ggplot 中处理的信息。我们的目标，一如既往，是从对象存储的任何方式到我们可以绘制的整洁数字表。R 中大多数统计模型类都将包含我们需要的信息，或者将有一组特殊的函数或方法，用于提取它。

我们可以先了解一下在 R 中模型输出是如何存储的。记住，我们始终在处理对象，而对象具有由命名部分组成的内部结构。有时这些是单个数字，有时是向量，有时是向量、矩阵或公式等类似列表的事物。

我们一直在广泛地使用 tibbles 和数据框。这些存储具有命名列的数据表，可能包含不同类型的变量，如整数、字符、日期或因子。模型对象又更复杂一些。

```r
gapminder
```

```r
## # A tibble: 1,704 x 6
##    country     continent  year lifeExp      pop gdpPercap
##    <fct>       <fct>     <int>   <dbl>    <int>     <dbl>
##  1 Afghanistan Asia       1952    28.8  8425333       779
##  2 Afghanistan Asia       1957    30.3  9240934       821
##  3 Afghanistan Asia       1962    32.0 10267083       853
##  4 Afghanistan Asia       1967    34.0 11537966       836
##  5 Afghanistan Asia       1972    36.1 13079460       740
##  6 Afghanistan Asia       1977    38.4 14880372       786
##  7 Afghanistan Asia       1982    39.9 12881816       978
##  8 Afghanistan Asia       1987    40.8 13867957       852
##  9 Afghanistan Asia       1992    41.7 16317921       649
## 10 Afghanistan Asia       1997    41.8 22227415       635
## # ... with 1,694 more rows
```
…
使用 `dplyr` 和 `broom`，我们可以以紧凑和整洁的方式对数据中的每个大陆-年份切片进行操作。我们从一个数据表开始，然后使用 `group_by()` 函数按 `continent` 和 `year` 对国家进行分组。我们在第四章节中介绍了这种分组操作。我们的数据首先按大陆重新组织，然后在大陆内部按年份。这里我们将采取进一步的一步，*嵌套* 构成每个组的数据：

```r
out_le <-  gapminder %>%
 group_by(continent, year) %>%
 nest()

out_le
```

```r
## # A tibble: 60 x 3
##    continent  year data             
##    <fct>     <int> <list>           
##  1 Asia       1952 <tibble [33 × 4]>
##  2 Asia       1957 <tibble [33 × 4]>
##  3 Asia       1962 <tibble [33 × 4]>
##  4 Asia       1967 <tibble [33 × 4]>
##  5 Asia       1972 <tibble [33 × 4]>
##  6 Asia       1977 <tibble [33 × 4]>
##  7 Asia       1982 <tibble [33 × 4]>
##  8 Asia       1987 <tibble [33 × 4]>
##  9 Asia       1992 <tibble [33 × 4]>
## 10 Asia       1997 <tibble [33 × 4]>
## # ... with 50 more rows
```

将 `nest()` 的作用视为 `group_by()` 的更加强化的版本。结果对象具有我们期望的表格形式（它是一个 tibble），但看起来有些不寻常。前两列是熟悉的 `continent` 和 `year`。但我们现在还有一个新的列，`data`，它包含对应于每个 continent-year 组的小型数据表。这是一个 *列表列*，我们之前没有见过。它被证明在将复杂对象（在这种情况下，作为 tibbles 的列表，每个都是一个 33x4 的数据表）捆绑到我们的数据行（保持表格形式）中非常有用。我们的“欧洲 1977”拟合就在其中。如果我们愿意，可以通过过滤数据然后 *解包* 列表列来查看它。

```r
out_le %>%  filter(continent == "Europe" &  year ==  1977) %>%  unnest()
```

```r
## # A tibble: 30 x 6
##    continent  year country         lifeExp    pop gdpPercap
##    <fct>     <int> <fct>             <dbl>  <int>     <dbl>
##  1 Europe     1977 Albania            68.9 2.51e⁶      3533
##  2 Europe     1977 Austria            72.2 7.57e⁶     19749
##  3 Europe     1977 Belgium            72.8 9.82e⁶     19118
##  4 Europe     1977 Bosnia and Her…    69.9 4.09e⁶      3528
##  5 Europe     1977 Bulgaria           70.8 8.80e⁶      7612
##  6 Europe     1977 Croatia            70.6 4.32e⁶     11305
##  7 Europe     1977 Czech Republic     70.7 1.02e⁷     14800
##  8 Europe     1977 Denmark            74.7 5.09e⁶     20423
##  9 Europe     1977 Finland            72.5 4.74e⁶     15605
## 10 Europe     1977 France             73.8 5.32e⁷     18293
## # ... with 20 more rows
```
…
```r
fit_ols <-  function(df) {
 lm(lifeExp ~  log(gdpPercap), data = df)
}

out_le <-  gapminder %>%
 group_by(continent, year) %>%
 nest() %>% 
 mutate(model = map(data, fit_ols)) 

out_le
```

```r
## # A tibble: 60 x 4
##    continent  year data              model   
##    <fct>     <int> <list>            <list>  
##  1 Asia       1952 <tibble [33 × 4]> <S3: lm>
##  2 Asia       1957 <tibble [33 × 4]> <S3: lm>
##  3 Asia       1962 <tibble [33 × 4]> <S3: lm>
##  4 Asia       1967 <tibble [33 × 4]> <S3: lm>
##  5 Asia       1972 <tibble [33 × 4]> <S3: lm>
##  6 Asia       1977 <tibble [33 × 4]> <S3: lm>
##  7 Asia       1982 <tibble [33 × 4]> <S3: lm>
##  8 Asia       1987 <tibble [33 × 4]> <S3: lm>
##  9 Asia       1992 <tibble [33 × 4]> <S3: lm>
## 10 Asia       1997 <tibble [33 × 4]> <S3: lm>
## # ... with 50 more rows
```
…
在开始时设置的两种 `options` 为 `survey` 库提供了有关如何行为的一些信息。您应该查阅 Lumley (2010) 和 `survey` 包文档以获取详细信息。后续操作创建了一个名为 `gss_wt` 的对象，它有一个额外的列（`stratvar`），描述了每年的抽样层。我们使用 `interaction()` 函数来完成此操作。它将 `vstrat` 变量乘以 `year` 变量，以获取每年层信息的向量。我们必须这样做，因为 GSS 对其层信息进行编码的方式。在下一步中，我们使用 `as_survey_design()` 函数添加有关调查设计的关键信息。它添加有关抽样标识符（`ids`）、层（`strata`）和重复权重（`weights`）的信息。有了这些信息，我们可以利用 `survey` 库中的大量专用函数，这些函数允许我们正确计算加权调查均值或使用正确的抽样规范估计模型。例如，我们可以轻松地计算从 1976 年到 2016 年的一系列年份中按种族划分的教育分布。我们使用 `survey_mean()` 来完成此操作：

```r
out_grp <-  gss_wt %>%
 filter(year %in%  seq(1976, 2016, by = 4)) %>%
 group_by(year, race, degree) %>%
 summarize(prop = survey_mean(na.rm = TRUE))

out_grp
```

```r
## # A tibble: 150 x 5
##     year race  degree           prop prop_se
##    <dbl> <fct> <fct>           <dbl>   <dbl>
##  1  1976 White Lt High School 0.328  0.0160 
##  2  1976 White High School    0.518  0.0162 
##  3  1976 White Junior College 0.0129 0.00298
##  4  1976 White Bachelor       0.101  0.00960
##  5  1976 White Graduate       0.0393 0.00644
##  6  1976 Black Lt High School 0.562  0.0611 
##  7  1976 Black High School    0.337  0.0476 
##  8  1976 Black Junior College 0.0426 0.0193 
##  9  1976 Black Bachelor       0.0581 0.0239 
## 10  1976 Black Graduate       0      0      
## # ... with 140 more rows
```
…
使用 `group_by()` 进行分组允许我们计算最内层变量的计数或平均值，按下一个变量“向上”或“向外”分组，在这种情况下，按 `degree` 和 `race` 分组，这样 `degree` 的比例将对于 `race` 中的每个组加起来等于一，并且对于 `year` 的每个值都将单独完成。如果我们想要边际频率，即所有 `race` 和 `degree` 组合的值在每年内加起来等于一，我们首先必须交叉分类变量。然后按新的交互变量进行分组，并像以前一样进行计算：

```r
out_mrg <-  gss_wt %>%
 filter(year %in%  seq(1976, 2016, by = 4)) %>%
 mutate(racedeg = interaction(race, degree)) %>%
 group_by(year, racedeg) %>%
 summarize(prop = survey_mean(na.rm = TRUE))

out_mrg
```

```r
## # A tibble: 150 x 4
##     year racedeg                 prop prop_se
##    <dbl> <fct>                  <dbl>   <dbl>
##  1  1976 White.Lt High School 0.298   0.0146 
##  2  1976 Black.Lt High School 0.0471  0.00840
##  3  1976 Other.Lt High School 0.00195 0.00138
##  4  1976 White.High School    0.471   0.0160 
##  5  1976 Black.High School    0.0283  0.00594
##  6  1976 Other.High School    0.00325 0.00166
##  7  1976 White.Junior College 0.0117  0.00268
##  8  1976 Black.Junior College 0.00357 0.00162
##  9  1976 Other.Junior College 0       0      
## 10  1976 White.Bachelor       0.0919  0.00888
## # ... with 140 more rows
```
这为我们提供了我们想要的数字，并以整洁的数据框形式返回。`interaction()` 函数生成的变量标签是由我们交互的两个变量的复合体，每个类别的组合由一个句点分隔（例如 `White.Graduate`。然而，也许我们希望将这些类别视为两个单独的列，一个用于种族，一个用于教育，就像之前一样。因为变量标签是有序组织的，我们可以使用 tidyverse 的 `tidyr` 库中的一个方便的函数将单个变量分离成两列，同时正确地保留行值。恰当地，这个函数被称为 `separate()`。在 `separate` 函数调用中，句点前的两个反斜杠对于 R 将其字面地解释为句点来说是必要的。在默认的搜索和替换操作中，搜索项是正则表达式。句点作为一个特殊字符，一种通配符，意味着“任何字符”。为了使正则表达式引擎将其字面地处理，我们在其前面添加一个反斜杠。反斜杠是一个“转义”字符。它的意思是“下一个字符将被以不同于通常的方式处理”。然而，因为反斜杠本身也是一个特殊字符，我们需要添加第二个反斜杠以确保解析器正确地看到它。

```r
out_mrg <-  gss_wt %>%
 filter(year %in%  seq(1976, 2016, by = 4)) %>%
 mutate(racedeg = interaction(race, degree)) %>%
 group_by(year, racedeg) %>%
 summarize(prop = survey_mean(na.rm = TRUE)) %>%
 separate(racedeg, sep = "\\.", into = c("race", "degree"))

out_mrg
```

```r
## # A tibble: 150 x 5
##     year race  degree            prop prop_se
##    <dbl> <chr> <chr>            <dbl>   <dbl>
##  1  1976 White Lt High School 0.298   0.0146 
##  2  1976 Black Lt High School 0.0471  0.00840
##  3  1976 Other Lt High School 0.00195 0.00138
##  4  1976 White High School    0.471   0.0160 
##  5  1976 Black High School    0.0283  0.00594
##  6  1976 Other High School    0.00325 0.00166
##  7  1976 White Junior College 0.0117  0.00268
##  8  1976 Black Junior College 0.00357 0.00162
##  9  1976 Other Junior College 0       0      
## 10  1976 White Bachelor       0.0919  0.00888
## # ... with 140 more rows
```
…
## 6.2 查看模型对象内部

在 R 中详细说明拟合统计模型的细节超出了本书的范围。对于该主题的全面、现代介绍，你应该阅读 (Gelman & Hill, 2018)。(Harrell, 2016) 在建模与绘图数据之间的许多实际联系方面也非常出色。同样，(Gelman, 2004) 详细讨论了将图形作为模型检查和验证工具的使用。在这里，我们将讨论一些方法，从你拟合的模型中提取信息，这些信息在 ggplot 中易于处理。我们的目标，一如既往，是从对象存储的任何方式到我们可以绘制的整洁数字表。R 中大多数统计模型类别将包含我们所需的信息，或者将有一个特殊的函数集或方法，专门用于提取它。

我们可以先了解一些关于模型输出在 R 中如何存储的更多信息。记住，我们始终在处理对象，而对象具有由命名部分组成的内部结构。有时这些是单个数字，有时是向量，有时是向量、矩阵或公式等事物的列表。

我们一直在广泛地使用 tibbles 和数据框。这些存储具有命名列的数据表，可能由不同类别的变量组成，例如整数、字符、日期或因子。模型对象又复杂一些。

```r
gapminder
```

```r
## # A tibble: 1,704 x 6
##    country     continent  year lifeExp      pop gdpPercap
##    <fct>       <fct>     <int>   <dbl>    <int>     <dbl>
##  1 Afghanistan Asia       1952    28.8  8425333       779
##  2 Afghanistan Asia       1957    30.3  9240934       821
##  3 Afghanistan Asia       1962    32.0 10267083       853
##  4 Afghanistan Asia       1967    34.0 11537966       836
##  5 Afghanistan Asia       1972    36.1 13079460       740
##  6 Afghanistan Asia       1977    38.4 14880372       786
##  7 Afghanistan Asia       1982    39.9 12881816       978
##  8 Afghanistan Asia       1987    40.8 13867957       852
##  9 Afghanistan Asia       1992    41.7 16317921       649
## 10 Afghanistan Asia       1997    41.8 22227415       635
## # ... with 1,694 more rows
```
…
使用`dplyr`和`broom`，我们可以以紧凑和整洁的方式对数据中的每个大陆-年份切片进行此操作。我们从一个数据表开始，然后使用`group_by()`函数按`continent`和`year`对国家进行分组。我们在第四章中介绍了这种分组操作。我们的数据首先按大陆重新组织，然后在大陆内部按年份组织。这里我们将进一步一步，并将构成每个组的数据*嵌套*：

```r
out_le <-  gapminder %>%
 group_by(continent, year) %>%
 nest()

out_le
```

```r
## # A tibble: 60 x 3
##    continent  year data             
##    <fct>     <int> <list>           
##  1 Asia       1952 <tibble [33 × 4]>
##  2 Asia       1957 <tibble [33 × 4]>
##  3 Asia       1962 <tibble [33 × 4]>
##  4 Asia       1967 <tibble [33 × 4]>
##  5 Asia       1972 <tibble [33 × 4]>
##  6 Asia       1977 <tibble [33 × 4]>
##  7 Asia       1982 <tibble [33 × 4]>
##  8 Asia       1987 <tibble [33 × 4]>
##  9 Asia       1992 <tibble [33 × 4]>
## 10 Asia       1997 <tibble [33 × 4]>
## # ... with 50 more rows
```

将`nest()`函数的作用想象成是`group_by()`函数的更加强化的版本。结果对象具有我们预期的表格形式（它是一个 tibble），但看起来有点不寻常。前两列是熟悉的`continent`和`year`。但现在我们还有一个新的列`data`，它包含与每个大陆-年份组对应的小型数据表。这是一个列表列，我们之前没有见过。它实际上在将复杂对象（在这种情况下，作为 tibbles 的列表，每个都是一个 33x4 的数据表）捆绑到我们的数据行中（数据仍然保持表格形式）时非常有用。我们的“欧洲 1977”拟合就在那里。如果我们愿意，可以通过过滤数据然后*解包*列表列来查看它。

```r
out_le %>%  filter(continent == "Europe" &  year ==  1977) %>%  unnest()
```

```r
## # A tibble: 30 x 6
##    continent  year country         lifeExp    pop gdpPercap
##    <fct>     <int> <fct>             <dbl>  <int>     <dbl>
##  1 Europe     1977 Albania            68.9 2.51e⁶      3533
##  2 Europe     1977 Austria            72.2 7.57e⁶     19749
##  3 Europe     1977 Belgium            72.8 9.82e⁶     19118
##  4 Europe     1977 Bosnia and Her…    69.9 4.09e⁶      3528
##  5 Europe     1977 Bulgaria           70.8 8.80e⁶      7612
##  6 Europe     1977 Croatia            70.6 4.32e⁶     11305
##  7 Europe     1977 Czech Republic     70.7 1.02e⁷     14800
##  8 Europe     1977 Denmark            74.7 5.09e⁶     20423
##  9 Europe     1977 Finland            72.5 4.74e⁶     15605
## 10 Europe     1977 France             73.8 5.32e⁷     18293
## # ... with 20 more rows
```
…
```r
fit_ols <-  function(df) {
 lm(lifeExp ~  log(gdpPercap), data = df)
}

out_le <-  gapminder %>%
 group_by(continent, year) %>%
 nest() %>% 
 mutate(model = map(data, fit_ols)) 

out_le
```

```r
## # A tibble: 60 x 4
##    continent  year data              model   
##    <fct>     <int> <list>            <list>  
##  1 Asia       1952 <tibble [33 × 4]> <S3: lm>
##  2 Asia       1957 <tibble [33 × 4]> <S3: lm>
##  3 Asia       1962 <tibble [33 × 4]> <S3: lm>
##  4 Asia       1967 <tibble [33 × 4]> <S3: lm>
##  5 Asia       1972 <tibble [33 × 4]> <S3: lm>
##  6 Asia       1977 <tibble [33 × 4]> <S3: lm>
##  7 Asia       1982 <tibble [33 × 4]> <S3: lm>
##  8 Asia       1987 <tibble [33 × 4]> <S3: lm>
##  9 Asia       1992 <tibble [33 × 4]> <S3: lm>
## 10 Asia       1997 <tibble [33 × 4]> <S3: lm>
## # ... with 50 more rows
```
…
在开始时设置的 `two options` 为 `survey` 库提供了有关如何行为的一些信息。您应该查阅 Lumley (2010) 和 `survey` 包文档以获取详细信息。后续操作创建了一个名为 `gss_wt` 的对象，它有一个额外的列（`stratvar`），描述了每年的抽样层。我们使用 `interaction()` 函数来完成此操作。它将 `vstrat` 变量乘以 `year` 变量，以获取每年层信息的向量。我们必须这样做，因为 GSS 以这种方式编码层信息。在下一步中，我们使用 `as_survey_design()` 函数添加有关调查设计的关键信息。它添加有关抽样标识符（`ids`）、层（`strata`）和重复权重（`weights`）的信息。有了这些信息，我们可以利用 `survey` 库中的大量专用函数，这些函数允许我们正确计算加权调查均值或使用正确的抽样规范估计模型。例如，我们可以轻松地计算从 1976 年到 2016 年的一系列年份中按种族划分的教育分布。我们使用 `survey_mean()` 来完成此操作：

```r
out_grp <-  gss_wt %>%
 filter(year %in%  seq(1976, 2016, by = 4)) %>%
 group_by(year, race, degree) %>%
 summarize(prop = survey_mean(na.rm = TRUE))

out_grp
```

```r
## # A tibble: 150 x 5
##     year race  degree           prop prop_se
##    <dbl> <fct> <fct>           <dbl>   <dbl>
##  1  1976 White Lt High School 0.328  0.0160 
##  2  1976 White High School    0.518  0.0162 
##  3  1976 White Junior College 0.0129 0.00298
##  4  1976 White Bachelor       0.101  0.00960
##  5  1976 White Graduate       0.0393 0.00644
##  6  1976 Black Lt High School 0.562  0.0611 
##  7  1976 Black High School    0.337  0.0476 
##  8  1976 Black Junior College 0.0426 0.0193 
##  9  1976 Black Bachelor       0.0581 0.0239 
## 10  1976 Black Graduate       0      0      
## # ... with 140 more rows
```
…
使用 `group_by()` 进行分组允许我们计算最内层变量的计数或平均值，按下一个“向上”或“向外”的变量分组，在这种情况下，按 `degree` 和 `race` 分组，这样 `degree` 的比例将对于 `race` 中的每个组加起来等于一，并且对于 `year` 的每个值都将单独完成。如果我们想得到 *边缘* 频率，即所有 `race` 和 `degree` 组合的值在每年内加起来等于一，我们首先必须交叉分类变量。然后按新的交互变量进行分组，并像以前一样进行计算：

```r
out_mrg <-  gss_wt %>%
 filter(year %in%  seq(1976, 2016, by = 4)) %>%
 mutate(racedeg = interaction(race, degree)) %>%
 group_by(year, racedeg) %>%
 summarize(prop = survey_mean(na.rm = TRUE))

out_mrg
```

```r
## # A tibble: 150 x 4
##     year racedeg                 prop prop_se
##    <dbl> <fct>                  <dbl>   <dbl>
##  1  1976 White.Lt High School 0.298   0.0146 
##  2  1976 Black.Lt High School 0.0471  0.00840
##  3  1976 Other.Lt High School 0.00195 0.00138
##  4  1976 White.High School    0.471   0.0160 
##  5  1976 Black.High School    0.0283  0.00594
##  6  1976 Other.High School    0.00325 0.00166
##  7  1976 White.Junior College 0.0117  0.00268
##  8  1976 Black.Junior College 0.00357 0.00162
##  9  1976 Other.Junior College 0       0      
## 10  1976 White.Bachelor       0.0919  0.00888
## # ... with 140 more rows
```
这给我们想要的数字，并以整洁的数据框形式返回。`interaction()`函数产生变量标签，它是我们所交互的两个变量的复合，每个类别的组合由句点分隔（例如`White.Graduate`）。然而，我们可能希望将这些类别作为两个单独的列来查看，一个用于种族，一个用于教育，就像之前一样。由于变量标签以可预测的方式组织，我们可以使用 tidyverse 的`tidyr`库中的一个方便的函数将单个变量分离成两列，同时正确保留行值。恰当地，这个函数被称为`separate()`。在`separate`调用中句点前的两个反斜杠对于 R 将其字面地解释为句点来说是必要的。在默认的搜索和替换操作中，搜索项是正则表达式。句点作为特殊字符，是一种通配符，意味着“任何字符”。为了使正则表达式引擎将其字面地处理，我们在其前面添加一个反斜杠。反斜杠是一个“转义”字符。它的意思是“下一个字符将被以不同于通常的方式处理”。然而，因为反斜杠本身也是一个特殊字符，我们需要添加第二个反斜杠以确保解析器正确地看到它。

```r
out_mrg <-  gss_wt %>%
 filter(year %in%  seq(1976, 2016, by = 4)) %>%
 mutate(racedeg = interaction(race, degree)) %>%
 group_by(year, racedeg) %>%
 summarize(prop = survey_mean(na.rm = TRUE)) %>%
 separate(racedeg, sep = "\\.", into = c("race", "degree"))

out_mrg
```

```r
## # A tibble: 150 x 5
##     year race  degree            prop prop_se
##    <dbl> <chr> <chr>            <dbl>   <dbl>
##  1  1976 White Lt High School 0.298   0.0146 
##  2  1976 Black Lt High School 0.0471  0.00840
##  3  1976 Other Lt High School 0.00195 0.00138
##  4  1976 White High School    0.471   0.0160 
##  5  1976 Black High School    0.0283  0.00594
##  6  1976 Other High School    0.00325 0.00166
##  7  1976 White Junior College 0.0117  0.00268
##  8  1976 Black Junior College 0.00357 0.00162
##  9  1976 Other Junior College 0       0      
## 10  1976 White Bachelor       0.0919  0.00888
## # ... with 140 more rows
```
…
