…
R 可以读取多种不同格式的数据文件。`haven` 包是 tidyverse 的一部分。它提供了读取由各种商业软件包创建的文件的函数。R 还可以直接与数据库通信，这不是本节的内容。例如，如果你的数据集是一个 Stata `.dta` 文件，你可以像我们上面使用 `read_csv()` 一样使用 `read_dta()` 函数。这个函数可以读取和写入存储为逻辑值、整数、数字、字符和因子的变量。Stata 还有一个 *标记的* 数据类别，haven 库部分支持。有关更多详细信息，请参阅 haven 的文档。通常，你最终会将标记变量转换为 R 的基本类别之一。Stata 还支持一个广泛的数据编码方案，用于缺失数据。这通常在 R 中不直接使用，在 R 中缺失数据简单地编码为 `NA`。同样，你需要注意，任何导入到 R 中的标记变量都应正确编码，以免在分析中错误地使用缺失数据。

当你准备在 R 中使用数据，特别是使用 `ggplot` 进行绘图时，请记住，最好以“整洁”格式表示。本质上这意味着你的数据应该以 *长* 格式而不是 *宽* 格式，每个观测值一行，每个变量一列。我们将在第三章节中更详细地讨论这个问题，你还可以参考附录中关于整洁数据的讨论。

## 2.6 制作你的第一个图表

现在的准备工作已经足够了。编写代码可能会让人沮丧，但它也允许你快速完成有趣的事情。由于这本书的目标不是教你所有关于 R 的知识，而是教你如何制作好的图形，我们可以将很多细节推迟到以后（或者实际上无限期地忽略它们）。我们将从使用一个函数来创建一个命名对象，并绘制结果开始，这样我们就可以继续前进。我们将使用 Gapminder 数据集，你应该已经在你的电脑上准备好了。我们用`library()`加载数据，并查看一下。

```r
library(gapminder)
gapminder
```

```r
## # A tibble: 1,704 x 6
##    country     continent  year lifeExp      pop gdpPercap
##    <fct>       <fct>     <int>   <dbl>    <int>     <dbl>
##  1 Afghanistan Asia       1952    28.8  8425333       779
##  2 Afghanistan Asia       1957    30.3  9240934       821
##  3 Afghanistan Asia       1962    32.0 10267083       853
##  4 Afghanistan Asia       1967    34.0 11537966       836
##  5 Afghanistan Asia       1972    36.1 13079460       740
##  6 Afghanistan Asia       1977    38.4 14880372       786
##  7 Afghanistan Asia       1982    39.9 12881816       978
##  8 Afghanistan Asia       1987    40.8 13867957       852
##  9 Afghanistan Asia       1992    41.7 16317921       649
## 10 Afghanistan Asia       1997    41.8 22227415       635
## # ... with 1,694 more rows
```
…
R 可以读取多种不同格式的数据文件。`haven` 包是 tidyverse 的一部分。它提供了读取由各种商业软件包创建的文件的函数。R 还可以直接与数据库通信，但这不是本文讨论的主题。例如，如果你的数据集是一个 Stata 的 `.dta` 文件，你可以使用 `read_dta()` 函数，其使用方式与上面我们使用的 `read_csv()` 几乎相同。这个函数可以读取和写入存储为逻辑值、整数、数字、字符和因子的变量。Stata 还有一个 `labelled` 数据类别，haven 库部分支持。有关更多详细信息，请参阅 haven 的文档。通常，你最终会将标签变量转换为 R 的基本类别之一。Stata 还支持一个广泛的缺失数据编码方案。这通常在 R 中不直接使用，在 R 中缺失数据简单地编码为 `NA`。同样，你需要注意，任何导入到 R 中的标签变量都应正确编码，以免在分析中错误地使用缺失数据。

当你准备在 R 中使用数据，特别是使用 `ggplot` 进行绘图时，请记住，最好以“整洁”格式表示。本质上这意味着你的数据应该以 *长* 格式而不是 *宽* 格式，每个观测值一行，每个变量一列。我们将在第三章节中更详细地讨论这个问题，你还可以参考附录中关于整洁数据的讨论。

## 2.6 制作你的第一个图表

现在已经足够清理场地了。编写代码可能会让人感到沮丧，但它也允许你快速完成有趣的事情。由于本书的目标不是教你所有关于 R 的知识，而是仅仅教你如何制作好的图形，我们可以将很多细节推迟到以后（或者实际上无限期地忽略它们）。我们将从使用一个函数来创建一个命名对象并绘制结果开始，这样我们就可以继续前进。我们将使用 Gapminder 数据集，你应该已经在你的电脑上准备好了。我们使用`library()`来加载数据，并查看一下。

```r
library(gapminder)
gapminder
```

```r
## # A tibble: 1,704 x 6
##    country     continent  year lifeExp      pop gdpPercap
##    <fct>       <fct>     <int>   <dbl>    <int>     <dbl>
##  1 Afghanistan Asia       1952    28.8  8425333       779
##  2 Afghanistan Asia       1957    30.3  9240934       821
##  3 Afghanistan Asia       1962    32.0 10267083       853
##  4 Afghanistan Asia       1967    34.0 11537966       836
##  5 Afghanistan Asia       1972    36.1 13079460       740
##  6 Afghanistan Asia       1977    38.4 14880372       786
##  7 Afghanistan Asia       1982    39.9 12881816       978
##  8 Afghanistan Asia       1987    40.8 13867957       852
##  9 Afghanistan Asia       1992    41.7 16317921       649
## 10 Afghanistan Asia       1997    41.8 22227415       635
## # ... with 1,694 more rows
```
…
