…
第三，`mutate()`步骤使用`N`变量来创建`freq`，即每个区域内部子组的相对频率，最终转换为四舍五入的百分比`pct`。这些`mutate()`操作会在表中添加或删除列，但不会改变分组级别。

在`mutate()`和`summarize()`内部，我们能够以我们之前未见过的这种方式创建新变量。通常，当我们在一个函数内部看到类似`name = value`的语句时，`name`是一个通用的命名参数，函数期望我们从它那里获取关于特定值的信息。例如，在`aes(x = gdpPercap, y = lifeExp)`的情况下。通常，如果我们给一个函数一个它不认识的命名参数（如`aes(chuckles = year)`），它将忽略它、抱怨或崩溃。然而，使用`summarize()`和`mutate()`，我们可以发明命名参数。我们仍然在将特定值分配给`N`、`freq`和`pct`，但我们也在选择名称。这些名称是新创建的汇总表变量的名称。`summarize()`和`mutate()`函数不需要提前知道它们将是什么。

最后，当我们使用`mutate()`创建`freq`变量时，不仅可以在函数内部指定该名称，`mutate()`还足够聪明，允许我们在同一函数调用的下一行立即使用该名称来创建`pct`变量。这意味着我们不需要为每个新创建的变量重复编写单独的`mutate()`调用。

我们的流程将`gss_sm`数据框（包含 2867 行和 32 列）转换成`rel_by_region`，这是一个包含 24 行和 5 列的汇总表，部分如下所示：

```r
rel_by_region
```

```r
## # A tibble: 24 x 5
## # Groups:   bigregion [4]
##    bigregion religion       N    freq   pct
##    <fct>     <fct>      <int>   <dbl> <dbl>
##  1 Northeast Protestant   158 0.324   32.0 
##  2 Northeast Catholic     162 0.332   33.0 
##  3 Northeast Jewish        27 0.0553   6.00
##  4 Northeast None         112 0.230   23.0 
##  5 Northeast Other         28 0.0574   6.00
##  6 Northeast <NA>           1 0.00205  0   
##  7 Midwest   Protestant   325 0.468   47.0 
##  8 Midwest   Catholic     172 0.247   25.0 
##  9 Midwest   Jewish         3 0.00432  0   
## 10 Midwest   None         157 0.226   23.0 
## # ... with 14 more rows
```
…
我们不再与`geom_text()`纠缠，而是使用`ggrepel`。这个非常有用的库为 ggplot 添加了一些新的几何对象。正如`ggplot`扩展了 R 的绘图功能一样，有许多小型库通过提供一些新的`geom`类型来扩展`ggplot`的功能。`ggrepel`库提供了`geom_text_repel()`和`geom_label_repel()`，这两种几何对象可以比默认的`geom_text()`更灵活地选择标签。首先，确保库已安装，然后以通常的方式加载它：

```r
library(ggrepel)
```

我们将使用`geom_text_repel()`而不是`geom_text()`。为了展示`geom_text_repel()`的一些功能，我们将切换数据集，并使用`socviz`库中提供的一些历史美国总统选举数据进行分析。

```r
elections_historic %>%  select(2:7) 
```

```r
## # A tibble: 49 x 6
##     year winner                 win_party ec_pct popular_pct popular_margin
##    <int> <chr>                  <chr>      <dbl>       <dbl>          <dbl>
##  1  1824 John Quincy Adams      D.-R.      0.322       0.309        -0.104 
##  2  1828 Andrew Jackson         Dem.       0.682       0.559         0.122 
##  3  1832 Andrew Jackson         Dem.       0.766       0.547         0.178 
##  4  1836 Martin Van Buren       Dem.       0.578       0.508         0.142 
##  5  1840 William Henry Harrison Whig       0.796       0.529         0.0605
##  6  1844 James Polk             Dem.       0.618       0.495         0.0145
##  7  1848 Zachary Taylor         Whig       0.562       0.473         0.0479
##  8  1852 Franklin Pierce        Dem.       0.858       0.508         0.0695
##  9  1856 James Buchanan         Dem.       0.588       0.453         0.122 
## 10  1860 Abraham Lincoln        Rep.       0.594       0.396         0.101 
## # ... with 39 more rows
```
…
第三，`mutate()`步骤使用`N`变量来创建`freq`，即每个区域内的子组的相对频率，最后创建`pct`，即转换为四舍五入百分比的相对频率。这些`mutate()`操作向表中添加或移除列，但不会改变分组级别。

在`mutate()`和`summarize()`内部，我们能够以我们之前未见过的这种方式创建新变量。通常，当我们在一个函数内部看到类似`name = value`的东西时，`name`是一个通用的命名参数，函数期望我们从它那里获取关于特定值的信息。例如，在`aes(x = gdpPercap, y = lifeExp)`的情况下。通常，如果我们给一个函数一个它不知道的命名参数（`aes(chuckles = year)`），它将忽略它、抱怨或崩溃。然而，在`summarize()`和`mutate()`的情况下，我们可以发明命名参数。我们仍然在将特定的值分配给`N`、`freq`和`pct`，但我们也在选择名称。它们是新创建的汇总表中的变量的名称。`summarize()`和`mutate()`函数不需要提前知道它们会是什么。

最后，当我们使用`mutate()`创建`freq`变量时，我们不仅可以在函数内部命名这个变量，`mutate()`还足够聪明，允许我们在同一函数调用的下一行立即使用这个名称来创建`pct`变量。这意味着我们不需要为每个想要创建的新变量重复编写单独的`mutate()`调用。

我们的管道将`gss_sm`数据框（有 2867 行和 32 列）转换成`rel_by_region`，这是一个包含 24 行和 5 列的汇总表，部分如下所示：

```r
rel_by_region
```

```r
## # A tibble: 24 x 5
## # Groups:   bigregion [4]
##    bigregion religion       N    freq   pct
##    <fct>     <fct>      <int>   <dbl> <dbl>
##  1 Northeast Protestant   158 0.324   32.0 
##  2 Northeast Catholic     162 0.332   33.0 
##  3 Northeast Jewish        27 0.0553   6.00
##  4 Northeast None         112 0.230   23.0 
##  5 Northeast Other         28 0.0574   6.00
##  6 Northeast <NA>           1 0.00205  0   
##  7 Midwest   Protestant   325 0.468   47.0 
##  8 Midwest   Catholic     172 0.247   25.0 
##  9 Midwest   Jewish         3 0.00432  0   
## 10 Midwest   None         157 0.226   23.0 
## # ... with 14 more rows
```
…
我们将不再与`geom_text()`纠缠，而是使用`ggrepel`。这个非常有用的库为 ggplot 添加了一些新的几何形状。就像`ggplot`扩展了 R 的绘图功能一样，有许多小型库通过提供某种新的`geom`类型来扩展`ggplot`的功能。`ggrepel`库提供了`geom_text_repel()`和`geom_label_repel()`，这两种几何形状可以比默认的`geom_text()`更灵活地挑选出标签。首先，确保库已安装，然后以通常的方式加载它：

```r
library(ggrepel)
```

我们将使用`geom_text_repel()`而不是`geom_text()`。为了展示`geom_text_repel()`能做什么，我们将切换数据集，并使用`socviz`库中提供的一些历史美国总统选举数据。

```r
elections_historic %>%  select(2:7) 
```

```r
## # A tibble: 49 x 6
##     year winner                 win_party ec_pct popular_pct popular_margin
##    <int> <chr>                  <chr>      <dbl>       <dbl>          <dbl>
##  1  1824 John Quincy Adams      D.-R.      0.322       0.309        -0.104 
##  2  1828 Andrew Jackson         Dem.       0.682       0.559         0.122 
##  3  1832 Andrew Jackson         Dem.       0.766       0.547         0.178 
##  4  1836 Martin Van Buren       Dem.       0.578       0.508         0.142 
##  5  1840 William Henry Harrison Whig       0.796       0.529         0.0605
##  6  1844 James Polk             Dem.       0.618       0.495         0.0145
##  7  1848 Zachary Taylor         Whig       0.562       0.473         0.0479
##  8  1852 Franklin Pierce        Dem.       0.858       0.508         0.0695
##  9  1856 James Buchanan         Dem.       0.588       0.453         0.122 
## 10  1860 Abraham Lincoln        Rep.       0.594       0.396         0.101 
## # ... with 39 more rows
```
…
