…
```r
## # A tibble: 366 x 11
##    age   sex    year total elem4 elem8   hs3   hs4 coll3 coll4 median
##    <chr> <chr> <int> <int> <int> <int> <dbl> <dbl> <dbl> <dbl>  <dbl>
##  1 25-34 Male   2016 21845   116   468  1427  6386  6015  7432     NA
##  2 25-34 Male   2015 21427   166   488  1584  6198  5920  7071     NA
##  3 25-34 Male   2014 21217   151   512  1611  6323  5910  6710     NA
##  4 25-34 Male   2013 20816   161   582  1747  6058  5749  6519     NA
##  5 25-34 Male   2012 20464   161   579  1707  6127  5619  6270     NA
##  6 25-34 Male   2011 20985   190   657  1791  6444  5750  6151     NA
##  7 25-34 Male   2010 20689   186   641  1866  6458  5587  5951     NA
##  8 25-34 Male   2009 20440   184   695  1806  6495  5508  5752     NA
##  9 25-34 Male   2008 20210   172   714  1874  6356  5277  5816     NA
## 10 25-34 Male   2007 20024   246   757  1930  6361  5137  5593     NA
## # ... with 356 more rows
```
…
```r
p <-  ggplot(data = bad_year, aes(x = year, y = donors))
p +  geom_point()
```

x 轴标签上的小数点是不需要的。我们可以通过给`scale_x_continuous()`一组`breaks`和`labels`来代表年份作为字符来解决这个问题，这些`breaks`和`labels`表示年份。或者，我们可以改变`year`变量的类。为了方便，我们将告诉 R，`year`变量应该被视为日期度量，而不是整数。我们将使用一个自制的函数`int_to_year()`，它接受整数并将它们转换为日期。

```r
bad_year$year <-  int_to_year(bad_year$year)
bad_year %>%  select(1:3)
```

```r
## # A tibble: 238 x 3
##    country   year       donors
##    <chr>     <date>      <dbl>
##  1 Australia NA          NA   
##  2 Australia 1991-01-01  12.1 
##  3 Australia 1992-01-01  12.4 
##  4 Australia 1993-01-01  12.5 
##  5 Australia 1994-01-01  10.2 
##  6 Australia 1995-01-01  10.2 
##  7 Australia 1996-01-01  10.6 
##  8 Australia 1997-01-01  10.3 
##  9 Australia 1998-01-01  10.5 
## 10 Australia 1999-01-01   8.67
## # ... with 228 more rows
```
…
```r
## # A tibble: 366 x 11
##    age   sex    year total elem4 elem8   hs3   hs4 coll3 coll4 median
##    <chr> <chr> <int> <int> <int> <int> <dbl> <dbl> <dbl> <dbl>  <dbl>
##  1 25-34 Male   2016 21845   116   468  1427  6386  6015  7432     NA
##  2 25-34 Male   2015 21427   166   488  1584  6198  5920  7071     NA
##  3 25-34 Male   2014 21217   151   512  1611  6323  5910  6710     NA
##  4 25-34 Male   2013 20816   161   582  1747  6058  5749  6519     NA
##  5 25-34 Male   2012 20464   161   579  1707  6127  5619  6270     NA
##  6 25-34 Male   2011 20985   190   657  1791  6444  5750  6151     NA
##  7 25-34 Male   2010 20689   186   641  1866  6458  5587  5951     NA
##  8 25-34 Male   2009 20440   184   695  1806  6495  5508  5752     NA
##  9 25-34 Male   2008 20210   172   714  1874  6356  5277  5816     NA
## 10 25-34 Male   2007 20024   246   757  1930  6361  5137  5593     NA
## # ... with 356 more rows
```
…
```r
## # A tibble: 366 x 11
##    age   sex    year total elem4 elem8   hs3   hs4 coll3 coll4 median
##    <chr> <chr> <int> <int> <int> <int> <dbl> <dbl> <dbl> <dbl>  <dbl>
##  1 25-34 Male   2016 21845   116   468  1427  6386  6015  7432     NA
##  2 25-34 Male   2015 21427   166   488  1584  6198  5920  7071     NA
##  3 25-34 Male   2014 21217   151   512  1611  6323  5910  6710     NA
##  4 25-34 Male   2013 20816   161   582  1747  6058  5749  6519     NA
##  5 25-34 Male   2012 20464   161   579  1707  6127  5619  6270     NA
##  6 25-34 Male   2011 20985   190   657  1791  6444  5750  6151     NA
##  7 25-34 Male   2010 20689   186   641  1866  6458  5587  5951     NA
##  8 25-34 Male   2009 20440   184   695  1806  6495  5508  5752     NA
##  9 25-34 Male   2008 20210   172   714  1874  6356  5277  5816     NA
## 10 25-34 Male   2007 20024   246   757  1930  6361  5137  5593     NA
## # ... with 356 more rows
```
…
```r
p <-  ggplot(data = bad_year, aes(x = year, y = donors))
p +  geom_point()
```

x 轴标签上的小数点是不需要的。我们可以通过给`scale_x_continuous()`一组`breaks`和`labels`来解决这个问题，这些`breaks`和`labels`表示年份为字符。或者，我们可以更改`year`变量的类。为了方便，我们将告诉 R，`year`变量应该被视为日期度量，而不是整数。我们将使用一个自制的函数`int_to_year()`，它接受整数并将它们转换为日期。

```r
bad_year$year <-  int_to_year(bad_year$year)
bad_year %>%  select(1:3)
```

```r
## # A tibble: 238 x 3
##    country   year       donors
##    <chr>     <date>      <dbl>
##  1 Australia NA          NA   
##  2 Australia 1991-01-01  12.1 
##  3 Australia 1992-01-01  12.4 
##  4 Australia 1993-01-01  12.5 
##  5 Australia 1994-01-01  10.2 
##  6 Australia 1995-01-01  10.2 
##  7 Australia 1996-01-01  10.6 
##  8 Australia 1997-01-01  10.3 
##  9 Australia 1998-01-01  10.5 
## 10 Australia 1999-01-01   8.67
## # ... with 228 more rows
```
…
```r
p <-  ggplot(data = bad_year, aes(x = year, y = donors))
p +  geom_point()
```

x 轴标签上的小数点是不需要的。我们可以通过给`scale_x_continuous()`一组`breaks`和`labels`来代表年份作为字符来解决这个问题，这些`breaks`和`labels`表示年份。或者，我们可以更改`year`变量的类。为了方便，我们将告诉 R，`year`变量应被视为日期度量，而不是整数。我们将使用一个自制的函数`int_to_year()`，它接受整数并将它们转换为日期。

```r
bad_year$year <-  int_to_year(bad_year$year)
bad_year %>%  select(1:3)
```

```r
## # A tibble: 238 x 3
##    country   year       donors
##    <chr>     <date>      <dbl>
##  1 Australia NA          NA   
##  2 Australia 1991-01-01  12.1 
##  3 Australia 1992-01-01  12.4 
##  4 Australia 1993-01-01  12.5 
##  5 Australia 1994-01-01  10.2 
##  6 Australia 1995-01-01  10.2 
##  7 Australia 1996-01-01  10.6 
##  8 Australia 1997-01-01  10.3 
##  9 Australia 1998-01-01  10.5 
## 10 Australia 1999-01-01   8.67
## # ... with 228 more rows
```
…
