…
我们将使用 gapminder 数据来制作我们的第一个图表。请确保包含数据的库已加载。如果您正在同一个 RStudio 会话或 RMarkdown 文档中跟随上一章，您就无需再次加载它。否则，使用 `library()` 使其可用。

```r
library(gapminder)
```

我们可以通过在控制台中输入对象名称来再次提醒自己它的样子：

```r
gapminder
```

```r
## # A tibble: 1,704 x 6
##    country     continent  year lifeExp      pop gdpPercap
##    <fct>       <fct>     <int>   <dbl>    <int>     <dbl>
##  1 Afghanistan Asia       1952    28.8  8425333       779
##  2 Afghanistan Asia       1957    30.3  9240934       821
##  3 Afghanistan Asia       1962    32.0 10267083       853
##  4 Afghanistan Asia       1967    34.0 11537966       836
##  5 Afghanistan Asia       1972    36.1 13079460       740
##  6 Afghanistan Asia       1977    38.4 14880372       786
##  7 Afghanistan Asia       1982    39.9 12881816       978
##  8 Afghanistan Asia       1987    40.8 13867957       852
##  9 Afghanistan Asia       1992    41.7 16317921       649
## 10 Afghanistan Asia       1997    41.8 22227415       635
## # ... with 1,694 more rows
```
…
我们将使用 gapminder 数据来制作我们的第一个图表。确保包含数据的库已加载。如果你是在同一 RStudio 会话或 RMarkdown 文档中跟随上一章，你就不需要再次加载它。否则，使用 `library()` 使其可用。

```r
library(gapminder)
```

我们可以通过在控制台中键入对象的名称来再次提醒自己它的样子：

```r
gapminder
```

```r
## # A tibble: 1,704 x 6
##    country     continent  year lifeExp      pop gdpPercap
##    <fct>       <fct>     <int>   <dbl>    <int>     <dbl>
##  1 Afghanistan Asia       1952    28.8  8425333       779
##  2 Afghanistan Asia       1957    30.3  9240934       821
##  3 Afghanistan Asia       1962    32.0 10267083       853
##  4 Afghanistan Asia       1967    34.0 11537966       836
##  5 Afghanistan Asia       1972    36.1 13079460       740
##  6 Afghanistan Asia       1977    38.4 14880372       786
##  7 Afghanistan Asia       1982    39.9 12881816       978
##  8 Afghanistan Asia       1987    40.8 13867957       852
##  9 Afghanistan Asia       1992    41.7 16317921       649
## 10 Afghanistan Asia       1997    41.8 22227415       635
## # ... with 1,694 more rows
```
…
