…
## 7.4 小倍数地图

有时候，我们会有带有时间重复观察的地理数据。一个常见的例子是在几年内对国家或州级指标进行观察。在这些情况下，我们可能想要制作一个小倍数地图来展示随时间的变化。例如，`opiates`数据包含了 1999 年至 2014 年间州级因阿片类药物（如海洛因或芬太尼过量）导致的死亡率指标。

```r
opiates
```

```r
## # A tibble: 800 x 11
##     year state        fips deaths population crude adjusted
##    <int> <chr>       <int>  <int>      <int> <dbl>    <dbl>
##  1  1999 Alabama         1     37    4430141 0.800    0.800
##  2  1999 Alaska          2     27     624779 4.30     4.00 
##  3  1999 Arizona         4    229    5023823 4.60     4.70 
##  4  1999 Arkansas        5     28    2651860 1.10     1.10 
##  5  1999 California      6   1474   33499204 4.40     4.50 
##  6  1999 Colorado        8    164    4226018 3.90     3.70 
##  7  1999 Connecticut     9    151    3386401 4.50     4.40 
##  8  1999 Delaware       10     32     774990 4.10     4.10 
##  9  1999 District o…    11     28     570213 4.90     4.90 
## 10  1999 Florida        12    402   15759421 2.60     2.60 
## # ... with 790 more rows, and 4 more variables:
## #   adjusted_se <dbl>, region <ord>, abbr <chr>,
## #   division_name <chr>
```
…
## 7.4 小多地图

有时我们拥有随时间重复观察的地理数据。一个常见的情况是在几年内观察国家或州一级的指标。在这些情况下，我们可能想要制作一个小的多地图来展示随时间的变化。例如，`opiates` 数据包含了 1999 年至 2014 年间州一级的阿片类药物相关死亡率的指标（如海洛因或芬太尼过量）。

```r
opiates
```

```r
## # A tibble: 800 x 11
##     year state        fips deaths population crude adjusted
##    <int> <chr>       <int>  <int>      <int> <dbl>    <dbl>
##  1  1999 Alabama         1     37    4430141 0.800    0.800
##  2  1999 Alaska          2     27     624779 4.30     4.00 
##  3  1999 Arizona         4    229    5023823 4.60     4.70 
##  4  1999 Arkansas        5     28    2651860 1.10     1.10 
##  5  1999 California      6   1474   33499204 4.40     4.50 
##  6  1999 Colorado        8    164    4226018 3.90     3.70 
##  7  1999 Connecticut     9    151    3386401 4.50     4.40 
##  8  1999 Delaware       10     32     774990 4.10     4.10 
##  9  1999 District o…    11     28     570213 4.90     4.90 
## 10  1999 Florida        12    402   15759421 2.60     2.60 
## # ... with 790 more rows, and 4 more variables:
## #   adjusted_se <dbl>, region <ord>, abbr <chr>,
## #   division_name <chr>
```
…
