…
为了方便起见，ggplot 还提供了一个相关的 geom，`geom_col()`，它具有完全相同的效果，但假设 `stat = "identity"`。当我们不需要在图表上进行任何计算时，我们将使用这种形式。

`geom_bar()`和`geom_col()`中的`position`参数也可以取值为`"identity"`。正如`stat = "identity"`意味着“不进行任何汇总计算”，`position = "identity"`意味着“仅按给定值绘制”。这允许我们做一些事情，例如，在柱状图中绘制正负值的流动。这种图表是线图的替代品，通常在公共政策环境中可以看到，其中对相对于某个阈值水平或基线的变化感兴趣。例如，`socviz`中的`oecd_sum`表包含了美国及其他经合组织国家平均预期寿命的信息。

```r
oecd_sum
```

```r
## # A tibble: 57 x 5
## # Groups:   year [57]
##     year other   usa  diff hi_lo
##    <int> <dbl> <dbl> <dbl> <chr>
##  1  1960  68.6  69.9 1.30  Below
##  2  1961  69.2  70.4 1.20  Below
##  3  1962  68.9  70.2 1.30  Below
##  4  1963  69.1  70.0 0.900 Below
##  5  1964  69.5  70.3 0.800 Below
##  6  1965  69.6  70.3 0.700 Below
##  7  1966  69.9  70.3 0.400 Below
##  8  1967  70.1  70.7 0.600 Below
##  9  1968  70.1  70.4 0.300 Below
## 10  1969  70.1  70.6 0.500 Below
## # ... with 47 more rows
```
…
为了方便起见，ggplot 还提供了一个相关的几何对象 `geom_col()`，它具有完全相同的效果，但假设 `stat = "identity"`。在将来，当我们不需要在图表上执行任何计算时，我们将使用这种形式。

`geom_bar()`和`geom_col()`中的`position`参数也可以取值为`"identity"`。正如`stat = "identity"`意味着“不进行任何汇总计算”，`position = "identity"`意味着“仅按给定值绘制”。这允许我们做一些事情，例如，在柱状图中绘制正负值的流动。这种图表是线图的替代品，通常在公共政策环境中可以看到，其中对相对于某个阈值水平或基线的变化感兴趣。例如，`socviz`中的`oecd_sum`表包含美国及其他 OECD 国家出生时平均预期寿命的信息。

```r
oecd_sum
```

```r
## # A tibble: 57 x 5
## # Groups:   year [57]
##     year other   usa  diff hi_lo
##    <int> <dbl> <dbl> <dbl> <chr>
##  1  1960  68.6  69.9 1.30  Below
##  2  1961  69.2  70.4 1.20  Below
##  3  1962  68.9  70.2 1.30  Below
##  4  1963  69.1  70.0 0.900 Below
##  5  1964  69.5  70.3 0.800 Below
##  6  1965  69.6  70.3 0.700 Below
##  7  1966  69.9  70.3 0.400 Below
##  8  1967  70.1  70.7 0.600 Below
##  9  1968  70.1  70.4 0.300 Below
## 10  1969  70.1  70.6 0.500 Below
## # ... with 47 more rows
```
…
