…
对于贝叶斯线性模型，我们还需要为模型中的两个参数定义先验。假设我们确信按下键所需的时间将是正的并且低于一分钟（或 \(60000\) 毫秒），但我们不希望就哪些值更有可能做出承诺。我们在 \(\sigma\) 中编码我们对任务噪声的了解：我们知道这个参数必须是正的，我们假设任何低于 \(2000\) 毫秒的值可能性相同。这些先验通常强烈不建议使用：平坦（或非常宽）的先验几乎永远不会是我们所知道的最佳近似。先验规格将在在线章节 E 中详细讨论。

在这种情况下，即使我们对任务了解很少，我们也知道按下空格键最多只需要几秒钟。为了教学目的，本节将使用平坦先验；下一节将展示更现实的先验使用。

\[\begin{equation} \begin{aligned} \mu &\sim \mathit{Uniform}(0, 60000) \\ \sigma &\sim \mathit{Uniform}(0, 2000) \end{aligned} \tag{3.4} \end{equation}\]

首先，从 `bcogsci` 包中加载数据框 `df_spacebar`：

```r
data("df_spacebar")
df_spacebar
```

```r
## # A tibble: 361 × 2
##       t trial
##   <int> <int>
## 1   141     1
## 2   138     2
## 3   128     3
## # ℹ 358 more rows
```
…
```r
## 1.39 sec elapsed
```

```r
prior_pred
```

```r
## # A tibble: 361,000 × 3
##   trialn t_pred  iter
##    <dbl>  <dbl> <dbl>
## 1      1 16710\.     1
## 2      2 16686\.     1
## 3      3 17245\.     1
## # ℹ 360,997 more rows
```
…
\[\begin{equation} p(\boldsymbol{y_{pred}}\mid \boldsymbol{y} )=\int_{\boldsymbol{\Theta}} p(\boldsymbol{y_{pred}}\mid \boldsymbol{\Theta}) p(\boldsymbol{\Theta}\mid \boldsymbol{y})\, \mathrm{d}\boldsymbol{\Theta} \tag{3.8} \end{equation}\]

在方程 (3.8) 中，我们只对 \(\boldsymbol{y_{pred}}\) 进行了关于 \(\boldsymbol{y}\) 的条件化，我们没有对未知的内容（\(\boldsymbol{\Theta}\)）进行条件化；未知参数已经被积分掉了。这个后验预测分布与使用频率主义方法获得的预测有重要区别。频率主义方法给出了每个预测观测的最大似然估计 \(\boldsymbol{\Theta}\)（一个点值）的点估计，而贝叶斯方法给出了每个预测观测的值分布。与先验预测分布一样，积分可以通过从后验预测分布中生成样本来计算。我们之前创建的相同函数 `normal_predictive_distribution()` 可以在这里使用。唯一的区别是，我们不是从先验中采样 `mu` 和 `sigma`，而是从后验中采样。

```r
N_obs <-  nrow(df_spacebar)
mu_samples <-  as_draws_df(fit_press)$b_Intercept
sigma_samples <-  as_draws_df(fit_press)$sigma
normal_predictive_distribution(mu_samples = mu_samples,
 sigma_samples = sigma_samples,
 N_obs = N_obs)
```

```r
## # A tibble: 1,444,000 × 3
##    iter trialn t_pred
##   <dbl>  <int>  <dbl>
## 1     1      1   128.
## 2     1      2   134.
## 3     1      3   167.
## # ℹ 1,443,997 more rows
```
…
