…
我们在这里指定的先验相对不提供信息；如前所述，这是因为我们在瞳孔大小研究中没有太多的先验经验。在其他设置中，我们可能会有更多的先验知识和经验；在这种情况下，可以使用更原则性的先验。我们在在线章节中讨论了这一点（在线章节 E）和贝叶斯工作流程（在线章节 F）。

### 4.1.2 `brms` 模型

在拟合负荷对瞳孔大小影响的 `brms` 模型之前，加载数据并使预测因子 `load` 中心化：

```r
data("df_pupil")
(df_pupil <-  df_pupil %>%
 mutate(c_load = load -  mean(load)))
```

```r
## # A tibble: 41 × 5
##    subj trial  load p_size c_load
##   <int> <int> <int>  <dbl>  <dbl>
## 1   701     1     2  1021\. -0.439
## 2   701     2     1   951\. -1.44 
## 3   701     3     5  1064\.  2.56 
## # ℹ 38 more rows
```
…
```r
## [1] 2 4 6 8
```

```r
# Trials by set size
df_recall %>%
 group_by(set_size) %>%
 count()
```

```r
## # A tibble: 4 × 2
## # Groups:   set_size [4]
##   set_size     n
##      <int> <int>
## 1        2    23
## 2        4    23
## 3        6    23
## # ℹ 1 more row
```

在这里，列 `correct` 分别用 `0` 和 `1` 记录错误和正确的响应，列 `c_set_size` 记录中心化的记忆集合大小；这些后者的分数具有连续值 -3、-1、1 和 3。这些连续值是 2、4、6 和 8 的中心化版本。

```r
df_recall
```

```r
## # A tibble: 92 × 8
##   subj  set_size correct trial session block tested c_set_size
##   <chr>    <int>   <int> <int>   <int> <int>  <int>      <dbl>
## 1 10           4       1     1       1     1      2         -1
## 2 10           8       0     4       1     1      8          3
## 3 10           2       1     9       1     1      2         -3
## # ℹ 89 more rows
```
…
